<?xml version='1.0' encoding='UTF-8'?>
<!-- This file was generated by dvisvgm 3.0.3 -->
<svg version='1.1' xmlns='http://www.w3.org/2000/svg' xmlns:xlink='http://www.w3.org/1999/xlink' width='130.266501pt' height='161.529601pt' viewBox='-21.804259 13.493368 130.266501 161.529601'>
<defs>
<path id='g0-28' d='M4.07472 0V-2.879203C4.07472-3.895392 3.347447-4.592777 2.430884-4.592777C1.783313-4.592777 1.334994-4.433375 .86675-4.164384L.926526-3.506849C1.444583-3.875467 1.942715-4.004981 2.430884-4.004981C2.899128-4.004981 3.297634-3.606476 3.297634-2.86924V-2.440847C1.803238-2.420922 .537983-2.002491 .537983-1.125778C.537983-.697385 .806974 .109589 1.673724 .109589C1.8132 .109589 2.749689 .089664 3.327522-.358655V0H4.07472ZM3.297634-1.315068C3.297634-1.125778 3.297634-.876712 2.958904-.687422C2.669988-.508095 2.291407-.498132 2.181818-.498132C1.703611-.498132 1.255293-.727273 1.255293-1.145704C1.255293-1.843088 2.86924-1.912827 3.297634-1.932752V-1.315068Z'/>
<path id='g0-35' d='M4.782067-2.221669C4.782067-3.457036 4.104608-4.533001 3.16812-4.533001C2.779577-4.533001 2.161893-4.433375 1.564134-3.945205V-6.914072H.816936V0H1.594022V-.458281C1.833126-.239103 2.261519 .109589 2.929016 .109589C3.92528 .109589 4.782067-.886675 4.782067-2.221669ZM4.004981-2.221669C4.004981-.926526 3.16812-.498132 2.560399-.498132C2.171856-.498132 1.843088-.67746 1.594022-1.135741V-3.337484C1.753425-3.576588 2.11208-3.92528 2.660025-3.92528C3.247821-3.92528 4.004981-3.496887 4.004981-2.221669Z'/>
<path id='g0-43' d='M4.134496-.398506L4.07472-1.066002C3.566625-.667497 3.028643-.52802 2.520548-.52802C1.693649-.52802 1.135741-1.24533 1.135741-2.221669C1.135741-2.998755 1.504359-3.955168 2.560399-3.955168C3.078456-3.955168 3.417186-3.875467 3.965131-3.516812L4.084682-4.164384C3.496887-4.503113 3.158157-4.592777 2.550436-4.592777C1.165629-4.592777 .358655-3.387298 .358655-2.211706C.358655-.976339 1.265255 .109589 2.510585 .109589C3.048568 .109589 3.596513-.029888 4.134496-.398506Z'/>
</defs>
<g id='page1' transform='matrix(1.5 0 0 1.5 0 0)'>
<rect x='-14.536172' y='8.995579' height='8.348697' width='1.494396' fill='#aaa7b3'/>
<rect x='-13.041776' y='12.920861' height='.498132' width='18.430884' fill='#aaa7b3'/>
<rect x='4.890976' y='13.418993' height='66.152076' width='.498132' fill='#aaa7b3'/>
<rect x='5.389108' y='12.920861' height='.498132' width='19.92528' fill='#aaa7b3'/>
<rect x='24.816256' y='13.418993' height='33.076038' width='.498132' fill='#aaa7b3'/>
<rect x='25.314388' y='12.920861' height='.498132' width='19.92528' fill='#aaa7b3'/>
<rect x='44.741536' y='13.418993' height='16.538019' width='.498132' fill='#aaa7b3'/>
<rect x='45.239668' y='12.920861' height='.498132' width='19.92528' fill='#aaa7b3'/>
<g fill='#aaa7b3'>
<use x='67.157476' y='17.344276' xlink:href='#g0-28'/>
</g>
<rect x='45.239668' y='29.45888' height='.498132' width='19.92528' fill='#aaa7b3'/>
<g fill='#aaa7b3'>
<use x='67.157476' y='33.882295' xlink:href='#g0-43'/>
</g>
<rect x='25.314388' y='45.996899' height='.498132' width='19.92528' fill='#aaa7b3'/>
<rect x='44.741536' y='46.495031' height='16.538019' width='.498132' fill='#aaa7b3'/>
<rect x='45.239668' y='45.996899' height='.498132' width='19.92528' fill='#aaa7b3'/>
<g fill='#aaa7b3'>
<use x='67.157476' y='50.420314' xlink:href='#g0-35'/>
</g>
<rect x='45.239668' y='62.534918' height='.498132' width='19.92528' fill='#aaa7b3'/>
<g fill='#aaa7b3'>
<use x='67.157476' y='66.958333' xlink:href='#g0-43'/>
</g>
<rect x='5.389108' y='79.072938' height='.498132' width='19.92528' fill='#aaa7b3'/>
<rect x='24.816256' y='79.57107' height='33.076038' width='.498132' fill='#aaa7b3'/>
<rect x='25.314388' y='79.072938' height='.498132' width='19.92528' fill='#aaa7b3'/>
<rect x='44.741536' y='79.57107' height='16.538019' width='.498132' fill='#aaa7b3'/>
<rect x='45.239668' y='79.072938' height='.498132' width='19.92528' fill='#aaa7b3'/>
<g fill='#aaa7b3'>
<use x='67.157476' y='83.496352' xlink:href='#g0-28'/>
</g>
<rect x='45.239668' y='95.610957' height='.498132' width='19.92528' fill='#aaa7b3'/>
<g fill='#aaa7b3'>
<use x='67.157476' y='100.034371' xlink:href='#g0-35'/>
</g>
<rect x='25.314388' y='112.148976' height='.498132' width='19.92528' fill='#aaa7b3'/>
<g fill='#aaa7b3'>
<use x='47.232196' y='116.57239' xlink:href='#g0-43'/>
</g>
</g>
</svg>