<?xml version='1.0' encoding='UTF-8'?>
<!-- This file was generated by dvisvgm 2.13.3 -->
<svg version='1.1' xmlns='http://www.w3.org/2000/svg' xmlns:xlink='http://www.w3.org/1999/xlink' width='34.036409pt' height='8.383562pt' viewBox='-21.804259 15.645306 34.036409 8.383562'>
<defs>
<path id='g1-30' d='M7.193026-3.457036C7.193026-3.566625 7.103362-3.656289 6.993773-3.656289H.757161C.647572-3.656289 .557908-3.566625 .557908-3.457036S.647572-3.257783 .757161-3.257783H6.993773C7.103362-3.257783 7.193026-3.347447 7.193026-3.457036ZM7.193026-1.524284C7.193026-1.633873 7.103362-1.723537 6.993773-1.723537H.757161C.647572-1.723537 .557908-1.633873 .557908-1.524284S.647572-1.325031 .757161-1.325031H6.993773C7.103362-1.325031 7.193026-1.414695 7.193026-1.524284Z'/>
<path id='g0-499' d='M1.793275-4.841843V-5.668742H1.544209L1.793275-6.914072H1.384807L.966376-5.65878V-4.841843H1.793275ZM3.726027-4.841843V-5.668742H3.476961L3.726027-6.914072H3.317559L2.899128-5.65878V-4.841843H3.726027Z'/>
<path id='g0-500' d='M1.803238-6.097136V-6.914072H.976339V-6.087173H1.225405L.976339-4.841843H1.384807L1.803238-6.097136ZM3.73599-6.097136V-6.914072H2.909091V-6.087173H3.158157L2.909091-4.841843H3.317559L3.73599-6.097136Z'/>
</defs>
<g id='page1' transform='matrix(1.5 0 0 1.5 0 0)'>
<g fill='#aaa7b3'>
<use x='-14.536172' y='17.344276' xlink:href='#g0-499'/>
<use x='-7.066168' y='17.344276' xlink:href='#g1-30'/>
<use x='3.452401' y='17.344276' xlink:href='#g0-500'/>
</g>
</g>
</svg>