<?xml version='1.0' encoding='UTF-8'?>
<!-- This file was generated by dvisvgm 3.0.3 -->
<svg version='1.1' xmlns='http://www.w3.org/2000/svg' xmlns:xlink='http://www.w3.org/1999/xlink' width='24.059783pt' height='10.430884pt' viewBox='-21.804259 15.615418 24.059783 10.430884'>
<defs>
<path id='g1-2782' d='M6.176837-6.535492C6.276463-6.784558 5.917808-6.933998 5.808219-6.694894L4.841843-4.363636H1.793275L.816936-6.694894C.71731-6.933998 .348692-6.784558 .458281-6.535492L1.474471-4.094645V-4.084682L3.118306-.159402C3.188045 .019925 3.437111 .019925 3.516812-.159402L5.150685-4.084682L5.160648-4.094645L6.176837-6.535492ZM4.672478-3.965131L3.317559-.71731L1.96264-3.965131H4.672478Z'/>
<path id='g0-499' d='M1.793275-4.841843V-5.668742H1.544209L1.793275-6.914072H1.384807L.966376-5.65878V-4.841843H1.793275ZM3.726027-4.841843V-5.668742H3.476961L3.726027-6.914072H3.317559L2.899128-5.65878V-4.841843H3.726027Z'/>
<path id='g0-500' d='M1.803238-6.097136V-6.914072H.976339V-6.087173H1.225405L.976339-4.841843H1.384807L1.803238-6.097136ZM3.73599-6.097136V-6.914072H2.909091V-6.087173H3.158157L2.909091-4.841843H3.317559L3.73599-6.097136Z'/>
</defs>
<g id='page1' transform='matrix(1.5 0 0 1.5 0 0)'>
<g fill='#aaa7b3'>
<use x='-14.536172' y='17.344276' xlink:href='#g0-499'/>
<use x='-9.833805' y='17.344276' xlink:href='#g1-2782'/>
<use x='-3.198683' y='17.344276' xlink:href='#g0-500'/>
</g>
</g>
</svg>