<?xml version='1.0' encoding='UTF-8'?>
<!-- This file was generated by dvisvgm 2.13.3 -->
<svg version='1.1' xmlns='http://www.w3.org/2000/svg' xmlns:xlink='http://www.w3.org/1999/xlink' width='811.96025pt' height='150.071161pt' viewBox='-65.739492 11.072458 811.96025 150.071161'>
<defs>
<path id='g0-28' d='M5.867594 0L6.742712-4.146051C7.058328-5.609363 6.226249-6.613596 4.906399-6.613596C3.973896-6.613596 3.285279-6.384057 2.52493-5.99671L2.410161-5.049861C3.270933-5.58067 4.016935-5.767171 4.719898-5.767171C5.39417-5.767171 5.853248-5.193323 5.623709-4.131704L5.494593-3.514818C3.342664-3.486126 1.391581-2.883585 1.119003-1.62112C.989888-1.004234 1.133349 .157808 2.381468 .157808C2.582315 .157808 3.930858 .129116 4.906399-.516463L4.791629 0H5.867594ZM5.150284-1.893698C5.092899-1.62112 5.021168-1.262465 4.476013-.989888C4.002589-.731656 3.457433-.71731 3.299625-.71731C2.611008-.71731 2.03716-1.047272 2.151929-1.649813C2.367122-2.654046 4.719898-2.75447 5.336785-2.783162L5.150284-1.893698Z'/>
<path id='g0-43' d='M6.082787-.573848L6.197557-1.535043C5.336785-.961195 4.519052-.760348 3.787396-.760348C2.596661-.760348 2.022814-1.793274 2.309738-3.199202C2.553623-4.318205 3.371356-5.69544 4.892053-5.69544C5.638055-5.69544 6.111479-5.58067 6.785751-5.064207L7.158752-5.99671C6.412749-6.48448 5.953671-6.613596 5.078553-6.613596C3.084432-6.613596 1.549389-4.877707 1.190734-3.184855C.817733-1.405927 1.793274 .157808 3.586549 .157808C4.361243 .157808 5.193323-.043039 6.082787-.573848Z'/>
<path id='g0-50' d='M6.613596-3.141817C6.71402-3.629588 6.929213-4.705552 6.541865-5.566324C6.154518-6.455788 5.308092-6.613596 4.791629-6.613596C3.199202-6.613596 1.578082-5.092899 1.190734-3.24224C.789041-1.348542 1.850659 .157808 3.572203 .157808C4.476013 .157808 5.365477-.186501 6.011056-.588194L6.125826-1.520697C5.049861-.774695 4.103012-.71731 3.773049-.71731C2.625354-.71731 1.92239-1.73589 2.180622-3.141817H6.613596ZM5.953671-3.930858H2.410161C2.869239-5.021168 3.787396-5.738478 4.605129-5.738478C5.351131-5.738478 6.054095-5.250708 5.953671-3.930858Z'/>
<path id='g0-55' d='M6.886174-8.995065L7.101367-9.95626C6.929213-9.999298 6.513173-10.114068 5.982364-10.114068C4.633821-10.114068 3.385702-9.095488 3.084432-7.660868L2.797508-6.369711H1.73589L1.563735-5.537632H2.625354L1.448966 0H2.52493L3.701318-5.537632H5.2794L5.451554-6.369711H3.830434L4.203435-8.076908C4.418628-9.138527 5.408516-9.23895 5.781517-9.23895C6.068441-9.23895 6.441442-9.210258 6.886174-8.995065Z'/>
<path id='g0-59' d='M8.148639-5.623709L8.191678-6.527519C7.187444-6.527519 6.29798-6.254941 5.824555-6.068441C5.58067-6.312326 5.135938-6.527519 4.56209-6.527519C3.328317-6.527519 2.051506-5.494593 1.778928-4.189089C1.664159-3.65828 1.750236-3.141817 1.951083-2.768816C1.405927-2.180622 1.291158-1.62112 1.276811-1.549389C1.190734-1.176388 1.233773-.760348 1.420273-.459078C.573848-.014346 .258232 .645579 .186501 1.01858C-.043039 2.094545 1.190734 2.955316 2.94097 2.955316C4.705552 2.955316 6.312326 2.108891 6.541865 1.004234C6.972251-.989888 4.576436-.989888 4.016935-.989888H2.75447C2.567969-.989888 1.92239-.989888 2.080198-1.750236C2.108891-1.908044 2.22366-2.137583 2.352776-2.266699C2.596661-2.051506 3.027047-1.850659 3.557857-1.850659C4.849014-1.850659 6.082787-2.912278 6.355365-4.189089C6.498827-4.877707 6.29798-5.408516 6.18321-5.623709L6.240595-5.609363C6.556211-5.609363 6.972251-5.666747 7.31656-5.666747C7.574791-5.666747 8.148639-5.623709 8.148639-5.623709ZM5.351131-4.189089C5.107246-3.070086 4.361243-2.668392 3.744357-2.668392C3.213548-2.668392 2.52493-2.998355 2.783162-4.189089S3.859127-5.709786 4.389936-5.709786C5.006822-5.709786 5.595016-5.308092 5.351131-4.189089ZM5.537632 1.032926C5.39417 1.664159 4.303859 2.137583 3.127471 2.137583C1.965429 2.137583 1.047272 1.692851 1.190734 1.01858C1.20508 .975541 1.391581 .043039 2.510584 .043039H3.801742C4.117358 .043039 5.738478 .043039 5.537632 1.032926Z'/>
<path id='g0-66' d='M2.238007 0L3.586549-6.369711H2.510584L1.162042 0H2.238007ZM4.07432-8.119947L4.346897-9.396758H3.070086L2.797508-8.119947H4.07432Z'/>
<path id='g0-72' d='M2.238007 0L4.361243-9.95626H3.285279L1.162042 0H2.238007Z'/>
<path id='g0-75' d='M10.228838 0L11.132648-4.275166C11.347841-5.236361 11.390879-6.527519 9.65499-6.527519C8.794218-6.527519 7.962139-6.125826 7.259175-5.351131C7.115713-6.441442 6.140172-6.527519 5.681093-6.527519C4.648167-6.527519 3.84478-5.939325 3.342664-5.422862L3.572203-6.455788H2.539277L1.162042 0H2.281045L3.027047-3.514818C3.24224-4.490359 3.873473-5.652401 4.935091-5.652401C6.269288-5.652401 6.140172-4.719898 6.025402-4.174743L5.135938 0H6.254941L7.000943-3.514818C7.216136-4.490359 7.847369-5.652401 8.908988-5.652401C10.243184-5.652401 10.114068-4.719898 9.999298-4.174743L9.109834 0H10.228838Z'/>
<path id='g0-77' d='M6.240595 0L7.144405-4.275166C7.345252-5.222015 7.416983-6.527519 5.666747-6.527519C4.37559-6.527519 3.457433-5.551978 3.35701-5.437208L3.572203-6.455788H2.539277L1.162042 0H2.281045L3.027047-3.514818C3.227894-4.461667 3.84478-5.652401 4.935091-5.652401C6.312326-5.652401 6.111479-4.633821 6.011056-4.174743L5.121592 0H6.240595Z'/>
<path id='g0-81' d='M7.402637-3.156163C7.80433-5.078553 6.699673-6.613596 4.992476-6.613596C3.227894-6.613596 1.506351-5.035515 1.104657-3.156163C.702964-1.262465 1.865005 .157808 3.54351 .157808C5.265054 .157808 7.000943-1.291158 7.402637-3.156163ZM6.312326-3.299625C5.953671-1.606774 4.791629-.760348 3.730011-.760348C2.740123-.760348 1.879352-1.563735 2.252353-3.299625S3.859127-5.738478 4.791629-5.738478C5.795863-5.738478 6.670981-4.992476 6.312326-3.299625Z'/>
<path id='g0-84' d='M7.560445-3.199202C7.933446-4.920745 7.373945-6.527519 5.99671-6.527519C5.135938-6.527519 4.232128-6.226249 3.457433-5.666747L3.600895-6.369711H2.52493L.588194 2.783162H1.707197L2.438853-.659925C2.797508-.243885 3.342664 .157808 4.203435 .157808C5.595016 .157808 7.144405-1.248119 7.560445-3.199202ZM6.441442-3.199202C6.140172-1.721543 4.906399-.71731 3.830434-.71731C3.270933-.71731 2.94097-1.004234 2.740123-1.391581C2.6397-1.606774 2.6397-1.635466 2.697085-1.893698L3.313971-4.777283C3.758703-5.2794 4.389936-5.609363 5.006822-5.609363C6.097133-5.609363 6.728366-4.519052 6.441442-3.199202Z'/>
<path id='g0-96' d='M5.867594-5.566324L6.082787-6.527519C4.791629-6.513173 3.859127-5.810209 3.270933-5.150284L3.557857-6.455788H2.553623L1.176388 0H2.252353L2.897932-3.070086C3.213548-4.504705 4.461667-5.537632 5.867594-5.566324Z'/>
<path id='g0-105' d='M4.849014-.387347L4.791629-1.233773C4.361243-.932503 3.859127-.760348 3.400048-.760348C2.869239-.760348 2.768816-1.190734 2.926624-1.951083L3.686972-5.537632H5.709786L5.88194-6.369711H3.859127L4.246474-8.191678H3.256586L2.869239-6.369711H1.62112L1.448966-5.537632H2.654046L1.836313-1.707197C1.664159-.846426 1.649813 .157808 2.6397 .157808C3.643934 .157808 4.447321-.200847 4.849014-.387347Z'/>
<path id='g0-109' d='M6.240595 0L7.589138-6.369711H6.470134L5.595016-2.209314C5.365477-1.133349 4.447321-.631233 3.529164-.631233C2.510584-.631233 2.496238-1.004234 2.625354-1.62112L3.629588-6.369711H2.510584L1.492004-1.563735C1.276811-.530809 1.463312 .157808 2.654046 .157808C3.414395 .157808 4.476013-.071731 5.308092-.688617L5.16463 0H6.240595Z'/>
<path id='g0-118' d='M7.746946-6.369711H6.670981C3.84478-1.807621 3.672626-1.147696 3.586549-.817733H3.572203C3.686972-1.778928 3.113124-4.447321 3.084432-4.576436L2.682739-6.369711H1.549389L2.984009 0L2.194968 1.291158C1.649813 2.123237 1.405927 2.123237 1.20508 2.123237C.975541 2.123237 .516463 2.065852 .129116 1.893698L.014346 2.826201C.315616 2.897932 .702964 2.94097 1.01858 2.94097C1.520697 2.94097 2.094545 2.768816 2.998355 1.305504L7.746946-6.369711Z'/>
<path id='g2-27' d='M9.152873 0L5.408516-9.95626H4.146051L.401693 0H1.463312L2.567969-2.926624H6.742712L7.833023 0H9.152873ZM6.427096-3.730011H2.869239C3.600895-5.781517 3.070086-4.275166 3.801742-6.326672C4.103012-7.173098 4.547744-8.392524 4.648167-8.923334H4.662514C4.691206-8.722487 4.791629-8.363832 5.121592-7.416983L6.427096-3.730011Z'/>
<path id='g2-28' d='M5.867594 0V-4.146051C5.867594-5.609363 4.820322-6.613596 3.500472-6.613596C2.567969-6.613596 1.92239-6.384057 1.248119-5.99671L1.334196-5.049861C2.080198-5.58067 2.797508-5.767171 3.500472-5.767171C4.174743-5.767171 4.748591-5.193323 4.748591-4.131704V-3.514818C2.596661-3.486126 .774695-2.883585 .774695-1.62112C.774695-1.004234 1.162042 .157808 2.410161 .157808C2.611008 .157808 3.95955 .129116 4.791629-.516463V0H5.867594ZM4.748591-1.893698C4.748591-1.62112 4.748591-1.262465 4.26082-.989888C3.84478-.731656 3.299625-.71731 3.141817-.71731C2.453199-.71731 1.807621-1.047272 1.807621-1.649813C1.807621-2.654046 4.131704-2.75447 4.748591-2.783162V-1.893698Z'/>
<path id='g2-35' d='M6.886174-3.199202C6.886174-4.97813 5.910633-6.527519 4.56209-6.527519C4.002589-6.527519 3.113124-6.384057 2.252353-5.681093V-9.95626H1.176388V0H2.295391V-.659925C2.6397-.344309 3.256586 .157808 4.217782 .157808C5.652401 .157808 6.886174-1.276811 6.886174-3.199202ZM5.767171-3.199202C5.767171-1.334196 4.56209-.71731 3.686972-.71731C3.127471-.71731 2.654046-.975541 2.295391-1.635466V-4.805976C2.52493-5.150284 3.041393-5.652401 3.830434-5.652401C4.67686-5.652401 5.767171-5.035515 5.767171-3.199202Z'/>
<path id='g2-42' d='M8.421217-.645579L8.33514-1.635466C7.9191-1.348542 7.50306-1.075965 7.01529-.932503C6.556211-.774695 6.054095-.760348 5.566324-.760348C4.633821-.760348 3.787396-1.262465 3.199202-1.994121C2.539277-2.840547 2.22366-3.902165 2.22366-4.97813S2.539277-7.130059 3.199202-7.976485C3.787396-8.708141 4.633821-9.210258 5.566324-9.210258C5.99671-9.210258 6.441442-9.167219 6.857482-9.038103C7.287867-8.908988 7.689561-8.693795 8.062562-8.435563L8.263409-9.611951C7.833023-9.784105 7.388291-9.927567 6.929213-10.013645C6.48448-10.099722 6.025402-10.128414 5.566324-10.128414C4.303859-10.128414 3.141817-9.554566 2.295391-8.622064C1.405927-7.61783 .946849-6.312326 .946849-4.97813S1.405927-2.33843 2.295391-1.348542C3.141817-.41604 4.303859 .157808 5.566324 .157808C6.068441 .157808 6.570558 .143462 7.058328 0C7.546099-.129116 7.990831-.387347 8.421217-.645579Z'/>
<path id='g2-43' d='M5.953671-.573848L5.867594-1.535043C5.135938-.961195 4.361243-.760348 3.629588-.760348C2.438853-.760348 1.635466-1.793274 1.635466-3.199202C1.635466-4.318205 2.166276-5.69544 3.686972-5.69544C4.432974-5.69544 4.920745-5.58067 5.709786-5.064207L5.88194-5.99671C5.035515-6.48448 4.547744-6.613596 3.672626-6.613596C1.678505-6.613596 .516463-4.877707 .516463-3.184855C.516463-1.405927 1.821967 .157808 3.615241 .157808C4.389936 .157808 5.178977-.043039 5.953671-.573848Z'/>
<path id='g2-44' d='M2.582315-5.178977V-6.369711H1.391581V-5.178977H2.582315ZM2.582315 0V-1.190734H1.391581V0H2.582315Z'/>
<path id='g2-45' d='M2.582315-.014346V-1.190734H1.391581V0H1.750236L1.391581 1.793274H1.979775L2.582315-.014346Z'/>
<path id='g2-46' d='M9.54022-4.892053C9.54022-7.675215 7.603484-9.95626 5.135938-9.95626H1.377235V0H5.150284C7.589138 0 9.54022-2.180622 9.54022-4.892053ZM8.306447-4.892053C8.306447-2.453199 6.814443-.803387 4.805976-.803387H2.611008V-9.152873H4.805976C6.814443-9.152873 8.306447-7.416983 8.306447-4.892053Z'/>
<path id='g2-47' d='M6.226249 0V-9.95626H5.150284V-5.738478C4.389936-6.369711 3.586549-6.527519 3.05574-6.527519C1.635466-6.527519 .516463-5.035515 .516463-3.184855C.516463-1.305504 1.62112 .157808 2.984009 .157808C3.457433 .157808 4.303859 .028692 5.107246-.746002V0H6.226249ZM5.107246-1.994121C5.107246-1.793274 5.092899-1.535043 4.633821-1.119003C4.303859-.832079 3.945204-.71731 3.572203-.71731C2.682739-.71731 1.635466-1.391581 1.635466-3.170509C1.635466-5.064207 2.869239-5.652401 3.715665-5.652401C4.361243-5.652401 4.791629-5.322439 5.107246-4.86336V-1.994121Z'/>
<path id='g2-50' d='M5.939325-3.141817C5.939325-3.629588 5.924979-4.705552 5.365477-5.566324C4.777283-6.455788 3.902165-6.613596 3.385702-6.613596C1.793274-6.613596 .502117-5.092899 .502117-3.24224C.502117-1.348542 1.879352 .157808 3.600895 .157808C4.504705 .157808 5.322439-.186501 5.88194-.588194L5.795863-1.520697C4.892053-.774695 3.945204-.71731 3.615241-.71731C2.467546-.71731 1.549389-1.73589 1.506351-3.141817H5.939325ZM5.121592-3.930858H1.578082C1.807621-5.021168 2.567969-5.738478 3.385702-5.738478C4.131704-5.738478 4.935091-5.250708 5.121592-3.930858Z'/>
<path id='g2-54' d='M7.546099-8.980718V-9.913221H1.348542V0H2.625354V-4.519052H6.957905V-5.39417H2.625354V-8.995065H4.504705C4.67686-8.995065 4.849014-8.980718 5.021168-8.980718H7.546099Z'/>
<path id='g2-55' d='M4.97813-8.995065V-9.95626C4.805976-9.999298 4.361243-10.114068 3.830434-10.114068C2.481892-10.114068 1.448966-9.095488 1.448966-7.660868V-6.369711H.387347V-5.537632H1.448966V0H2.52493V-5.537632H4.103012V-6.369711H2.481892V-8.076908C2.481892-9.138527 3.443087-9.23895 3.816088-9.23895C4.103012-9.23895 4.490359-9.210258 4.97813-8.995065Z'/>
<path id='g2-59' d='M6.957905-5.623709L6.800097-6.527519C5.795863-6.527519 4.963784-6.254941 4.533398-6.068441C4.232128-6.312326 3.744357-6.527519 3.170509-6.527519C1.936736-6.527519 .889464-5.494593 .889464-4.189089C.889464-3.65828 1.075965-3.141817 1.362889-2.768816C.946849-2.180622 .946849-1.62112 .946849-1.549389C.946849-1.176388 1.075965-.760348 1.31985-.459078C.573848-.014346 .401693 .645579 .401693 1.01858C.401693 2.094545 1.821967 2.955316 3.572203 2.955316C5.336785 2.955316 6.757058 2.108891 6.757058 1.004234C6.757058-.989888 4.361243-.989888 3.801742-.989888H2.539277C2.352776-.989888 1.707197-.989888 1.707197-1.750236C1.707197-1.908044 1.764582-2.137583 1.865005-2.266699C2.166276-2.051506 2.6397-1.850659 3.170509-1.850659C4.461667-1.850659 5.465901-2.912278 5.465901-4.189089C5.465901-4.877707 5.150284-5.408516 4.992476-5.623709L5.049861-5.609363C5.365477-5.609363 5.767171-5.666747 6.111479-5.666747C6.369711-5.666747 6.957905-5.623709 6.957905-5.623709ZM4.461667-4.189089C4.461667-3.070086 3.787396-2.668392 3.170509-2.668392C2.6397-2.668392 1.893698-2.998355 1.893698-4.189089S2.6397-5.709786 3.170509-5.709786C3.787396-5.709786 4.461667-5.308092 4.461667-4.189089ZM5.752824 1.032926C5.752824 1.664159 4.762937 2.137583 3.586549 2.137583C2.424507 2.137583 1.405927 1.692851 1.405927 1.01858C1.405927 .975541 1.405927 .043039 2.52493 .043039H3.816088C4.131704 .043039 5.752824 .043039 5.752824 1.032926Z'/>
<path id='g2-66' d='M2.238007 0V-6.369711H1.162042V0H2.238007ZM2.352776-8.119947V-9.396758H1.075965V-8.119947H2.352776Z'/>
<path id='g2-71' d='M7.158752 0V-.946849L3.328317-.918157H2.625354V-9.95626H1.348542V0H7.158752Z'/>
<path id='g2-72' d='M2.238007 0V-9.95626H1.162042V0H2.238007Z'/>
<path id='g2-75' d='M10.228838 0V-4.275166C10.228838-5.236361 9.999298-6.527519 8.263409-6.527519C7.402637-6.527519 6.656635-6.125826 6.125826-5.351131C5.752824-6.441442 4.748591-6.527519 4.289513-6.527519C3.256586-6.527519 2.582315-5.939325 2.194968-5.422862V-6.455788H1.162042V0H2.281045V-3.514818C2.281045-4.490359 2.668392-5.652401 3.730011-5.652401C5.064207-5.652401 5.135938-4.719898 5.135938-4.174743V0H6.254941V-3.514818C6.254941-4.490359 6.642289-5.652401 7.703907-5.652401C9.038103-5.652401 9.109834-4.719898 9.109834-4.174743V0H10.228838Z'/>
<path id='g2-77' d='M6.240595 0V-4.275166C6.240595-5.222015 6.025402-6.527519 4.275166-6.527519C2.984009-6.527519 2.281045-5.551978 2.194968-5.437208V-6.455788H1.162042V0H2.281045V-3.514818C2.281045-4.461667 2.6397-5.652401 3.730011-5.652401C5.107246-5.652401 5.121592-4.633821 5.121592-4.174743V0H6.240595Z'/>
<path id='g2-81' d='M6.728366-3.156163C6.728366-5.078553 5.293746-6.613596 3.586549-6.613596C1.821967-6.613596 .430386-5.035515 .430386-3.156163C.430386-1.262465 1.893698 .157808 3.572203 .157808C5.293746 .157808 6.728366-1.291158 6.728366-3.156163ZM5.609363-3.299625C5.609363-1.606774 4.633821-.760348 3.572203-.760348C2.582315-.760348 1.549389-1.563735 1.549389-3.299625S2.6397-5.738478 3.572203-5.738478C4.576436-5.738478 5.609363-4.992476 5.609363-3.299625Z'/>
<path id='g2-82' d='M6.082787 0V-.832079H4.289513V-9.726721H4.002589C3.156163-8.851603 1.965429-8.808564 1.276811-8.779872V-7.947792C1.750236-7.962139 2.438853-7.990831 3.156163-8.292101V-.832079H1.362889V0H6.082787Z'/>
<path id='g2-84' d='M6.886174-3.199202C6.886174-4.920745 5.982364-6.527519 4.605129-6.527519C3.744357-6.527519 2.912278-6.226249 2.252353-5.666747V-6.369711H1.176388V2.783162H2.295391V-.659925C2.740123-.243885 3.371356 .157808 4.232128 .157808C5.623709 .157808 6.886174-1.248119 6.886174-3.199202ZM5.767171-3.199202C5.767171-1.721543 4.748591-.71731 3.672626-.71731C3.113124-.71731 2.725777-1.004234 2.438853-1.391581C2.295391-1.606774 2.295391-1.635466 2.295391-1.893698V-4.777283C2.6397-5.2794 3.199202-5.609363 3.816088-5.609363C4.906399-5.609363 5.767171-4.519052 5.767171-3.199202Z'/>
<path id='g2-88' d='M2.582315 0V-1.190734H1.391581V0H2.582315Z'/>
<path id='g2-91' d='M6.226249 2.783162V-6.527519H5.150284V-5.551978C5.006822-5.738478 4.303859-6.527519 3.184855-6.527519C1.750236-6.527519 .516463-5.107246 .516463-3.170509C.516463-1.348542 1.563735 .157808 2.94097 .157808C3.744357 .157808 4.504705-.172154 5.107246-.71731V2.783162H6.226249ZM5.150284-2.008467C5.150284-1.750236 5.150284-1.721543 5.006822-1.535043C4.633821-.961195 4.103012-.71731 3.586549-.71731C2.496238-.71731 1.635466-1.836313 1.635466-3.170509C1.635466-4.633821 2.668392-5.609363 3.715665-5.609363C4.705552-5.609363 5.150284-4.590783 5.150284-4.016935V-2.008467Z'/>
<path id='g2-96' d='M4.691206-5.566324V-6.527519C3.414395-6.513173 2.625354-5.810209 2.180622-5.150284V-6.455788H1.176388V0H2.252353V-3.070086C2.252353-4.504705 3.285279-5.537632 4.691206-5.566324Z'/>
<path id='g2-97' d='M7.158752-2.711431C7.158752-3.643934 6.71402-4.332551 6.398403-4.67686C5.724132-5.39417 5.250708-5.523285 3.930858-5.853248C3.098778-6.054095 2.869239-6.111479 2.438853-6.48448C2.33843-6.570558 1.936736-6.986597 1.936736-7.61783C1.936736-8.464255 2.711431-9.325027 4.031281-9.325027C5.236361-9.325027 5.924979-8.851603 6.455788-8.406871L6.670981-9.554566C5.88194-10.027991 5.092899-10.271876 4.045627-10.271876C2.051506-10.271876 .803387-8.865949 .803387-7.445676C.803387-6.828789 1.004234-6.226249 1.578082-5.623709C2.180622-4.97813 2.811854-4.805976 3.65828-4.605129C4.877707-4.303859 5.021168-4.26082 5.422862-3.902165C5.709786-3.65828 6.025402-3.184855 6.025402-2.567969C6.025402-1.62112 5.236361-.674271 3.930858-.674271C3.342664-.674271 2.051506-.817733 .846426-1.836313L.631233-.674271C1.893698 .11477 3.041393 .315616 3.945204 .315616C5.838902 .315616 7.158752-1.133349 7.158752-2.711431Z'/>
<path id='g2-98' d='M5.16463-1.836313C5.16463-2.625354 4.633821-3.113124 4.605129-3.156163C4.045627-3.65828 3.65828-3.744357 2.94097-3.873473C2.151929-4.031281 1.492004-4.174743 1.492004-4.877707C1.492004-5.767171 2.52493-5.767171 2.711431-5.767171C3.170509-5.767171 3.930858-5.709786 4.748591-5.222015L4.920745-6.154518C4.174743-6.498827 3.586549-6.613596 2.854893-6.613596C2.496238-6.613596 .473424-6.613596 .473424-4.734245C.473424-4.031281 .889464-3.572203 1.248119-3.299625C1.692851-2.984009 2.008467-2.926624 2.797508-2.768816C3.313971-2.668392 4.146051-2.496238 4.146051-1.73589C4.146051-.746002 3.012701-.746002 2.797508-.746002C1.635466-.746002 .832079-1.276811 .573848-1.448966L.401693-.473424C.860772-.243885 1.649813 .157808 2.811854 .157808C3.070086 .157808 3.859127 .157808 4.476013-.30127C4.920745-.645579 5.16463-1.219427 5.16463-1.836313Z'/>
<path id='g2-105' d='M4.762937-.387347L4.533398-1.233773C4.160397-.932503 3.701318-.760348 3.24224-.760348C2.711431-.760348 2.510584-1.190734 2.510584-1.951083V-5.537632H4.533398V-6.369711H2.510584V-8.191678H1.520697V-6.369711H.272578V-5.537632H1.477658V-1.707197C1.477658-.846426 1.678505 .157808 2.668392 .157808C3.672626 .157808 4.404282-.200847 4.762937-.387347Z'/>
<path id='g2-109' d='M6.240595 0V-6.369711H5.121592V-2.209314C5.121592-1.133349 4.318205-.631233 3.400048-.631233C2.381468-.631233 2.281045-1.004234 2.281045-1.62112V-6.369711H1.162042V-1.563735C1.162042-.530809 1.492004 .157808 2.682739 .157808C3.443087 .157808 4.461667-.071731 5.16463-.688617V0H6.240595Z'/>
<path id='g2-112' d='M6.398403-6.369711H5.322439L4.189089-3.385702C3.887819-2.596661 3.443087-1.43462 3.328317-.760348H3.313971C3.227894-1.276811 2.854893-2.266699 2.711431-2.654046L1.31985-6.369711H.200847L2.668392 0H3.930858L6.398403-6.369711Z'/>
<path id='g2-116' d='M6.59925 0L3.730011-3.285279L6.355365-6.369711H5.178977L3.256586-4.002589L1.276811-6.369711H.086077L2.783162-3.285279L0 0H1.176388L3.256586-2.697085L5.408516 0H6.59925Z'/>
<path id='g2-118' d='M6.398403-6.369711H5.322439C3.457433-1.807621 3.428741-1.147696 3.414395-.817733H3.400048C3.313971-1.778928 2.166276-4.447321 2.108891-4.576436L1.334196-6.369711H.200847L2.984009 0L2.467546 1.291158C2.094545 2.123237 1.850659 2.123237 1.649813 2.123237C1.420273 2.123237 .961195 2.065852 .530809 1.893698L.616886 2.826201C.932503 2.897932 1.334196 2.94097 1.649813 2.94097C2.151929 2.94097 2.682739 2.768816 3.270933 1.305504L6.398403-6.369711Z'/>
<path id='g2-125' d='M6.556211-8.779872V-9.970606H5.365477V-8.779872H6.556211ZM6.498827 0V-6.369711H5.422862V0H6.498827ZM4.217782-5.537632V-6.369711H2.481892V-8.105601C2.481892-9.023757 2.998355-9.23895 3.35701-9.23895C3.65828-9.23895 3.973896-9.138527 4.217782-8.980718V-9.95626C4.131704-9.984952 3.773049-10.114068 3.35701-10.114068C2.295391-10.114068 1.448966-9.109834 1.448966-7.675215V-6.369711H.387347V-5.537632H1.448966V0H2.52493V-5.537632H4.217782Z'/>
<path id='g1-46' d='M7.597399-3.674612Q8.197826-4.275038 8.197826-5.123641T7.597399-6.572671T6.14837-7.173098T4.69934-6.572671T4.098913-5.123641T4.69934-3.674612T6.14837-3.074185T7.597399-3.674612ZM12.296739-5.996261V-4.218998Q12.296739-4.12293 12.232694-4.034868T12.07258-3.930794L10.591527-3.706634Q10.439419-3.274327 10.279305-2.978117Q10.559505-2.577832 11.135914-1.873331Q11.215971-1.777263 11.215971-1.673189T11.14392-1.489058Q10.927766-1.192848 10.351357-.624444T9.598822-.05604Q9.502753-.05604 9.390674-.128091L8.285889-.992706Q7.933638-.808575 7.557371-.688489Q7.42928 .400284 7.325206 .800569Q7.269166 1.024728 7.037001 1.024728H5.259738Q5.147658 1.024728 5.059596 .952677Q4.979539 .888632 4.971533 .784558L4.747374-.688489Q4.355095-.81658 4.026862-.9847L2.89806-.128091Q2.818003-.05604 2.697917-.05604Q2.585838-.05604 2.497775-.144102Q1.489058-1.056751 1.176836-1.489058Q1.120797-1.569115 1.120797-1.673189Q1.120797-1.769257 1.184842-1.85732Q1.304927-2.025439 1.593132-2.385695Q1.881337-2.753957 2.025439-2.954099Q1.809286-3.354384 1.697206-3.746663L.232165-3.962816Q.128091-3.978828 .064046-4.058885Q0-4.146947 0-4.251021V-6.028284Q0-6.124353 .064046-6.212415T.216154-6.316489L1.705212-6.540648Q1.817292-6.90891 2.017434-7.277172Q1.697206-7.733496 1.160825-8.381957Q1.080768-8.478025 1.080768-8.574094Q1.080768-8.65415 1.152819-8.758224Q1.360967-9.046429 1.937377-9.614833Q2.521792-10.191243 2.697917-10.191243Q2.801991-10.191243 2.906065-10.111186L4.01085-9.254577Q4.363101-9.438708 4.739368-9.558793Q4.867459-10.647567 4.971533-11.047852Q5.027573-11.272011 5.259738-11.272011H7.037001Q7.149081-11.272011 7.229138-11.19996Q7.3172-11.135914 7.325206-11.03184L7.549365-9.558793Q7.941644-9.430702 8.269877-9.262583L9.406685-10.119192Q9.478736-10.191243 9.598822-10.191243Q9.702896-10.191243 9.798964-10.111186Q10.831698-9.158509 11.119903-8.750219Q11.175943-8.686173 11.175943-8.574094Q11.175943-8.478025 11.111897-8.389963Q10.991812-8.221843 10.703607-7.853581Q10.415402-7.493325 10.2713-7.293183Q10.479448-6.892899 10.599533-6.508626L12.064574-6.284466Q12.168648-6.268455 12.232694-6.180392Q12.296739-6.100335 12.296739-5.996261Z'/>
</defs>
<g id='page1' transform='matrix(1.5 0 0 1.5 0 0)'>
<g stroke-miterlimit='10' transform='translate(-29.480132,104.473763)scale(0.996264,-0.996264)'>
<g fill='#aaa7b3' stroke='#aaa7b3'>
<g stroke-width='0.4'>
<g transform='translate(0.0,79.45622)'>
<g stroke='none' transform='scale(-1.00375,1.00375)translate(-29.480132,104.473763)scale(-1,-1)'/>
</g>
<g fill='#404040'>
<g fill-opacity='1.0'>
<path d='M 0.0 4.26788 L 0.0 93.18834 C 0.0 95.54546 1.91077 97.45622 4.26788 97.45622 L 524.66885 97.45622 C 527.02597 97.45622 528.93674 95.54546 528.93674 93.18834 L 528.93674 4.26788 C 528.93674 1.91077 527.02597 0.0 524.66885 0.0 L 4.26788 0.0 C 1.91077 0.0 0.0 1.91077 0.0 4.26788 Z' stroke='none'/>
</g>
</g>
<g fill='#292a2d'>
<g fill-opacity='1.0'>
<path d='M 1.42262 4.26788 L 1.42262 74.81259 L 527.51411 74.81259 L 527.51411 4.26788 C 527.51411 2.69647 526.24026 1.42262 524.66885 1.42262 L 4.26788 1.42262 C 2.69647 1.42262 1.42262 2.69647 1.42262 4.26788 Z' stroke='none'/>
</g>
</g>
<g fill-opacity='1.0'>
<g transform='translate(15.64897,81.87405)'>
<g stroke='none' transform='scale(-1.00375,1.00375)translate(-29.480132,104.473763)scale(-1,-1)'>
<g fill='#fff'>
<use x='-43.826328' y='104.473763' xlink:href='#g1-46'/>
<use x='-26.752309' y='104.473763' xlink:href='#g2-46'/>
<use x='-16.394362' y='104.473763' xlink:href='#g2-50'/>
<use x='-10.024648' y='104.473763' xlink:href='#g2-125'/>
<use x='-2.335085' y='104.473763' xlink:href='#g2-77'/>
<use x='5.081895' y='104.473763' xlink:href='#g2-66'/>
<use x='8.510642' y='104.473763' xlink:href='#g2-105'/>
<use x='13.689615' y='104.473763' xlink:href='#g2-66'/>
<use x='17.118362' y='104.473763' xlink:href='#g2-81'/>
<use x='24.29146' y='104.473763' xlink:href='#g2-77'/>
<use x='36.485722' y='104.473763' xlink:href='#g2-82'/>
<use x='43.65882' y='104.473763' xlink:href='#g2-44'/>
<use x='52.42435' y='104.473763' xlink:href='#g2-54'/>
<use x='60.185635' y='104.473763' xlink:href='#g2-109'/>
<use x='67.60263' y='104.473763' xlink:href='#g2-77'/>
<use x='75.01961' y='104.473763' xlink:href='#g2-43'/>
<use x='81.389324' y='104.473763' xlink:href='#g2-105'/>
<use x='86.568298' y='104.473763' xlink:href='#g2-66'/>
<use x='89.997045' y='104.473763' xlink:href='#g2-81'/>
<use x='97.170143' y='104.473763' xlink:href='#g2-77'/>
<use x='104.587123' y='104.473763' xlink:href='#g2-28'/>
<use x='111.487637' y='104.473763' xlink:href='#g2-72'/>
<use x='119.693666' y='104.473763' xlink:href='#g2-42'/>
<use x='128.860888' y='104.473763' xlink:href='#g2-81'/>
<use x='136.033986' y='104.473763' xlink:href='#g2-75'/>
<use x='147.424864' y='104.473763' xlink:href='#g2-84'/>
<use x='154.841844' y='104.473763' xlink:href='#g2-72'/>
<use x='158.270591' y='104.473763' xlink:href='#g2-50'/>
<use x='164.640305' y='104.473763' xlink:href='#g2-105'/>
<use x='169.819278' y='104.473763' xlink:href='#g2-50'/>
<use x='176.188992' y='104.473763' xlink:href='#g2-77'/>
<use x='183.605972' y='104.473763' xlink:href='#g2-50'/>
<use x='189.975686' y='104.473763' xlink:href='#g2-98'/>
<use x='195.470279' y='104.473763' xlink:href='#g2-98'/>
</g>
</g>
</g>
</g>
<g fill-opacity='1.0'>
<g transform='translate(15.64897,12.9248)'>
<g stroke='none' transform='scale(-1.00375,1.00375)translate(-29.480132,104.473763)scale(-1,-1)'>
<use x='-29.480132' y='61.435161' xlink:href='#g2-27'/>
<use x='-15.133937' y='61.435161' xlink:href='#g0-72'/>
<use x='-11.70519' y='61.435161' xlink:href='#g0-81'/>
<use x='-4.532092' y='61.435161' xlink:href='#g0-59'/>
<use x='2.641006' y='61.435161' xlink:href='#g0-66'/>
<use x='6.069737' y='61.435161' xlink:href='#g0-43'/>
<use x='12.439451' y='61.435161' xlink:href='#g0-28'/>
<use x='19.339966' y='61.435161' xlink:href='#g0-72'/>
<use x='27.545995' y='61.435161' xlink:href='#g0-81'/>
<use x='34.719092' y='61.435161' xlink:href='#g0-84'/>
<use x='42.537764' y='61.435161' xlink:href='#g0-50'/>
<use x='48.907478' y='61.435161' xlink:href='#g0-96'/>
<use x='53.813884' y='61.435161' xlink:href='#g0-28'/>
<use x='60.714399' y='61.435161' xlink:href='#g0-105'/>
<use x='65.893372' y='61.435161' xlink:href='#g0-81'/>
<use x='72.664778' y='61.435161' xlink:href='#g0-96'/>
<use x='83.524856' y='61.435161' xlink:href='#g2-66'/>
<use x='86.953602' y='61.435161' xlink:href='#g2-98'/>
<use x='97.225477' y='61.435161' xlink:href='#g2-28'/>
<use x='108.903273' y='61.435161' xlink:href='#g2-43'/>
<use x='115.272988' y='61.435161' xlink:href='#g2-81'/>
<use x='122.446085' y='61.435161' xlink:href='#g2-77'/>
<use x='129.863065' y='61.435161' xlink:href='#g2-77'/>
<use x='137.280045' y='61.435161' xlink:href='#g2-50'/>
<use x='143.649759' y='61.435161' xlink:href='#g2-43'/>
<use x='150.019473' y='61.435161' xlink:href='#g2-105'/>
<use x='155.198447' y='61.435161' xlink:href='#g2-66'/>
<use x='158.627194' y='61.435161' xlink:href='#g2-112'/>
<use x='165.24079' y='61.435161' xlink:href='#g2-50'/>
<use x='171.610504' y='61.435161' xlink:href='#g2-45'/>
<use x='180.376019' y='61.435161' xlink:href='#g2-91'/>
<use x='187.792999' y='61.435161' xlink:href='#g2-109'/>
<use x='195.209979' y='61.435161' xlink:href='#g2-28'/>
<use x='202.110509' y='61.435161' xlink:href='#g2-77'/>
<use x='209.527489' y='61.435161' xlink:href='#g2-105'/>
<use x='214.706463' y='61.435161' xlink:href='#g2-66'/>
<use x='218.13521' y='61.435161' xlink:href='#g2-125'/>
<use x='225.824773' y='61.435161' xlink:href='#g2-50'/>
<use x='232.194487' y='61.435161' xlink:href='#g2-96'/>
<use x='241.878159' y='61.435161' xlink:href='#g2-81'/>
<use x='248.649565' y='61.435161' xlink:href='#g2-96'/>
<use x='258.333237' y='61.435161' xlink:href='#g2-75'/>
<use x='269.724115' y='61.435161' xlink:href='#g2-81'/>
<use x='277.298905' y='61.435161' xlink:href='#g2-47'/>
<use x='284.715885' y='61.435161' xlink:href='#g2-28'/>
<use x='291.616415' y='61.435161' xlink:href='#g2-72'/>
<use x='299.822443' y='61.435161' xlink:href='#g2-81'/>
<use x='306.995541' y='61.435161' xlink:href='#g2-84'/>
<use x='314.814213' y='61.435161' xlink:href='#g2-50'/>
<use x='321.183927' y='61.435161' xlink:href='#g2-96'/>
<use x='326.090333' y='61.435161' xlink:href='#g2-28'/>
<use x='332.990847' y='61.435161' xlink:href='#g2-105'/>
<use x='338.169821' y='61.435161' xlink:href='#g2-81'/>
<use x='344.941227' y='61.435161' xlink:href='#g2-96'/>
<use x='349.847633' y='61.435161' xlink:href='#g2-88'/>
<use x='-29.480132' y='86.541011' xlink:href='#g2-27'/>
<use x='-15.015439' y='86.541011' xlink:href='#g2-98'/>
<use x='-9.520846' y='86.541011' xlink:href='#g2-50'/>
<use x='-3.151132' y='86.541011' xlink:href='#g2-105'/>
<use x='6.923743' y='86.541011' xlink:href='#g2-97'/>
<use x='19.795989' y='86.541011' xlink:href='#g2-81'/>
<use x='26.969087' y='86.541011' xlink:href='#g2-55'/>
<use x='36.254928' y='86.541011' xlink:href='#g2-72'/>
<use x='39.683675' y='86.541011' xlink:href='#g2-81'/>
<use x='46.856773' y='86.541011' xlink:href='#g2-59'/>
<use x='54.029871' y='86.541011' xlink:href='#g2-66'/>
<use x='57.458603' y='86.541011' xlink:href='#g2-43'/>
<use x='63.828317' y='86.541011' xlink:href='#g2-28'/>
<use x='70.728831' y='86.541011' xlink:href='#g2-72'/>
<use x='79.053479' y='86.541011' xlink:href='#g2-81'/>
<use x='86.226577' y='86.541011' xlink:href='#g2-84'/>
<use x='94.045249' y='86.541011' xlink:href='#g2-50'/>
<use x='100.414963' y='86.541011' xlink:href='#g2-96'/>
<use x='105.321369' y='86.541011' xlink:href='#g2-28'/>
<use x='112.221883' y='86.541011' xlink:href='#g2-105'/>
<use x='117.400857' y='86.541011' xlink:href='#g2-81'/>
<use x='124.172263' y='86.541011' xlink:href='#g2-96'/>
<use x='129.078669' y='86.541011' xlink:href='#g2-98'/>
<use x='139.469163' y='86.541011' xlink:href='#g2-66'/>
<use x='142.89791' y='86.541011' xlink:href='#g2-98'/>
<g fill='#fe5186'>
<use x='153.288389' y='86.541011' xlink:href='#g0-55'/>
<use x='157.678329' y='86.541011' xlink:href='#g0-109'/>
<use x='165.095309' y='86.541011' xlink:href='#g0-77'/>
<use x='172.512289' y='86.541011' xlink:href='#g0-43'/>
<use x='178.882003' y='86.541011' xlink:href='#g0-105'/>
<use x='184.060977' y='86.541011' xlink:href='#g0-66'/>
<use x='187.489724' y='86.541011' xlink:href='#g0-81'/>
<use x='194.662821' y='86.541011' xlink:href='#g0-77'/>
<use x='202.079801' y='86.541011' xlink:href='#g0-28'/>
<use x='208.980316' y='86.541011' xlink:href='#g0-72'/>
<use x='212.409063' y='86.541011' xlink:href='#g0-72'/>
<use x='215.83781' y='86.541011' xlink:href='#g0-118'/>
<use x='227.347307' y='86.541011' xlink:href='#g0-43'/>
<use x='233.717021' y='86.541011' xlink:href='#g0-81'/>
<use x='240.890119' y='86.541011' xlink:href='#g0-75'/>
<use x='252.280997' y='86.541011' xlink:href='#g0-84'/>
<use x='259.697977' y='86.541011' xlink:href='#g0-72'/>
<use x='263.126724' y='86.541011' xlink:href='#g0-50'/>
<use x='269.496438' y='86.541011' xlink:href='#g0-105'/>
<use x='274.675412' y='86.541011' xlink:href='#g0-50'/>
</g>
<use x='286.500528' y='86.541011' xlink:href='#g2-55'/>
<use x='290.890469' y='86.541011' xlink:href='#g2-81'/>
<use x='297.661875' y='86.541011' xlink:href='#g2-96'/>
<use x='307.464166' y='86.541011' xlink:href='#g2-28'/>
<use x='319.260567' y='86.541011' xlink:href='#g2-72'/>
<use x='322.689314' y='86.541011' xlink:href='#g2-28'/>
<use x='329.589829' y='86.541011' xlink:href='#g2-77'/>
<use x='337.006809' y='86.541011' xlink:href='#g2-59'/>
<use x='344.179906' y='86.541011' xlink:href='#g2-109'/>
<use x='351.596886' y='86.541011' xlink:href='#g2-28'/>
<use x='358.497416' y='86.541011' xlink:href='#g2-59'/>
<use x='365.670514' y='86.541011' xlink:href='#g2-50'/>
<use x='376.936129' y='86.541011' xlink:href='#g2-71'/>
<use x='389.607545' y='86.541011' xlink:href='#g2-66'/>
<use x='393.036292' y='86.541011' xlink:href='#g2-55'/>
<use x='402.322118' y='86.541011' xlink:href='#g2-28'/>
<use x='409.222633' y='86.541011' xlink:href='#g2-77'/>
<use x='416.639628' y='86.541011' xlink:href='#g2-47'/>
<use x='428.952494' y='86.541011' xlink:href='#g2-81'/>
<use x='436.125592' y='86.541011' xlink:href='#g2-77'/>
<use x='443.542572' y='86.541011' xlink:href='#g2-72'/>
<use x='446.971318' y='86.541011' xlink:href='#g2-118'/>
<use x='458.480816' y='86.541011' xlink:href='#g2-66'/>
<use x='461.909563' y='86.541011' xlink:href='#g2-55'/>
<use x='-29.480132' y='104.473763' xlink:href='#g2-50'/>
<use x='-23.110418' y='104.473763' xlink:href='#g2-112'/>
<use x='-16.496822' y='104.473763' xlink:href='#g2-50'/>
<use x='-10.127108' y='104.473763' xlink:href='#g2-96'/>
<use x='-5.220718' y='104.473763' xlink:href='#g2-118'/>
<use x='6.17016' y='104.473763' xlink:href='#g2-109'/>
<use x='13.58714' y='104.473763' xlink:href='#g2-77'/>
<use x='21.00412' y='104.473763' xlink:href='#g2-28'/>
<use x='27.502958' y='104.473763' xlink:href='#g2-96'/>
<use x='32.409349' y='104.473763' xlink:href='#g2-118'/>
<use x='43.800227' y='104.473763' xlink:href='#g2-28'/>
<use x='50.700741' y='104.473763' xlink:href='#g2-77'/>
<use x='58.117737' y='104.473763' xlink:href='#g2-47'/>
<use x='70.311998' y='104.473763' xlink:href='#g2-35'/>
<use x='77.728978' y='104.473763' xlink:href='#g2-66'/>
<use x='81.157725' y='104.473763' xlink:href='#g2-77'/>
<use x='88.574705' y='104.473763' xlink:href='#g2-28'/>
<use x='95.073528' y='104.473763' xlink:href='#g2-96'/>
<use x='99.979934' y='104.473763' xlink:href='#g2-118'/>
<use x='111.370812' y='104.473763' xlink:href='#g2-72'/>
<use x='114.799558' y='104.473763' xlink:href='#g2-81'/>
<use x='121.972656' y='104.473763' xlink:href='#g2-59'/>
<use x='129.145754' y='104.473763' xlink:href='#g2-66'/>
<use x='132.574486' y='104.473763' xlink:href='#g2-43'/>
<use x='138.9442' y='104.473763' xlink:href='#g2-28'/>
<use x='145.844714' y='104.473763' xlink:href='#g2-72'/>
<use x='154.050743' y='104.473763' xlink:href='#g2-81'/>
<use x='161.223841' y='104.473763' xlink:href='#g2-84'/>
<use x='169.042513' y='104.473763' xlink:href='#g2-50'/>
<use x='175.412227' y='104.473763' xlink:href='#g2-96'/>
<use x='180.318632' y='104.473763' xlink:href='#g2-28'/>
<use x='187.219147' y='104.473763' xlink:href='#g2-105'/>
<use x='192.398121' y='104.473763' xlink:href='#g2-81'/>
<use x='199.169527' y='104.473763' xlink:href='#g2-96'/>
<use x='208.853214' y='104.473763' xlink:href='#g2-66'/>
<use x='212.281961' y='104.473763' xlink:href='#g2-98'/>
<use x='222.553836' y='104.473763' xlink:href='#g2-50'/>
<use x='228.92355' y='104.473763' xlink:href='#g2-116'/>
<use x='235.537146' y='104.473763' xlink:href='#g2-84'/>
<use x='242.552434' y='104.473763' xlink:href='#g2-96'/>
<use x='247.458824' y='104.473763' xlink:href='#g2-50'/>
<use x='253.828538' y='104.473763' xlink:href='#g2-98'/>
<use x='259.323132' y='104.473763' xlink:href='#g2-98'/>
<use x='264.817725' y='104.473763' xlink:href='#g2-66'/>
<use x='268.246471' y='104.473763' xlink:href='#g2-35'/>
<use x='275.663451' y='104.473763' xlink:href='#g2-72'/>
<use x='279.092198' y='104.473763' xlink:href='#g2-50'/>
<use x='290.239194' y='104.473763' xlink:href='#g2-66'/>
<use x='293.667941' y='104.473763' xlink:href='#g2-77'/>
<use x='305.862203' y='104.473763' xlink:href='#g2-71'/>
<use x='318.41512' y='104.473763' xlink:href='#g2-66'/>
<use x='321.843867' y='104.473763' xlink:href='#g2-77'/>
<use x='334.038129' y='104.473763' xlink:href='#g2-105'/>
<use x='339.217102' y='104.473763' xlink:href='#g2-50'/>
<use x='345.586816' y='104.473763' xlink:href='#g2-96'/>
<use x='350.493222' y='104.473763' xlink:href='#g2-75'/>
<use x='361.8841' y='104.473763' xlink:href='#g2-98'/>
<use x='372.155975' y='104.473763' xlink:href='#g2-81'/>
<use x='379.329072' y='104.473763' xlink:href='#g2-55'/>
<use x='388.496294' y='104.473763' xlink:href='#g2-97'/>
<use x='396.472776' y='104.473763' xlink:href='#g2-88'/>
</g>
</g>
</g>
</g>
</g>
</g>
</g>
</svg>