<?xml version='1.0' encoding='UTF-8'?>
<!-- This file was generated by dvisvgm 3.0.3 -->
<svg version='1.1' xmlns='http://www.w3.org/2000/svg' xmlns:xlink='http://www.w3.org/1999/xlink' width='328.641161pt' height='93.250257pt' viewBox='-21.804259 11.072454 328.641161 93.250257'>
<defs>
<path id='g1-9' d='M3.307597 2.371108C3.307597 2.34122 3.287671 2.311333 3.267746 2.291407C2.231631 1.514321 1.544209-.478207 1.544209-2.072229V-2.909091C1.544209-4.503113 2.231631-6.495641 3.267746-7.272727C3.287671-7.292653 3.307597-7.32254 3.307597-7.352428C3.307597-7.402242 3.257783-7.452055 3.20797-7.452055C3.188045-7.452055 3.16812-7.442092 3.148194-7.43213C2.052304-6.60523 1.006227-4.612702 1.006227-2.909091V-2.072229C1.006227-.368618 2.052304 1.62391 3.148194 2.450809C3.16812 2.460772 3.188045 2.470735 3.20797 2.470735C3.257783 2.470735 3.307597 2.420922 3.307597 2.371108Z'/>
<path id='g1-10' d='M2.86924-2.072229V-2.909091C2.86924-4.612702 1.823163-6.60523 .727273-7.43213C.707347-7.442092 .687422-7.452055 .667497-7.452055C.617684-7.452055 .56787-7.402242 .56787-7.352428C.56787-7.32254 .587796-7.292653 .607721-7.272727C1.643836-6.495641 2.331258-4.503113 2.331258-2.909091V-2.072229C2.331258-.478207 1.643836 1.514321 .607721 2.291407C.587796 2.311333 .56787 2.34122 .56787 2.371108C.56787 2.420922 .617684 2.470735 .667497 2.470735C.687422 2.470735 .707347 2.460772 .727273 2.450809C1.823163 1.62391 2.86924-.368618 2.86924-2.072229Z'/>
<path id='g1-39' d='M6.07721-4.533001L5.798257-6.774595H.328767V-6.465753H.56787C1.334994-6.465753 1.354919-6.356164 1.354919-5.997509V-.777086C1.354919-.418431 1.334994-.308842 .56787-.308842H.328767V0C.67746-.029888 1.454545-.029888 1.843088-.029888C2.251557-.029888 3.158157-.029888 3.516812 0V-.308842H3.188045C2.241594-.308842 2.241594-.438356 2.241594-.787049V-3.237858H3.098381C4.054795-3.237858 4.154421-2.919054 4.154421-2.072229H4.403487V-4.712329H4.154421C4.154421-3.875467 4.054795-3.5467 3.098381-3.5467H2.241594V-6.067248C2.241594-6.396015 2.261519-6.465753 2.729763-6.465753H3.92528C5.419676-6.465753 5.668742-5.907846 5.828144-4.533001H6.07721Z'/>
<path id='g1-53' d='M6.824408-4.503113L6.635118-6.744707H.547945L.358655-4.503113H.607721C.747198-6.107098 .896638-6.435866 2.400996-6.435866C2.580324-6.435866 2.839352-6.435866 2.938979-6.41594C3.148194-6.37609 3.148194-6.266501 3.148194-6.03736V-.787049C3.148194-.448319 3.148194-.308842 2.102117-.308842H1.703611V0C2.11208-.029888 3.128269-.029888 3.58655-.029888S5.070984-.029888 5.479452 0V-.308842H5.080946C4.034869-.308842 4.034869-.448319 4.034869-.787049V-6.03736C4.034869-6.236613 4.034869-6.37609 4.214197-6.41594C4.323786-6.435866 4.592777-6.435866 4.782067-6.435866C6.286426-6.435866 6.435866-6.107098 6.575342-4.503113H6.824408Z'/>
<path id='g1-1858' d='M9.39477-2.49066C9.39477-2.550436 9.354919-2.600249 9.305106-2.620174C8.737235-2.809465 8.298879-3.20797 7.940224-3.656289C7.66127-4.014944 7.452055-4.4533 7.362391-4.921544C7.342466-5.011208 7.262765-5.080946 7.163138-5.080946C7.053549-5.080946 6.963885-4.991283 6.963885-4.881694C6.963885-4.871731 6.973848-4.851806 6.973848-4.841843C7.073474-4.313823 7.302615-3.825654 7.631382-3.407223C7.85056-3.128269 8.109589-2.889166 8.408468-2.689913H.777086C.667497-2.689913 .577833-2.600249 .577833-2.49066S.667497-2.291407 .777086-2.291407H8.408468C8.109589-2.092154 7.85056-1.853051 7.631382-1.574097C7.302615-1.155666 7.073474-.667497 6.973848-.139477C6.973848-.129514 6.963885-.109589 6.963885-.099626C6.963885 .009963 7.053549 .099626 7.163138 .099626C7.262765 .099626 7.342466 .029888 7.362391-.059776C7.452055-.52802 7.66127-.966376 7.940224-1.325031C8.298879-1.77335 8.737235-2.171856 9.305106-2.361146C9.354919-2.381071 9.39477-2.430884 9.39477-2.49066Z'/>
<path id='g1-2734' d='M6.176837-1.524284V-3.457036C6.176837-3.566625 6.087173-3.656289 5.977584-3.656289H.667497C.557908-3.656289 .468244-3.566625 .468244-3.457036S.557908-3.257783 .667497-3.257783H5.778331V-1.524284C5.778331-1.414695 5.867995-1.325031 5.977584-1.325031S6.176837-1.414695 6.176837-1.524284Z'/>
<path id='g1-2769' d='M5.947696-.079701L3.526775-5.858032C3.447073-6.03736 3.198007-6.03736 3.128269-5.858032L.707347-.079701C.597758 .169365 .966376 .318804 1.066002 .079701L3.327522-5.300125L5.579078 .079701C5.678705 .318804 6.047323 .169365 5.947696-.079701Z'/>
<path id='g0-27' d='M6.356164 0L3.755915-6.914072H2.879203L.278954 0H1.016189L1.783313-2.032379H4.682441L5.439601 0H6.356164ZM4.463263-2.590286H1.992528C2.500623-4.014944 2.132005-2.968867 2.6401-4.393524C2.849315-4.98132 3.158157-5.828144 3.227895-6.196762H3.237858C3.257783-6.057285 3.327522-5.808219 3.556663-5.150685L4.463263-2.590286Z'/>
<path id='g0-34' d='M6.07721-1.872976C6.07721-2.739726 5.210461-3.447073 4.154421-3.616438C5.061021-3.845579 5.808219-4.423412 5.808219-5.180573C5.808219-6.097136 4.742217-6.914072 3.327522-6.914072H.966376V0H3.596513C5.031133 0 6.07721-.896638 6.07721-1.872976ZM5.031133-5.17061C5.031133-4.572852 4.323786-3.895392 2.948941-3.895392H1.793275V-6.356164H3.048568C4.154421-6.356164 5.031133-5.828144 5.031133-5.17061ZM5.270237-1.882939C5.270237-1.135741 4.393524-.557908 3.317559-.557908H1.793275V-3.287671H3.237858C4.293898-3.287671 5.270237-2.67995 5.270237-1.882939Z'/>
</defs>
<g id='page1' transform='matrix(1.5 0 0 1.5 0 0)'>
<rect x='-14.536172' y='7.381636' height='.3985' width='219.094108' fill='#aaa7b3'/>
<rect x='-14.536172' y='7.780135' height='11.955168' width='.3985' fill='#aaa7b3'/>
<g fill='#aaa7b3'>
<use x='-8.882356' y='16.148717' xlink:href='#g0-27'/>
</g>
<rect x='3.01801' y='7.780135' height='11.955168' width='.3985' fill='#aaa7b3'/>
<g fill='#aaa7b3'>
<use x='8.671826' y='16.148717' xlink:href='#g0-34'/>
</g>
<rect x='20.572192' y='7.780135' height='11.955168' width='.3985' fill='#aaa7b3'/>
<g fill='#aaa7b3'>
<use x='25.952027' y='16.148717' xlink:href='#g1-2734'/>
<use x='32.597106' y='16.148717' xlink:href='#g0-27'/>
</g>
<rect x='44.223505' y='7.780135' height='11.955168' width='.3985' fill='#aaa7b3'/>
<g fill='#aaa7b3'>
<use x='49.60334' y='16.148717' xlink:href='#g1-2734'/>
<use x='56.248419' y='16.148717' xlink:href='#g0-34'/>
</g>
<rect x='67.874818' y='7.780135' height='11.955168' width='.3985' fill='#aaa7b3'/>
<g fill='#aaa7b3'>
<use x='73.254653' y='16.148717' xlink:href='#g0-27'/>
<use x='82.113841' y='16.148717' xlink:href='#g1-2769'/>
<use x='90.97303' y='16.148717' xlink:href='#g1-2734'/>
<use x='97.618109' y='16.148717' xlink:href='#g0-34'/>
</g>
<rect x='109.244508' y='7.780135' height='11.955168' width='.3985' fill='#aaa7b3'/>
<g fill='#aaa7b3'>
<use x='114.624343' y='16.148717' xlink:href='#g1-2734'/>
<use x='121.269422' y='16.148717' xlink:href='#g1-9'/>
<use x='125.144888' y='16.148717' xlink:href='#g0-27'/>
<use x='134.004077' y='16.148717' xlink:href='#g1-2769'/>
<use x='142.863265' y='16.148717' xlink:href='#g1-2734'/>
<use x='149.508344' y='16.148717' xlink:href='#g0-34'/>
<use x='156.153423' y='16.148717' xlink:href='#g1-10'/>
</g>
<rect x='165.01021' y='7.780135' height='11.955168' width='.3985' fill='#aaa7b3'/>
<g fill='#aaa7b3'>
<use x='170.390044' y='16.148717' xlink:href='#g0-27'/>
<use x='179.80276' y='16.148717' xlink:href='#g1-1858'/>
<use x='192.533037' y='16.148717' xlink:href='#g0-34'/>
</g>
<rect x='204.159436' y='7.780135' height='11.955168' width='.3985' fill='#aaa7b3'/>
<rect x='-14.536172' y='19.735304' height='.3985' width='219.094108' fill='#aaa7b3'/>
<rect x='-14.536172' y='20.133803' height='11.955168' width='.3985' fill='#aaa7b3'/>
<g fill='#aaa7b3'>
<use x='-9.156338' y='28.502384' xlink:href='#g1-53'/>
</g>
<rect x='3.01801' y='20.133803' height='11.955168' width='.3985' fill='#aaa7b3'/>
<g fill='#aaa7b3'>
<use x='8.397845' y='28.502384' xlink:href='#g1-53'/>
</g>
<rect x='20.572192' y='20.133803' height='11.955168' width='.3985' fill='#aaa7b3'/>
<g fill='#aaa7b3'>
<use x='29.344305' y='28.502384' xlink:href='#g1-39'/>
</g>
<rect x='44.223505' y='20.133803' height='11.955168' width='.3985' fill='#aaa7b3'/>
<g fill='#aaa7b3'>
<use x='52.995618' y='28.502384' xlink:href='#g1-39'/>
</g>
<rect x='67.874818' y='20.133803' height='11.955168' width='.3985' fill='#aaa7b3'/>
<g fill='#aaa7b3'>
<use x='85.506119' y='28.502384' xlink:href='#g1-39'/>
</g>
<rect x='109.244508' y='20.133803' height='11.955168' width='.3985' fill='#aaa7b3'/>
<g fill='#aaa7b3'>
<use x='133.73011' y='28.502384' xlink:href='#g1-53'/>
</g>
<rect x='165.01021' y='20.133803' height='11.955168' width='.3985' fill='#aaa7b3'/>
<g fill='#aaa7b3'>
<use x='181.187566' y='28.502384' xlink:href='#g1-53'/>
</g>
<rect x='204.159436' y='20.133803' height='11.955168' width='.3985' fill='#aaa7b3'/>
<rect x='-14.536172' y='32.088971' height='.3985' width='219.094108' fill='#aaa7b3'/>
<rect x='-14.536172' y='32.487471' height='11.955168' width='.3985' fill='#aaa7b3'/>
<g fill='#aaa7b3'>
<use x='-9.156338' y='40.856052' xlink:href='#g1-53'/>
</g>
<rect x='3.01801' y='32.487471' height='11.955168' width='.3985' fill='#aaa7b3'/>
<g fill='#aaa7b3'>
<use x='8.741557' y='40.856052' xlink:href='#g1-39'/>
</g>
<rect x='20.572192' y='32.487471' height='11.955168' width='.3985' fill='#aaa7b3'/>
<g fill='#aaa7b3'>
<use x='29.344305' y='40.856052' xlink:href='#g1-39'/>
</g>
<rect x='44.223505' y='32.487471' height='11.955168' width='.3985' fill='#aaa7b3'/>
<g fill='#aaa7b3'>
<use x='52.651905' y='40.856052' xlink:href='#g1-53'/>
</g>
<rect x='67.874818' y='32.487471' height='11.955168' width='.3985' fill='#aaa7b3'/>
<g fill='#aaa7b3'>
<use x='85.162407' y='40.856052' xlink:href='#g1-53'/>
</g>
<rect x='109.244508' y='32.487471' height='11.955168' width='.3985' fill='#aaa7b3'/>
<g fill='#aaa7b3'>
<use x='134.073822' y='40.856052' xlink:href='#g1-39'/>
</g>
<rect x='165.01021' y='32.487471' height='11.955168' width='.3985' fill='#aaa7b3'/>
<g fill='#aaa7b3'>
<use x='181.531279' y='40.856052' xlink:href='#g1-39'/>
</g>
<rect x='204.159436' y='32.487471' height='11.955168' width='.3985' fill='#aaa7b3'/>
<rect x='-14.536172' y='44.442639' height='.3985' width='219.094108' fill='#aaa7b3'/>
<rect x='-14.536172' y='44.841138' height='11.955168' width='.3985' fill='#aaa7b3'/>
<g fill='#aaa7b3'>
<use x='-8.812625' y='53.20972' xlink:href='#g1-39'/>
</g>
<rect x='3.01801' y='44.841138' height='11.955168' width='.3985' fill='#aaa7b3'/>
<g fill='#aaa7b3'>
<use x='8.397845' y='53.20972' xlink:href='#g1-53'/>
</g>
<rect x='20.572192' y='44.841138' height='11.955168' width='.3985' fill='#aaa7b3'/>
<g fill='#aaa7b3'>
<use x='29.000592' y='53.20972' xlink:href='#g1-53'/>
</g>
<rect x='44.223505' y='44.841138' height='11.955168' width='.3985' fill='#aaa7b3'/>
<g fill='#aaa7b3'>
<use x='52.995618' y='53.20972' xlink:href='#g1-39'/>
</g>
<rect x='67.874818' y='44.841138' height='11.955168' width='.3985' fill='#aaa7b3'/>
<g fill='#aaa7b3'>
<use x='85.506119' y='53.20972' xlink:href='#g1-39'/>
</g>
<rect x='109.244508' y='44.841138' height='11.955168' width='.3985' fill='#aaa7b3'/>
<g fill='#aaa7b3'>
<use x='133.73011' y='53.20972' xlink:href='#g1-53'/>
</g>
<rect x='165.01021' y='44.841138' height='11.955168' width='.3985' fill='#aaa7b3'/>
<g fill='#aaa7b3'>
<use x='181.187566' y='53.20972' xlink:href='#g1-53'/>
</g>
<rect x='204.159436' y='44.841138' height='11.955168' width='.3985' fill='#aaa7b3'/>
<rect x='-14.536172' y='56.796306' height='.3985' width='219.094108' fill='#aaa7b3'/>
<rect x='-14.536172' y='57.194806' height='11.955168' width='.3985' fill='#aaa7b3'/>
<g fill='#aaa7b3'>
<use x='-8.812625' y='65.563387' xlink:href='#g1-39'/>
</g>
<rect x='3.01801' y='57.194806' height='11.955168' width='.3985' fill='#aaa7b3'/>
<g fill='#aaa7b3'>
<use x='8.741557' y='65.563387' xlink:href='#g1-39'/>
</g>
<rect x='20.572192' y='57.194806' height='11.955168' width='.3985' fill='#aaa7b3'/>
<g fill='#aaa7b3'>
<use x='29.000592' y='65.563387' xlink:href='#g1-53'/>
</g>
<rect x='44.223505' y='57.194806' height='11.955168' width='.3985' fill='#aaa7b3'/>
<g fill='#aaa7b3'>
<use x='52.651905' y='65.563387' xlink:href='#g1-53'/>
</g>
<rect x='67.874818' y='57.194806' height='11.955168' width='.3985' fill='#aaa7b3'/>
<g fill='#aaa7b3'>
<use x='85.506119' y='65.563387' xlink:href='#g1-39'/>
</g>
<rect x='109.244508' y='57.194806' height='11.955168' width='.3985' fill='#aaa7b3'/>
<g fill='#aaa7b3'>
<use x='133.73011' y='65.563387' xlink:href='#g1-53'/>
</g>
<rect x='165.01021' y='57.194806' height='11.955168' width='.3985' fill='#aaa7b3'/>
<g fill='#aaa7b3'>
<use x='181.187566' y='65.563387' xlink:href='#g1-53'/>
</g>
<rect x='204.159436' y='57.194806' height='11.955168' width='.3985' fill='#aaa7b3'/>
<rect x='-14.536172' y='69.149974' height='.3985' width='219.094108' fill='#aaa7b3'/>
</g>
</svg>