<?xml version='1.0' encoding='UTF-8'?>
<!-- This file was generated by dvisvgm 3.0.3 -->
<svg version='1.1' xmlns='http://www.w3.org/2000/svg' xmlns:xlink='http://www.w3.org/1999/xlink' width='24.081925pt' height='10.744707pt' viewBox='-21.804259 15.645306 24.081925 10.744707'>
<defs>
<path id='g1-2770' d='M5.947696-5.708593C6.047323-5.957659 5.678705-6.107098 5.579078-5.867995L3.327522-.488169L1.066002-5.867995C.966376-6.107098 .597758-5.957659 .707347-5.708593L3.128269 .069738C3.198007 .249066 3.447073 .249066 3.526775 .069738L5.947696-5.708593Z'/>
<path id='g0-499' d='M1.793275-4.841843V-5.668742H1.544209L1.793275-6.914072H1.384807L.966376-5.65878V-4.841843H1.793275ZM3.726027-4.841843V-5.668742H3.476961L3.726027-6.914072H3.317559L2.899128-5.65878V-4.841843H3.726027Z'/>
<path id='g0-500' d='M1.803238-6.097136V-6.914072H.976339V-6.087173H1.225405L.976339-4.841843H1.384807L1.803238-6.097136ZM3.73599-6.097136V-6.914072H2.909091V-6.087173H3.158157L2.909091-4.841843H3.317559L3.73599-6.097136Z'/>
</defs>
<g id='page1' transform='matrix(1.5 0 0 1.5 0 0)'>
<g fill='#aaa7b3'>
<use x='-14.536172' y='17.344276' xlink:href='#g0-499'/>
<use x='-9.831403' y='17.344276' xlink:href='#g1-2770'/>
<use x='-3.183922' y='17.344276' xlink:href='#g0-500'/>
</g>
</g>
</svg>