<?xml version='1.0' encoding='UTF-8'?>
<!-- This file was generated by dvisvgm 2.13.3 -->
<svg version='1.1' xmlns='http://www.w3.org/2000/svg' xmlns:xlink='http://www.w3.org/1999/xlink' width='217.263001pt' height='51.319051pt' viewBox='360.443597 18.177212 217.263001 51.319051'>
<defs>
<path id='g0-28' d='M4.07472 0V-2.879203C4.07472-3.895392 3.347447-4.592777 2.430884-4.592777C1.783313-4.592777 1.334994-4.433375 .86675-4.164384L.926526-3.506849C1.444583-3.875467 1.942715-4.004981 2.430884-4.004981C2.899128-4.004981 3.297634-3.606476 3.297634-2.86924V-2.440847C1.803238-2.420922 .537983-2.002491 .537983-1.125778C.537983-.697385 .806974 .109589 1.673724 .109589C1.8132 .109589 2.749689 .089664 3.327522-.358655V0H4.07472ZM3.297634-1.315068C3.297634-1.125778 3.297634-.876712 2.958904-.687422C2.669988-.508095 2.291407-.498132 2.181818-.498132C1.703611-.498132 1.255293-.727273 1.255293-1.145704C1.255293-1.843088 2.86924-1.912827 3.297634-1.932752V-1.315068Z'/>
<path id='g0-50' d='M4.124533-2.181818C4.124533-2.520548 4.11457-3.267746 3.726027-3.865504C3.317559-4.483188 2.709838-4.592777 2.351183-4.592777C1.24533-4.592777 .348692-3.536737 .348692-2.251557C.348692-.936488 1.305106 .109589 2.500623 .109589C3.128269 .109589 3.696139-.129514 4.084682-.408468L4.024907-1.05604C3.39726-.537983 2.739726-.498132 2.510585-.498132C1.713574-.498132 1.075965-1.205479 1.046077-2.181818H4.124533ZM3.556663-2.729763H1.09589C1.255293-3.486924 1.783313-3.985056 2.351183-3.985056C2.86924-3.985056 3.427148-3.646326 3.556663-2.729763Z'/>
<path id='g0-62' d='M6.107098 0V-6.914072H5.220423V-3.895392H1.823163V-6.914072H.936488V0H1.823163V-3.287671H5.220423V0H6.107098Z'/>
<path id='g0-63' d='M4.333748 0V-2.968867C4.333748-3.626401 4.184309-4.533001 2.968867-4.533001C2.351183-4.533001 1.872976-4.224159 1.554172-3.815691V-6.914072H.806974V0H1.58406V-2.440847C1.58406-3.098381 1.833126-3.92528 2.590286-3.92528C3.5467-3.92528 3.556663-3.217933 3.556663-2.899128V0H4.333748Z'/>
<path id='g0-66' d='M1.554172 0V-4.423412H.806974V0H1.554172ZM1.633873-5.638854V-6.525529H.747198V-5.638854H1.633873Z'/>
<path id='g0-70' d='M4.692403 0L2.799502-2.709838L4.473225-4.423412H3.576588L1.554172-2.351183V-6.914072H.836862V0H1.524284V-1.404732L2.321295-2.231631L3.875467 0H4.692403Z'/>
<path id='g0-75' d='M7.103362 0V-2.968867C7.103362-3.636364 6.94396-4.533001 5.738481-4.533001C5.140722-4.533001 4.622665-4.254047 4.254047-3.716065C3.995019-4.473225 3.297634-4.533001 2.978829-4.533001C2.261519-4.533001 1.793275-4.124533 1.524284-3.765878V-4.483188H.806974V0H1.58406V-2.440847C1.58406-3.118306 1.853051-3.92528 2.590286-3.92528C3.516812-3.92528 3.566625-3.277709 3.566625-2.899128V0H4.343711V-2.440847C4.343711-3.118306 4.612702-3.92528 5.349938-3.92528C6.276463-3.92528 6.326276-3.277709 6.326276-2.899128V0H7.103362Z'/>
<path id='g0-77' d='M4.333748 0V-2.968867C4.333748-3.626401 4.184309-4.533001 2.968867-4.533001C2.072229-4.533001 1.58406-3.855542 1.524284-3.775841V-4.483188H.806974V0H1.58406V-2.440847C1.58406-3.098381 1.833126-3.92528 2.590286-3.92528C3.5467-3.92528 3.556663-3.217933 3.556663-2.899128V0H4.333748Z'/>
<path id='g0-81' d='M4.672478-2.191781C4.672478-3.526775 3.676214-4.592777 2.49066-4.592777C1.265255-4.592777 .298879-3.496887 .298879-2.191781C.298879-.876712 1.315068 .109589 2.480697 .109589C3.676214 .109589 4.672478-.896638 4.672478-2.191781ZM3.895392-2.291407C3.895392-1.115816 3.217933-.52802 2.480697-.52802C1.793275-.52802 1.075965-1.085928 1.075965-2.291407S1.833126-3.985056 2.480697-3.985056C3.178082-3.985056 3.895392-3.466999 3.895392-2.291407Z'/>
<path id='g0-88' d='M1.793275 0V-.826899H.966376V0H1.793275Z'/>
<path id='g0-96' d='M3.257783-3.865504V-4.533001C2.371108-4.523039 1.823163-4.034869 1.514321-3.576588V-4.483188H.816936V0H1.564134V-2.132005C1.564134-3.128269 2.281445-3.845579 3.257783-3.865504Z'/>
<path id='g0-98' d='M3.58655-1.275218C3.58655-1.823163 3.217933-2.161893 3.198007-2.191781C2.809465-2.540473 2.540473-2.600249 2.042341-2.689913C1.494396-2.799502 1.036115-2.899128 1.036115-3.387298C1.036115-4.004981 1.753425-4.004981 1.882939-4.004981C2.201743-4.004981 2.729763-3.965131 3.297634-3.626401L3.417186-4.273973C2.899128-4.513076 2.49066-4.592777 1.982565-4.592777C1.733499-4.592777 .328767-4.592777 .328767-3.287671C.328767-2.799502 .617684-2.480697 .86675-2.291407C1.175592-2.072229 1.39477-2.032379 1.942715-1.92279C2.30137-1.853051 2.879203-1.733499 2.879203-1.205479C2.879203-.518057 2.092154-.518057 1.942715-.518057C1.135741-.518057 .577833-.886675 .398506-1.006227L.278954-.328767C.597758-.169365 1.145704 .109589 1.952677 .109589C2.132005 .109589 2.67995 .109589 3.108344-.209215C3.417186-.448319 3.58655-.846824 3.58655-1.275218Z'/>
<path id='g0-105' d='M3.307597-.268991L3.148194-.856787C2.889166-.647572 2.570361-.52802 2.251557-.52802C1.882939-.52802 1.743462-.826899 1.743462-1.354919V-3.845579H3.148194V-4.423412H1.743462V-5.688667H1.05604V-4.423412H.18929V-3.845579H1.026152V-1.185554C1.026152-.587796 1.165629 .109589 1.853051 .109589C2.550436 .109589 3.058531-.139477 3.307597-.268991Z'/>
<path id='g0-120' d='M4.004981 0V-.617684H2.540473C2.420922-.617684 2.30137-.607721 2.181818-.607721H1.334994L3.985056-4.034869V-4.423412H.418431V-3.835616H1.803238C1.92279-3.835616 2.042341-3.845579 2.161893-3.845579H2.938979L.278954-.408468V0H4.004981Z'/>
</defs>
<g id='page1' transform='matrix(2.057143 0 0 2.057143 0 0)'>
<g fill='#aaa7b3'>
<use x='175.215637' y='15.750217' xlink:href='#g0-62'/>
<use x='182.269188' y='15.750217' xlink:href='#g0-50'/>
<use x='186.692603' y='15.750217' xlink:href='#g0-96'/>
<use x='190.099824' y='15.750217' xlink:href='#g0-50'/>
</g>
<g stroke-miterlimit='10' transform='translate(194.523239,15.750217)scale(0.996264,-0.996264)'>
<g fill='#aaa7b3' stroke='#aaa7b3'>
<g stroke-width='0.4'>
</g>
</g>
</g>
<g fill='#aaa7b3'>
<use x='197.8408' y='15.750217' xlink:href='#g0-66'/>
<use x='200.22187' y='15.750217' xlink:href='#g0-98'/>
<use x='207.355124' y='15.750217' xlink:href='#g0-28'/>
<use x='215.464712' y='15.750217' xlink:href='#g0-105'/>
<use x='219.061226' y='15.750217' xlink:href='#g0-66'/>
<use x='221.442296' y='15.750217' xlink:href='#g0-70'/>
<use x='226.314027' y='15.750217' xlink:href='#g0-120'/>
<use x='230.647781' y='15.750217' xlink:href='#g0-75'/>
<use x='238.55812' y='15.750217' xlink:href='#g0-28'/>
<use x='243.071195' y='15.750217' xlink:href='#g0-96'/>
<use x='246.478416' y='15.750217' xlink:href='#g0-70'/>
<use x='251.350146' y='15.750217' xlink:href='#g0-88'/>
<use x='175.215637' y='27.705385' xlink:href='#g0-62'/>
<use x='182.269188' y='27.705385' xlink:href='#g0-50'/>
<use x='186.692603' y='27.705385' xlink:href='#g0-96'/>
<use x='190.099824' y='27.705385' xlink:href='#g0-50'/>
</g>
<g stroke-miterlimit='10' transform='translate(194.523239,27.705385)scale(0.996264,-0.996264)'>
<g fill='#aaa7b3' stroke='#aaa7b3'>
<g stroke-width='0.4'>
</g>
</g>
</g>
<g fill='#aaa7b3'>
<use x='197.8408' y='27.705385' xlink:href='#g0-66'/>
<use x='200.22187' y='27.705385' xlink:href='#g0-98'/>
<use x='207.355124' y='27.705385' xlink:href='#g0-28'/>
<use x='212.147151' y='27.705385' xlink:href='#g0-77'/>
<use x='217.297835' y='27.705385' xlink:href='#g0-81'/>
<use x='222.279155' y='27.705385' xlink:href='#g0-105'/>
<use x='225.875668' y='27.705385' xlink:href='#g0-63'/>
<use x='231.026351' y='27.705385' xlink:href='#g0-50'/>
<use x='235.449766' y='27.705385' xlink:href='#g0-96'/>
<use x='242.174548' y='27.705385' xlink:href='#g0-105'/>
<use x='245.771062' y='27.705385' xlink:href='#g0-66'/>
<use x='248.152132' y='27.705385' xlink:href='#g0-70'/>
<use x='253.023863' y='27.705385' xlink:href='#g0-120'/>
<use x='257.357617' y='27.705385' xlink:href='#g0-75'/>
<use x='265.267956' y='27.705385' xlink:href='#g0-28'/>
<use x='269.78103' y='27.705385' xlink:href='#g0-96'/>
<use x='273.188252' y='27.705385' xlink:href='#g0-70'/>
<use x='278.059982' y='27.705385' xlink:href='#g0-88'/>
</g>
<g stroke-miterlimit='10' transform='translate(234.000185,33.782906)scale(0.996264,-0.996264)'>
<g fill='#aaa7b3' stroke='#aaa7b3'>
<g stroke-width='0.4'>
<path d='M -39.62498 6.10031' fill='none'/>
<g transform='matrix(0.0,1.0,-1.0,0.0,-39.62498,5.64032)'>
<g stroke-width='0.31999'>
 <g stroke-dasharray='none' stroke-dashoffset='0.0'>
 <g stroke-linecap='round'>
 <g stroke-linejoin='round'>
 <path d=' M -1.19998 1.59998 C -1.09998 0.99998 0.0 0.09999 0.29999 0.0 C 0.0 -0.09999 -1.09998 -0.99998 -1.19998 -1.59998  ' fill='none'/>
 </g>
 </g>
 </g>
 </g>
</g>
</g>
</g>
</g>
</g>
</svg>