<?xml version='1.0' encoding='UTF-8'?>
<!-- This file was generated by dvisvgm 2.13.3 -->
<svg version='1.1' xmlns='http://www.w3.org/2000/svg' xmlns:xlink='http://www.w3.org/1999/xlink' width='33.816042pt' height='14.448675pt' viewBox='-29.902983 21.456419 33.816042 14.448675'>
<defs>
<path id='g0-74' d='M2.460772 0V-.308842C1.803238-.308842 1.763387-.358655 1.763387-.747198V-4.403487L.368618-4.293898V-3.985056C1.016189-3.985056 1.105853-3.92528 1.105853-3.437111V-.757161C1.105853-.308842 .996264-.308842 .328767-.308842V0L1.424658-.029888C1.77335-.029888 2.122042-.009963 2.460772 0ZM1.912827-6.017435C1.912827-6.286426 1.683686-6.545455 1.384807-6.545455C1.046077-6.545455 .846824-6.266501 .846824-6.017435C.846824-5.748443 1.075965-5.489415 1.374844-5.489415C1.713574-5.489415 1.912827-5.768369 1.912827-6.017435Z'/>
<path id='g0-76' d='M5.090909 0V-.308842C4.722291-.308842 4.503113-.308842 4.124533-.836862L2.859278-2.620174C2.849315-2.6401 2.799502-2.699875 2.799502-2.729763C2.799502-2.769614 3.506849-3.367372 3.606476-3.447073C4.234122-3.955168 4.652553-3.975093 4.861768-3.985056V-4.293898C4.572852-4.26401 4.443337-4.26401 4.164384-4.26401C3.805729-4.26401 3.188045-4.283935 3.048568-4.293898V-3.985056C3.237858-3.975093 3.337484-3.865504 3.337484-3.73599C3.337484-3.536737 3.198007-3.417186 3.118306-3.347447L1.713574-2.132005V-6.914072L.278954-6.804483V-6.495641C.976339-6.495641 1.05604-6.425903 1.05604-5.937733V-.757161C1.05604-.308842 .946451-.308842 .278954-.308842V0L1.364882-.029888L2.460772 0V-.308842C1.793275-.308842 1.683686-.308842 1.683686-.757161V-1.783313L2.321295-2.331258C3.088418-1.275218 3.506849-.71731 3.506849-.537983C3.506849-.348692 3.337484-.308842 3.148194-.308842V0L4.224159-.029888C4.513076-.029888 4.801993-.019925 5.090909 0Z'/>
<path id='g0-85' d='M3.307597-1.235367V-1.803238H3.058531V-1.255293C3.058531-.518057 2.759651-.139477 2.391034-.139477C1.723537-.139477 1.723537-1.046077 1.723537-1.215442V-3.985056H3.148194V-4.293898H1.723537V-6.127024H1.474471C1.464508-5.310087 1.165629-4.244085 .18929-4.204234V-3.985056H1.036115V-1.235367C1.036115-.009963 1.96264 .109589 2.321295 .109589C3.028643 .109589 3.307597-.597758 3.307597-1.235367Z'/>
<path id='g0-91' d='M3.995019-1.863014H3.745953C3.656289-.687422 3.447073-.249066 2.291407-.249066H1.115816L3.88543-3.995019C3.975093-4.104608 3.975093-4.124533 3.975093-4.164384C3.975093-4.293898 3.895392-4.293898 3.716065-4.293898H.52802L.418431-2.689913H.667497C.727273-3.706102 .916563-4.07472 2.012453-4.07472H3.148194L.368618-.318804C.278954-.209215 .278954-.18929 .278954-.139477C.278954 0 .348692 0 .537983 0H3.825654L3.995019-1.863014Z'/>
</defs>
<g id='page1' transform='matrix(2.057143 0 0 2.057143 0 0)'>
<g fill='#aaa7b3'>
<use x='-14.536172' y='17.344276' xlink:href='#g0-85'/>
<use x='-10.660706' y='17.344276' xlink:href='#g0-74'/>
<use x='-7.891093' y='17.344276' xlink:href='#g0-76'/>
<use x='-2.521231' y='17.344276' xlink:href='#g0-91'/>
</g>
</g>
</svg>