<?xml version='1.0' encoding='UTF-8'?>
<!-- This file was generated by dvisvgm 2.13.3 -->
<svg version='1.1' xmlns='http://www.w3.org/2000/svg' xmlns:xlink='http://www.w3.org/1999/xlink' width='314.565257pt' height='168.219913pt' viewBox='331.751193 49.534015 314.565257 168.219913'>
<defs>
<path id='g1-1858' d='M9.39477-2.49066C9.39477-2.550436 9.354919-2.600249 9.305106-2.620174C8.737235-2.809465 8.298879-3.20797 7.940224-3.656289C7.66127-4.014944 7.452055-4.4533 7.362391-4.921544C7.342466-5.011208 7.262765-5.080946 7.163138-5.080946C7.053549-5.080946 6.963885-4.991283 6.963885-4.881694C6.963885-4.871731 6.973848-4.851806 6.973848-4.841843C7.073474-4.313823 7.302615-3.825654 7.631382-3.407223C7.85056-3.128269 8.109589-2.889166 8.408468-2.689913H.777086C.667497-2.689913 .577833-2.600249 .577833-2.49066S.667497-2.291407 .777086-2.291407H8.408468C8.109589-2.092154 7.85056-1.853051 7.631382-1.574097C7.302615-1.155666 7.073474-.667497 6.973848-.139477C6.973848-.129514 6.963885-.109589 6.963885-.099626C6.963885 .009963 7.053549 .099626 7.163138 .099626C7.262765 .099626 7.342466 .029888 7.362391-.059776C7.452055-.52802 7.66127-.966376 7.940224-1.325031C8.298879-1.77335 8.737235-2.171856 9.305106-2.361146C9.354919-2.381071 9.39477-2.430884 9.39477-2.49066Z'/>
<path id='g0-27' d='M6.356164 0L3.755915-6.914072H2.879203L.278954 0H1.016189L1.783313-2.032379H4.682441L5.439601 0H6.356164ZM4.463263-2.590286H1.992528C2.500623-4.014944 2.132005-2.968867 2.6401-4.393524C2.849315-4.98132 3.158157-5.828144 3.227895-6.196762H3.237858C3.257783-6.057285 3.327522-5.808219 3.556663-5.150685L4.463263-2.590286Z'/>
<path id='g0-28' d='M4.07472 0V-2.879203C4.07472-3.895392 3.347447-4.592777 2.430884-4.592777C1.783313-4.592777 1.334994-4.433375 .86675-4.164384L.926526-3.506849C1.444583-3.875467 1.942715-4.004981 2.430884-4.004981C2.899128-4.004981 3.297634-3.606476 3.297634-2.86924V-2.440847C1.803238-2.420922 .537983-2.002491 .537983-1.125778C.537983-.697385 .806974 .109589 1.673724 .109589C1.8132 .109589 2.749689 .089664 3.327522-.358655V0H4.07472ZM3.297634-1.315068C3.297634-1.125778 3.297634-.876712 2.958904-.687422C2.669988-.508095 2.291407-.498132 2.181818-.498132C1.703611-.498132 1.255293-.727273 1.255293-1.145704C1.255293-1.843088 2.86924-1.912827 3.297634-1.932752V-1.315068Z'/>
<path id='g0-34' d='M6.07721-1.872976C6.07721-2.739726 5.210461-3.447073 4.154421-3.616438C5.061021-3.845579 5.808219-4.423412 5.808219-5.180573C5.808219-6.097136 4.742217-6.914072 3.327522-6.914072H.966376V0H3.596513C5.031133 0 6.07721-.896638 6.07721-1.872976ZM5.031133-5.17061C5.031133-4.572852 4.323786-3.895392 2.948941-3.895392H1.793275V-6.356164H3.048568C4.154421-6.356164 5.031133-5.828144 5.031133-5.17061ZM5.270237-1.882939C5.270237-1.135741 4.393524-.557908 3.317559-.557908H1.793275V-3.287671H3.237858C4.293898-3.287671 5.270237-2.67995 5.270237-1.882939Z'/>
<path id='g0-43' d='M4.134496-.398506L4.07472-1.066002C3.566625-.667497 3.028643-.52802 2.520548-.52802C1.693649-.52802 1.135741-1.24533 1.135741-2.221669C1.135741-2.998755 1.504359-3.955168 2.560399-3.955168C3.078456-3.955168 3.417186-3.875467 3.965131-3.516812L4.084682-4.164384C3.496887-4.503113 3.158157-4.592777 2.550436-4.592777C1.165629-4.592777 .358655-3.387298 .358655-2.211706C.358655-.976339 1.265255 .109589 2.510585 .109589C3.048568 .109589 3.596513-.029888 4.134496-.398506Z'/>
<path id='g0-47' d='M4.323786 0V-6.914072H3.576588V-3.985056C3.048568-4.423412 2.49066-4.533001 2.122042-4.533001C1.135741-4.533001 .358655-3.496887 .358655-2.211706C.358655-.9066 1.125778 .109589 2.072229 .109589C2.400996 .109589 2.988792 .019925 3.5467-.518057V0H4.323786ZM3.5467-1.384807C3.5467-1.24533 3.536737-1.066002 3.217933-.777086C2.988792-.577833 2.739726-.498132 2.480697-.498132C1.863014-.498132 1.135741-.966376 1.135741-2.201743C1.135741-3.516812 1.992528-3.92528 2.580324-3.92528C3.028643-3.92528 3.327522-3.696139 3.5467-3.377335V-1.384807Z'/>
<path id='g0-50' d='M4.124533-2.181818C4.124533-2.520548 4.11457-3.267746 3.726027-3.865504C3.317559-4.483188 2.709838-4.592777 2.351183-4.592777C1.24533-4.592777 .348692-3.536737 .348692-2.251557C.348692-.936488 1.305106 .109589 2.500623 .109589C3.128269 .109589 3.696139-.129514 4.084682-.408468L4.024907-1.05604C3.39726-.537983 2.739726-.498132 2.510585-.498132C1.713574-.498132 1.075965-1.205479 1.046077-2.181818H4.124533ZM3.556663-2.729763H1.09589C1.255293-3.486924 1.783313-3.985056 2.351183-3.985056C2.86924-3.985056 3.427148-3.646326 3.556663-2.729763Z'/>
<path id='g0-55' d='M3.457036-6.246575V-6.914072C3.337484-6.94396 3.028643-7.023661 2.660025-7.023661C1.723537-7.023661 1.006227-6.316314 1.006227-5.32005V-4.423412H.268991V-3.845579H1.006227V0H1.753425V-3.845579H2.849315V-4.423412H1.723537V-5.608966C1.723537-6.346202 2.391034-6.41594 2.650062-6.41594C2.849315-6.41594 3.118306-6.396015 3.457036-6.246575Z'/>
<path id='g0-59' d='M4.83188-3.905355L4.722291-4.533001C4.024907-4.533001 3.447073-4.343711 3.148194-4.214197C2.938979-4.383562 2.600249-4.533001 2.201743-4.533001C1.344956-4.533001 .617684-3.815691 .617684-2.909091C.617684-2.540473 .747198-2.181818 .946451-1.92279C.657534-1.514321 .657534-1.125778 .657534-1.075965C.657534-.816936 .747198-.52802 .916563-.318804C.398506-.009963 .278954 .448319 .278954 .707347C.278954 1.454545 1.265255 2.052304 2.480697 2.052304C3.706102 2.052304 4.692403 1.464508 4.692403 .697385C4.692403-.687422 3.028643-.687422 2.6401-.687422H1.763387C1.633873-.687422 1.185554-.687422 1.185554-1.215442C1.185554-1.325031 1.225405-1.484433 1.295143-1.574097C1.504359-1.424658 1.833126-1.285181 2.201743-1.285181C3.098381-1.285181 3.795766-2.022416 3.795766-2.909091C3.795766-3.387298 3.576588-3.755915 3.466999-3.905355L3.506849-3.895392C3.726027-3.895392 4.004981-3.935243 4.244085-3.935243C4.423412-3.935243 4.83188-3.905355 4.83188-3.905355ZM3.098381-2.909091C3.098381-2.132005 2.630137-1.853051 2.201743-1.853051C1.833126-1.853051 1.315068-2.082192 1.315068-2.909091S1.833126-3.965131 2.201743-3.965131C2.630137-3.965131 3.098381-3.686177 3.098381-2.909091ZM3.995019 .71731C3.995019 1.155666 3.307597 1.484433 2.49066 1.484433C1.683686 1.484433 .976339 1.175592 .976339 .707347C.976339 .67746 .976339 .029888 1.753425 .029888H2.650062C2.86924 .029888 3.995019 .029888 3.995019 .71731Z'/>
<path id='g0-63' d='M4.333748 0V-2.968867C4.333748-3.626401 4.184309-4.533001 2.968867-4.533001C2.351183-4.533001 1.872976-4.224159 1.554172-3.815691V-6.914072H.806974V0H1.58406V-2.440847C1.58406-3.098381 1.833126-3.92528 2.590286-3.92528C3.5467-3.92528 3.556663-3.217933 3.556663-2.899128V0H4.333748Z'/>
<path id='g0-65' d='M1.823163 0V-6.914072H.936488V0H1.823163Z'/>
<path id='g0-66' d='M1.554172 0V-4.423412H.806974V0H1.554172ZM1.633873-5.638854V-6.525529H.747198V-5.638854H1.633873Z'/>
<path id='g0-72' d='M1.554172 0V-6.914072H.806974V0H1.554172Z'/>
<path id='g0-77' d='M4.333748 0V-2.968867C4.333748-3.626401 4.184309-4.533001 2.968867-4.533001C2.072229-4.533001 1.58406-3.855542 1.524284-3.775841V-4.483188H.806974V0H1.58406V-2.440847C1.58406-3.098381 1.833126-3.92528 2.590286-3.92528C3.5467-3.92528 3.556663-3.217933 3.556663-2.899128V0H4.333748Z'/>
<path id='g0-96' d='M3.257783-3.865504V-4.533001C2.371108-4.523039 1.823163-4.034869 1.514321-3.576588V-4.483188H.816936V0H1.564134V-2.132005C1.564134-3.128269 2.281445-3.845579 3.257783-3.865504Z'/>
<path id='g0-98' d='M3.58655-1.275218C3.58655-1.823163 3.217933-2.161893 3.198007-2.191781C2.809465-2.540473 2.540473-2.600249 2.042341-2.689913C1.494396-2.799502 1.036115-2.899128 1.036115-3.387298C1.036115-4.004981 1.753425-4.004981 1.882939-4.004981C2.201743-4.004981 2.729763-3.965131 3.297634-3.626401L3.417186-4.273973C2.899128-4.513076 2.49066-4.592777 1.982565-4.592777C1.733499-4.592777 .328767-4.592777 .328767-3.287671C.328767-2.799502 .617684-2.480697 .86675-2.291407C1.175592-2.072229 1.39477-2.032379 1.942715-1.92279C2.30137-1.853051 2.879203-1.733499 2.879203-1.205479C2.879203-.518057 2.092154-.518057 1.942715-.518057C1.135741-.518057 .577833-.886675 .398506-1.006227L.278954-.328767C.597758-.169365 1.145704 .109589 1.952677 .109589C2.132005 .109589 2.67995 .109589 3.108344-.209215C3.417186-.448319 3.58655-.846824 3.58655-1.275218Z'/>
<path id='g0-105' d='M3.307597-.268991L3.148194-.856787C2.889166-.647572 2.570361-.52802 2.251557-.52802C1.882939-.52802 1.743462-.826899 1.743462-1.354919V-3.845579H3.148194V-4.423412H1.743462V-5.688667H1.05604V-4.423412H.18929V-3.845579H1.026152V-1.185554C1.026152-.587796 1.165629 .109589 1.853051 .109589C2.550436 .109589 3.058531-.139477 3.307597-.268991Z'/>
<path id='g0-108' d='M5.907846-2.321295V-6.914072H5.13076V-2.311333C5.13076-.996264 4.293898-.33873 3.457036-.33873C2.6401-.33873 1.823163-.966376 1.823163-2.311333V-6.914072H.936488V-2.321295C.936488-.86675 2.102117 .219178 3.447073 .219178C4.782067 .219178 5.907846-.876712 5.907846-2.321295Z'/>
<path id='g0-109' d='M4.333748 0V-4.423412H3.556663V-1.534247C3.556663-.787049 2.998755-.438356 2.361146-.438356C1.653798-.438356 1.58406-.697385 1.58406-1.125778V-4.423412H.806974V-1.085928C.806974-.368618 1.036115 .109589 1.863014 .109589C2.391034 .109589 3.098381-.049813 3.58655-.478207V0H4.333748Z'/>
<path id='g0-579' d='M4.333748 0V-4.423412H3.556663V-1.534247C3.556663-.787049 2.998755-.438356 2.361146-.438356C1.653798-.438356 1.58406-.697385 1.58406-1.125778V-4.423412H.806974V-1.085928C.806974-.368618 1.036115 .109589 1.863014 .109589C2.391034 .109589 3.098381-.049813 3.58655-.478207V0H4.333748ZM2.241594-5.688667V-6.485679H1.444583V-5.688667H2.241594ZM3.696139-5.688667V-6.485679H2.899128V-5.688667H3.696139Z'/>
</defs>
<g id='page1' transform='matrix(2.057143 0 0 2.057143 0 0)'>
<g transform='translate(161.267941,32.427728)scale(3,3)scale(-1)translate(161.267941,32.427728)scale(-1)'>
<g stroke-miterlimit='10' transform='translate(161.267941,32.427728)scale(0.996264,-0.996264)'>
<g fill='#aaa7b3' stroke='#aaa7b3'>
<g stroke-width='0.4'>
</g>
</g>
</g>
<rect x='161.267941' y='24.07903' height='8.348697' width='1.494396' fill='#aaa7b3'/>
<rect x='162.762337' y='28.004313' height='.498132' width='18.430884' fill='#aaa7b3'/>
<rect x='180.695089' y='28.502445' height='16.538019' width='.498132' fill='#aaa7b3'/>
<g stroke-miterlimit='10' transform='translate(181.193221,32.427728)scale(0.996264,-0.996264)'>
<g fill='#aaa7b3' stroke='#aaa7b3'>
<g stroke-width='0.4'>
</g>
</g>
</g>
<rect x='181.193221' y='28.004313' height='.498132' width='19.92528' fill='#aaa7b3'/>
<g fill='#aaa7b3'>
<use x='203.11103' y='32.427728' xlink:href='#g0-34'/>
</g>
<g stroke-miterlimit='10' transform='translate(181.193221,48.965747)scale(0.996264,-0.996264)'>
<g fill='#aaa7b3' stroke='#aaa7b3'>
<g stroke-width='0.4'>
</g>
</g>
</g>
<rect x='181.193221' y='44.542332' height='.498132' width='19.92528' fill='#aaa7b3'/>
<g fill='#aaa7b3'>
<use x='203.11103' y='48.965747' xlink:href='#g0-27'/>
</g>
</g>
<g stroke-miterlimit='10' transform='translate(234.000185,93.79781)scale(0.996264,-0.996264)'>
<g fill='#aaa7b3' stroke='#aaa7b3'>
<g stroke-width='0.4'>
<g stroke='#aaa7b3'>
<g stroke='#aaa7b3'>
<path d='M -110.99289 44.5082 L -195.01709 44.5082 C -197.22626 44.5082 -199.01709 42.71736 -199.01709 40.5082 L -199.01709 22.69225 C -199.01709 20.48308 -197.22626 18.69225 -195.01709 18.69225 L -110.99289 18.69225 C -108.78372 18.69225 -106.99289 20.48308 -106.99289 22.69225 L -106.99289 40.5082 C -106.99289 42.71736 -108.78372 44.5082 -110.99289 44.5082 Z M -199.01709 18.69225' fill='none'/>
</g>
<g transform='translate(-195.68411,34.12523)'>
<g stroke='none' transform='scale(-1.00375,1.00375)translate(234.000185,93.79781)scale(-1,-1)'>
<g fill='#aaa7b3'>
<g stroke='none'>
<use x='244.239437' y='93.79781' xlink:href='#g0-108'/>
<use x='251.093738' y='93.79781' xlink:href='#g0-96'/>
<use x='254.500959' y='93.79781' xlink:href='#g0-105'/>
<use x='258.097473' y='93.79781' xlink:href='#g0-50'/>
<use x='262.520887' y='93.79781' xlink:href='#g0-66'/>
<use x='264.901958' y='93.79781' xlink:href='#g0-72'/>
<use x='267.283028' y='93.79781' xlink:href='#g0-98'/>
<use x='271.098721' y='93.79781' xlink:href='#g0-98'/>
<use x='274.914414' y='93.79781' xlink:href='#g0-105'/>
<use x='278.510928' y='93.79781' xlink:href='#g0-96'/>
<use x='281.918149' y='93.79781' xlink:href='#g0-66'/>
<use x='284.299219' y='93.79781' xlink:href='#g0-43'/>
<use x='288.722634' y='93.79781' xlink:href='#g0-63'/>
<use x='297.193842' y='93.79781' xlink:href='#g0-55'/>
<use x='300.242408' y='93.79781' xlink:href='#g0-579'/>
<use x='305.393091' y='93.79781' xlink:href='#g0-96'/>
<use x='258.695617' y='105.752978' xlink:href='#g0-27'/>
<use x='271.538554' y='105.752978' xlink:href='#g1-1858'/>
<use x='287.699037' y='105.752978' xlink:href='#g0-34'/>
</g>
</g>
</g>
</g>
</g>
<g stroke='#aaa7b3'>
<g stroke='#aaa7b3'>
<path d='M -50.99289 -5.4918 L -135.01709 -5.4918 C -137.22626 -5.4918 -139.01709 -7.28264 -139.01709 -9.4918 L -139.01709 -27.30775 C -139.01709 -29.51692 -137.22626 -31.30775 -135.01709 -31.30775 L -50.99289 -31.30775 C -48.78372 -31.30775 -46.99289 -29.51692 -46.99289 -27.30775 L -46.99289 -9.4918 C -46.99289 -7.28264 -48.78372 -5.4918 -50.99289 -5.4918 Z M -139.01709 -31.30775' fill='none'/>
</g>
<g transform='translate(-135.68411,-15.87477)'>
<g stroke='none' transform='scale(-1.00375,1.00375)translate(234.000185,93.79781)scale(-1,-1)'>
<g fill='#aaa7b3'>
<g stroke='none'>
<use x='243.840937' y='93.79781' xlink:href='#g0-65'/>
<use x='246.61055' y='93.79781' xlink:href='#g0-77'/>
<use x='251.761233' y='93.79781' xlink:href='#g0-63'/>
<use x='256.911916' y='93.79781' xlink:href='#g0-28'/>
<use x='261.703959' y='93.79781' xlink:href='#g0-72'/>
<use x='264.085029' y='93.79781' xlink:href='#g0-105'/>
<use x='267.681543' y='93.79781' xlink:href='#g0-98'/>
<use x='271.497221' y='93.79781' xlink:href='#g0-98'/>
<use x='275.312913' y='93.79781' xlink:href='#g0-105'/>
<use x='278.909427' y='93.79781' xlink:href='#g0-96'/>
<use x='282.316648' y='93.79781' xlink:href='#g0-66'/>
<use x='284.697719' y='93.79781' xlink:href='#g0-43'/>
<use x='289.121133' y='93.79781' xlink:href='#g0-63'/>
<use x='297.592342' y='93.79781' xlink:href='#g0-55'/>
<use x='300.640907' y='93.79781' xlink:href='#g0-579'/>
<use x='305.79159' y='93.79781' xlink:href='#g0-96'/>
<use x='258.695617' y='105.752978' xlink:href='#g0-27'/>
<use x='271.538554' y='105.752978' xlink:href='#g1-1858'/>
<use x='287.699037' y='105.752978' xlink:href='#g0-34'/>
</g>
</g>
</g>
</g>
</g>
<g stroke='#aaa7b3'>
<g fill='#0ff' stroke='#0ff'>
<g stroke='#0ff'>
<g fill='#0ff' stroke='#0ff'>
<path d='M 169.00711 2.83315 L 84.98291 2.83315 C 82.77374 2.83315 80.98291 1.04231 80.98291 -1.16685 L 80.98291 -8.83278 C 80.98291 -11.04195 82.77374 -12.83278 84.98291 -12.83278 L 169.00711 -12.83278 C 171.21628 -12.83278 173.00711 -11.04195 173.00711 -8.83278 L 173.00711 -1.16685 C 173.00711 1.04231 171.21628 2.83315 169.00711 2.83315 Z M 80.98291 -12.83278' fill='none'/>
</g>
</g>
<g transform='translate(84.31589,-7.43983)'>
<g stroke='none' transform='scale(-1.00375,1.00375)translate(234.000185,93.79781)scale(-1,-1)'>
<g fill='#0ff'>
<g stroke='none'>
<g fill='#0ff'>
<use x='241.217246' y='93.79781' xlink:href='#g0-34'/>
<use x='247.862325' y='93.79781' xlink:href='#g0-50'/>
<use x='252.28574' y='93.79781' xlink:href='#g0-47'/>
<use x='257.436423' y='93.79781' xlink:href='#g0-66'/>
<use x='259.817493' y='93.79781' xlink:href='#g0-77'/>
<use x='264.968177' y='93.79781' xlink:href='#g0-59'/>
<use x='269.949497' y='93.79781' xlink:href='#g0-109'/>
<use x='275.10018' y='93.79781' xlink:href='#g0-77'/>
<use x='280.250878' y='93.79781' xlink:href='#g0-59'/>
<use x='285.232198' y='93.79781' xlink:href='#g0-98'/>
<use x='289.047876' y='93.79781' xlink:href='#g0-98'/>
<use x='292.863569' y='93.79781' xlink:href='#g0-105'/>
<use x='296.460083' y='93.79781' xlink:href='#g0-96'/>
<use x='299.867304' y='93.79781' xlink:href='#g0-66'/>
<use x='302.248374' y='93.79781' xlink:href='#g0-43'/>
<use x='306.671789' y='93.79781' xlink:href='#g0-63'/>
</g>
</g>
</g>
</g>
</g>
</g>
</g>
<g stroke='#aaa7b3'>
<g stroke='#aaa7b3'>
<path d='M 54.00711 -28.08685 L -30.01709 -28.08685 C -32.22626 -28.08685 -34.01709 -29.87769 -34.01709 -32.08685 L -34.01709 -37.91278 C -34.01709 -40.12195 -32.22626 -41.91278 -30.01709 -41.91278 L 54.00711 -41.91278 C 56.21628 -41.91278 58.00711 -40.12195 58.00711 -37.91278 L 58.00711 -32.08685 C 58.00711 -29.87769 56.21628 -28.08685 54.00711 -28.08685 Z M -34.01709 -41.91278' fill='none'/>
</g>
<g transform='translate(-30.68411,-38.46982)'>
<g stroke='none' transform='scale(-1.00375,1.00375)translate(234.000185,93.79781)scale(-1,-1)'>
<g fill='#aaa7b3'>
<g stroke='none'>
<use x='238.858127' y='93.79781' xlink:href='#g0-65'/>
<use x='241.62774' y='93.79781' xlink:href='#g0-77'/>
<use x='246.778423' y='93.79781' xlink:href='#g0-63'/>
<use x='251.929106' y='93.79781' xlink:href='#g0-28'/>
<use x='256.721149' y='93.79781' xlink:href='#g0-72'/>
<use x='259.102219' y='93.79781' xlink:href='#g0-105'/>
<use x='262.698733' y='93.79781' xlink:href='#g0-98'/>
<use x='266.514411' y='93.79781' xlink:href='#g0-98'/>
<use x='270.330104' y='93.79781' xlink:href='#g0-105'/>
<use x='273.926617' y='93.79781' xlink:href='#g0-96'/>
<use x='277.333838' y='93.79781' xlink:href='#g0-66'/>
<use x='279.714909' y='93.79781' xlink:href='#g0-43'/>
<use x='284.138323' y='93.79781' xlink:href='#g0-63'/>
<use x='292.609532' y='93.79781' xlink:href='#g0-55'/>
<use x='295.658097' y='93.79781' xlink:href='#g0-579'/>
<use x='300.80878' y='93.79781' xlink:href='#g0-96'/>
<use x='307.536527' y='93.79781' xlink:href='#g0-27'/>
</g>
</g>
</g>
</g>
</g>
<g stroke='#aaa7b3'>
<g stroke='#aaa7b3'>
<path d='M 169.00711 111.91315 L 84.98291 111.91315 C 82.77374 111.91315 80.98291 110.12231 80.98291 107.91315 L 80.98291 102.08722 C 80.98291 99.87805 82.77374 98.08722 84.98291 98.08722 L 169.00711 98.08722 C 171.21628 98.08722 173.00711 99.87805 173.00711 102.08722 L 173.00711 107.91315 C 173.00711 110.12231 171.21628 111.91315 169.00711 111.91315 Z M 80.98291 98.08722' fill='none'/>
</g>
<g transform='translate(84.31589,101.53018)'>
<g stroke='none' transform='scale(-1.00375,1.00375)translate(234.000185,93.79781)scale(-1,-1)'>
<g fill='#aaa7b3'>
<g stroke='none'>
<use x='238.858127' y='93.79781' xlink:href='#g0-65'/>
<use x='241.62774' y='93.79781' xlink:href='#g0-77'/>
<use x='246.778423' y='93.79781' xlink:href='#g0-63'/>
<use x='251.929106' y='93.79781' xlink:href='#g0-28'/>
<use x='256.721149' y='93.79781' xlink:href='#g0-72'/>
<use x='259.102219' y='93.79781' xlink:href='#g0-105'/>
<use x='262.698733' y='93.79781' xlink:href='#g0-98'/>
<use x='266.514411' y='93.79781' xlink:href='#g0-98'/>
<use x='270.330104' y='93.79781' xlink:href='#g0-105'/>
<use x='273.926617' y='93.79781' xlink:href='#g0-96'/>
<use x='277.333838' y='93.79781' xlink:href='#g0-66'/>
<use x='279.714909' y='93.79781' xlink:href='#g0-43'/>
<use x='284.138323' y='93.79781' xlink:href='#g0-63'/>
<use x='292.609532' y='93.79781' xlink:href='#g0-55'/>
<use x='295.658097' y='93.79781' xlink:href='#g0-579'/>
<use x='300.80878' y='93.79781' xlink:href='#g0-96'/>
<use x='307.536527' y='93.79781' xlink:href='#g0-34'/>
</g>
</g>
</g>
</g>
</g>
<g stroke-width='0.8'>
<path d='M -153.00499 44.70819 C -123.45094 55.4651 -109.4556 73.60019 -80.60493 73.60019' fill='none'/>
<g transform='translate(-80.60493,73.60019)'>
<path d=' M 2.59995 0.0 L -1.55997 2.07996 L 0.0 0.0 L -1.55997 -2.07996  ' stroke='none'/>
</g>
</g>
<g stroke-width='0.8'>
<path d='M -93.00499 -5.29181 C -59.73499 6.81761 -42.00493 34.19522 -42.00493 67.0003' fill='none'/>
<g transform='matrix(0.0,1.0,-1.0,0.0,-42.00493,67.0003)'>
<path d=' M 2.59995 0.0 L -1.55997 2.07996 L 0.0 0.0 L -1.55997 -2.07996  ' stroke='none'/>
</g>
</g>
<g stroke-width='0.8'>
<g fill='#0ff' stroke='#0ff'>
<path d='M 126.99501 3.03314 C 90.40956 46.63329 45.91148 50.00018 -8.40508 50.00018' fill='none'/>
<g transform='matrix(-1.0,0.0,0.0,-1.0,-8.40508,50.00018)'>
<path d=' M 2.59995 0.0 L -1.55997 2.07996 L 0.0 0.0 L -1.55997 -2.07996  ' stroke='none'/>
</g>
</g>
</g>
<g stroke-width='0.8'>
<path d='M 11.99501 -27.88686 L 11.99501 16.40018' fill='none'/>
<g transform='matrix(0.0,1.0,-1.0,0.0,11.99501,16.40018)'>
<path d=' M 2.59995 0.0 L -1.55997 2.07996 L 0.0 0.0 L -1.55997 -2.07996  ' stroke='none'/>
</g>
</g>
<g stroke-width='0.8'>
<path d='M 126.99501 97.88722 C 97.71219 62.98988 11.99501 123.55591 11.99501 80.60016' fill='none'/>
<g transform='matrix(0.0,-1.0,1.0,0.0,11.99501,80.60016)'>
<path d=' M 2.59995 0.0 L -1.55997 2.07996 L 0.0 0.0 L -1.55997 -2.07996  ' stroke='none'/>
</g>
</g>
</g>
</g>
</g>
</g>
</svg>