<?xml version='1.0' encoding='UTF-8'?>
<!-- This file was generated by dvisvgm 2.13.3 -->
<svg version='1.1' xmlns='http://www.w3.org/2000/svg' xmlns:xlink='http://www.w3.org/1999/xlink' width='211.59992pt' height='166.520937pt' viewBox='-12.837882 16.213121 211.59992 166.520937'>
<defs>
<path id='g0-37' d='M4.930511-2.343213C4.930511-3.668244 3.989041-4.763138 2.796513-4.763138H.244085V-4.546949H.411457C.948443-4.546949 .962391-4.470237 .962391-4.219178V-.54396C.962391-.292902 .948443-.216189 .411457-.216189H.244085V0H2.796513C3.96812 0 4.930511-1.03213 4.930511-2.343213ZM4.233126-2.343213C4.233126-1.569116 4.100623-1.150685 3.849564-.808966C3.710087-.620672 3.312578-.216189 2.608219-.216189H1.903861C1.57609-.216189 1.562142-.265006 1.562142-.495143V-4.267995C1.562142-4.498132 1.57609-4.546949 1.903861-4.546949H2.601245C3.033624-4.546949 3.514819-4.393524 3.870486-3.898381C4.170361-3.486924 4.233126-2.887173 4.233126-2.343213Z'/>
<path id='g0-47' d='M4.993275-4.546949V-4.763138L4.177335-4.742217L3.361395-4.763138V-4.546949C4.079701-4.546949 4.079701-4.219178 4.079701-4.030884V-1.053051L1.617933-4.672478C1.555168-4.756164 1.548194-4.763138 1.415691-4.763138H.230137V-4.546949H.432379C.536986-4.546949 .676463-4.539975 .781071-4.533001C.941469-4.51208 .948443-4.505106 .948443-4.372603V-.732254C.948443-.54396 .948443-.216189 .230137-.216189V0L1.046077-.020922L1.862017 0V-.216189C1.143711-.216189 1.143711-.54396 1.143711-.732254V-4.358655C1.17858-4.323786 1.185554-4.316812 1.21345-4.274969L4.05878-.09066C4.121544-.006974 4.128518 0 4.177335 0C4.274969 0 4.274969-.048817 4.274969-.18132V-4.030884C4.274969-4.219178 4.274969-4.546949 4.993275-4.546949Z'/>
<path id='g0-70' d='M2.894147-.829888C2.894147-.899626 2.838356-.913574 2.803487-.913574C2.740722-.913574 2.726775-.871731 2.712827-.81594C2.468742-.097634 1.841096-.097634 1.771357-.097634C1.422665-.097634 1.143711-.306849 .983313-.564882C.774097-.899626 .774097-1.3599 .774097-1.610959H2.719801C2.873225-1.610959 2.894147-1.610959 2.894147-1.75741C2.894147-2.447821 2.517559-3.124284 1.645828-3.124284C.836862-3.124284 .195268-2.405978 .195268-1.534247C.195268-.599751 .927522 .076712 1.729514 .076712C2.580324 .076712 2.894147-.697385 2.894147-.829888ZM2.433873-1.75741H.781071C.822914-2.796513 1.408717-2.970859 1.645828-2.970859C2.364134-2.970859 2.433873-2.02939 2.433873-1.75741Z'/>
<path id='g0-71' d='M2.489664-4.428394C2.489664-4.686426 2.231631-4.916563 1.862017-4.916563C1.373848-4.916563 .781071-4.546949 .781071-3.807721V-3.005729H.230137V-2.789539H.781071V-.530012C.781071-.216189 .704359-.216189 .237111-.216189V0L1.03213-.020922C1.311083-.020922 1.638854-.020922 1.917808 0V-.216189H1.771357C1.255293-.216189 1.241345-.292902 1.241345-.54396V-2.789539H2.036364V-3.005729H1.220423V-3.814695C1.220423-4.428394 1.555168-4.763138 1.862017-4.763138C1.882939-4.763138 1.987547-4.763138 2.092154-4.714321C2.008468-4.686426 1.882939-4.595766 1.882939-4.42142C1.882939-4.261021 1.994521-4.121544 2.182814-4.121544C2.385056-4.121544 2.489664-4.261021 2.489664-4.428394Z'/>
<path id='g0-1889' d='M6.569365-1.743462C6.569365-1.785305 6.541469-1.820174 6.5066-1.834122C6.109091-1.966625 5.802242-2.245579 5.551183-2.559402C5.355915-2.810461 5.209465-3.11731 5.1467-3.445081C5.132752-3.507846 5.076961-3.556663 5.007223-3.556663C4.930511-3.556663 4.867746-3.493898 4.867746-3.417186C4.867746-3.410212 4.87472-3.396264 4.87472-3.38929C4.944458-3.019676 5.104857-2.677958 5.334994-2.385056C5.488418-2.189788 5.669738-2.022416 5.878954-1.882939H1.094894C1.30411-2.022416 1.48543-2.189788 1.638854-2.385056C1.868991-2.677958 2.02939-3.019676 2.099128-3.38929C2.099128-3.396264 2.106102-3.410212 2.106102-3.417186C2.106102-3.493898 2.043337-3.556663 1.966625-3.556663C1.896887-3.556663 1.841096-3.507846 1.827148-3.445081C1.764384-3.11731 1.617933-2.810461 1.422665-2.559402C1.171606-2.245579 .864757-1.966625 .467248-1.834122C.432379-1.820174 .404483-1.785305 .404483-1.743462S.432379-1.66675 .467248-1.652802C.864757-1.520299 1.171606-1.241345 1.422665-.927522C1.617933-.676463 1.764384-.369614 1.827148-.041843C1.841096 .020922 1.896887 .069738 1.966625 .069738C2.043337 .069738 2.106102 .006974 2.106102-.069738C2.106102-.076712 2.099128-.09066 2.099128-.097634C2.02939-.467248 1.868991-.808966 1.638854-1.101868C1.48543-1.297136 1.30411-1.464508 1.094894-1.603985H5.878954C5.669738-1.464508 5.488418-1.297136 5.334994-1.101868C5.104857-.808966 4.944458-.467248 4.87472-.097634C4.87472-.09066 4.867746-.076712 4.867746-.069738C4.867746 .006974 4.930511 .069738 5.007223 .069738C5.076961 .069738 5.132752 .020922 5.1467-.041843C5.209465-.369614 5.355915-.676463 5.551183-.927522C5.802242-1.241345 6.109091-1.520299 6.5066-1.652802C6.541469-1.66675 6.569365-1.701619 6.569365-1.743462Z'/>
<path id='g0-2734' d='M4.323786-1.066999V-2.419925C4.323786-2.496638 4.261021-2.559402 4.184309-2.559402H.467248C.390535-2.559402 .327771-2.496638 .327771-2.419925S.390535-2.280448 .467248-2.280448H4.044832V-1.066999C4.044832-.990286 4.107597-.927522 4.184309-.927522S4.323786-.990286 4.323786-1.066999Z'/>
<path id='g0-2782' d='M4.323786-4.574844C4.393524-4.749191 4.142466-4.853798 4.065753-4.686426L3.38929-3.054545H1.255293L.571856-4.686426C.502117-4.853798 .244085-4.749191 .320797-4.574844L1.03213-2.866252V-2.859278L2.182814-.111582C2.231631 .013948 2.405978 .013948 2.461768-.111582L3.605479-2.859278L3.612453-2.866252L4.323786-4.574844ZM3.270735-2.775592L2.322291-.502117L1.373848-2.775592H3.270735Z'/>
<path id='g0-2784' d='M3.486924-.139477V-4.630635C3.486924-4.707347 3.424159-4.770112 3.347447-4.770112H.530012C.4533-4.770112 .390535-4.707347 .390535-4.630635S.4533-4.491158 .530012-4.491158H3.20797V-2.524533H.530012C.4533-2.524533 .390535-2.461768 .390535-2.385056S.4533-2.245579 .530012-2.245579H3.20797V-.278954H.530012C.4533-.278954 .390535-.216189 .390535-.139477S.4533 0 .530012 0H3.347447C3.424159 0 3.486924-.062765 3.486924-.139477Z'/>
<path id='g1-27' d='M6.356164 0L3.755915-6.914072H2.879203L.278954 0H1.016189L1.783313-2.032379H4.682441L5.439601 0H6.356164ZM4.463263-2.590286H1.992528C2.500623-4.014944 2.132005-2.968867 2.6401-4.393524C2.849315-4.98132 3.158157-5.828144 3.227895-6.196762H3.237858C3.257783-6.057285 3.327522-5.808219 3.556663-5.150685L4.463263-2.590286Z'/>
<path id='g1-116' d='M4.582814 0L2.590286-2.281445L4.41345-4.423412H3.596513L2.261519-2.779577L.886675-4.423412H.059776L1.932752-2.281445L0 0H.816936L2.261519-1.872976L3.755915 0H4.582814Z'/>
<use id='g2-37' xlink:href='#g0-37' transform='scale(1.428571)'/>
<use id='g2-47' xlink:href='#g0-47' transform='scale(1.428571)'/>
<use id='g2-70' xlink:href='#g0-70' transform='scale(1.428571)'/>
<use id='g2-71' xlink:href='#g0-71' transform='scale(1.428571)'/>
<use id='g2-1889' xlink:href='#g0-1889' transform='scale(1.428571)'/>
<use id='g2-2734' xlink:href='#g0-2734' transform='scale(1.428571)'/>
<use id='g2-2782' xlink:href='#g0-2782' transform='scale(1.428571)'/>
<use id='g2-2784' xlink:href='#g0-2784' transform='scale(1.428571)'/>
</defs>
<g id='page1' transform='matrix(1.5 0 0 1.5 0 0)'>
<g fill='#aaa7b3'>
<use x='-8.558588' y='17.742745' xlink:href='#g2-2734'/>
<use x='-1.913509' y='17.742745' xlink:href='#g2-2782'/>
<use x='4.721613' y='17.742745' xlink:href='#g1-116'/>
<use x='9.31439' y='17.742745' xlink:href='#g1-27'/>
<use x='47.172423' y='17.742745' xlink:href='#g2-2734'/>
<use x='53.817502' y='17.742745' xlink:href='#g2-2782'/>
<use x='60.452624' y='17.742745' xlink:href='#g1-116'/>
<use x='66.705984' y='17.742745' xlink:href='#g2-2734'/>
<use x='73.351063' y='17.742745' xlink:href='#g2-2734'/>
<use x='79.996142' y='17.742745' xlink:href='#g1-27'/>
<use x='111.886547' y='17.742745' xlink:href='#g2-37'/>
<use x='119.498004' y='17.742745' xlink:href='#g2-47'/>
<use x='27.914638' y='17.742745' xlink:href='#g2-1889'/>
<use x='47.172423' y='33.682969' xlink:href='#g2-2784'/>
<use x='52.711648' y='33.682969' xlink:href='#g1-116'/>
<use x='58.965008' y='33.682969' xlink:href='#g2-2734'/>
<use x='65.610087' y='33.682969' xlink:href='#g1-27'/>
<use x='111.886547' y='33.682969' xlink:href='#g2-37'/>
<use x='119.498004' y='33.682969' xlink:href='#g2-70'/>
<use x='123.921418' y='33.682969' xlink:href='#g2-71'/>
<use x='126.969984' y='36.144001' xlink:href='#g0-2784'/>
<use x='27.914638' y='33.682969' xlink:href='#g2-1889'/>
<use x='-8.558588' y='60.582098' xlink:href='#g2-2782'/>
<use x='-1.923466' y='60.582098' xlink:href='#g1-116'/>
<use x='2.669311' y='60.582098' xlink:href='#g1-27'/>
<use x='47.172423' y='60.582098' xlink:href='#g2-2734'/>
<use x='53.817502' y='60.582098' xlink:href='#g2-2734'/>
<use x='60.462581' y='60.582098' xlink:href='#g2-2782'/>
<use x='67.097703' y='60.582098' xlink:href='#g1-116'/>
<use x='73.351063' y='60.582098' xlink:href='#g2-2734'/>
<use x='79.996142' y='60.582098' xlink:href='#g2-2734'/>
<use x='86.641221' y='60.582098' xlink:href='#g1-27'/>
<use x='111.886547' y='60.582098' xlink:href='#g2-37'/>
<use x='119.498004' y='60.582098' xlink:href='#g2-47'/>
<use x='27.914638' y='60.582098' xlink:href='#g2-1889'/>
<use x='47.172423' y='76.522322' xlink:href='#g2-2734'/>
<use x='53.817502' y='76.522322' xlink:href='#g2-2784'/>
<use x='59.356727' y='76.522322' xlink:href='#g1-116'/>
<use x='65.610087' y='76.522322' xlink:href='#g2-2734'/>
<use x='72.255166' y='76.522322' xlink:href='#g1-27'/>
<use x='111.886547' y='76.522322' xlink:href='#g2-37'/>
<use x='119.498004' y='76.522322' xlink:href='#g2-70'/>
<use x='123.921418' y='76.522322' xlink:href='#g2-71'/>
<use x='126.969984' y='78.983353' xlink:href='#g0-2784'/>
<use x='27.914638' y='76.522322' xlink:href='#g2-1889'/>
<use x='-8.558588' y='103.42145' xlink:href='#g2-2782'/>
<use x='-1.923466' y='103.42145' xlink:href='#g1-116'/>
<use x='4.329893' y='103.42145' xlink:href='#g2-2734'/>
<use x='10.974972' y='103.42145' xlink:href='#g1-27'/>
<use x='48.833005' y='103.42145' xlink:href='#g2-2734'/>
<use x='55.478084' y='103.42145' xlink:href='#g2-2734'/>
<use x='62.123163' y='103.42145' xlink:href='#g2-2782'/>
<use x='68.758285' y='103.42145' xlink:href='#g1-116'/>
<use x='75.011645' y='103.42145' xlink:href='#g2-2734'/>
<use x='81.656724' y='103.42145' xlink:href='#g1-27'/>
<use x='113.547129' y='103.42145' xlink:href='#g2-37'/>
<use x='121.158586' y='103.42145' xlink:href='#g2-47'/>
<use x='29.57522' y='103.42145' xlink:href='#g2-1889'/>
<use x='48.833005' y='119.361674' xlink:href='#g2-2734'/>
<use x='55.478084' y='119.361674' xlink:href='#g2-2784'/>
<use x='61.017309' y='119.361674' xlink:href='#g1-116'/>
<use x='65.610087' y='119.361674' xlink:href='#g1-27'/>
<use x='113.547129' y='119.361674' xlink:href='#g2-37'/>
<use x='121.158586' y='119.361674' xlink:href='#g2-70'/>
<use x='125.582' y='119.361674' xlink:href='#g2-71'/>
<use x='128.630566' y='121.822706' xlink:href='#g0-2784'/>
<use x='29.57522' y='119.361674' xlink:href='#g2-1889'/>
</g>
</g>
</svg>