<?xml version='1.0' encoding='UTF-8'?>
<!-- This file was generated by dvisvgm 2.13.3 -->
<svg version='1.1' xmlns='http://www.w3.org/2000/svg' xmlns:xlink='http://www.w3.org/1999/xlink' width='57.289207pt' height='10.520548pt' viewBox='-21.804259 15.645306 57.289207 10.520548'>
<defs>
<path id='g1-1858' d='M9.39477-2.49066C9.39477-2.550436 9.354919-2.600249 9.305106-2.620174C8.737235-2.809465 8.298879-3.20797 7.940224-3.656289C7.66127-4.014944 7.452055-4.4533 7.362391-4.921544C7.342466-5.011208 7.262765-5.080946 7.163138-5.080946C7.053549-5.080946 6.963885-4.991283 6.963885-4.881694C6.963885-4.871731 6.973848-4.851806 6.973848-4.841843C7.073474-4.313823 7.302615-3.825654 7.631382-3.407223C7.85056-3.128269 8.109589-2.889166 8.408468-2.689913H.777086C.667497-2.689913 .577833-2.600249 .577833-2.49066S.667497-2.291407 .777086-2.291407H8.408468C8.109589-2.092154 7.85056-1.853051 7.631382-1.574097C7.302615-1.155666 7.073474-.667497 6.973848-.139477C6.973848-.129514 6.963885-.109589 6.963885-.099626C6.963885 .009963 7.053549 .099626 7.163138 .099626C7.262765 .099626 7.342466 .029888 7.362391-.059776C7.452055-.52802 7.66127-.966376 7.940224-1.325031C8.298879-1.77335 8.737235-2.171856 9.305106-2.361146C9.354919-2.381071 9.39477-2.430884 9.39477-2.49066Z'/>
<path id='g0-27' d='M6.356164 0L3.755915-6.914072H2.879203L.278954 0H1.016189L1.783313-2.032379H4.682441L5.439601 0H6.356164ZM4.463263-2.590286H1.992528C2.500623-4.014944 2.132005-2.968867 2.6401-4.393524C2.849315-4.98132 3.158157-5.828144 3.227895-6.196762H3.237858C3.257783-6.057285 3.327522-5.808219 3.556663-5.150685L4.463263-2.590286Z'/>
<path id='g0-34' d='M6.07721-1.872976C6.07721-2.739726 5.210461-3.447073 4.154421-3.616438C5.061021-3.845579 5.808219-4.423412 5.808219-5.180573C5.808219-6.097136 4.742217-6.914072 3.327522-6.914072H.966376V0H3.596513C5.031133 0 6.07721-.896638 6.07721-1.872976ZM5.031133-5.17061C5.031133-4.572852 4.323786-3.895392 2.948941-3.895392H1.793275V-6.356164H3.048568C4.154421-6.356164 5.031133-5.828144 5.031133-5.17061ZM5.270237-1.882939C5.270237-1.135741 4.393524-.557908 3.317559-.557908H1.793275V-3.287671H3.237858C4.293898-3.287671 5.270237-2.67995 5.270237-1.882939Z'/>
<path id='g0-499' d='M1.793275-4.841843V-5.668742H1.544209L1.793275-6.914072H1.384807L.966376-5.65878V-4.841843H1.793275ZM3.726027-4.841843V-5.668742H3.476961L3.726027-6.914072H3.317559L2.899128-5.65878V-4.841843H3.726027Z'/>
<path id='g0-500' d='M1.803238-6.097136V-6.914072H.976339V-6.087173H1.225405L.976339-4.841843H1.384807L1.803238-6.097136ZM3.73599-6.097136V-6.914072H2.909091V-6.087173H3.158157L2.909091-4.841843H3.317559L3.73599-6.097136Z'/>
</defs>
<g id='page1' transform='matrix(1.5 0 0 1.5 0 0)'>
<g fill='#aaa7b3'>
<use x='-14.536172' y='17.344276' xlink:href='#g0-499'/>
<use x='-11.494387' y='17.344276' xlink:href='#g0-27'/>
<use x='-2.081671' y='17.344276' xlink:href='#g1-1858'/>
<use x='10.648605' y='17.344276' xlink:href='#g0-34'/>
<use x='18.954266' y='17.344276' xlink:href='#g0-500'/>
</g>
</g>
</svg>