<?xml version='1.0' encoding='UTF-8'?>
<!-- This file was generated by dvisvgm 2.13.3 -->
<svg version='1.1' xmlns='http://www.w3.org/2000/svg' xmlns:xlink='http://www.w3.org/1999/xlink' width='22.415938pt' height='10.371108pt' viewBox='-21.804259 15.645306 22.415938 10.371108'>
<defs>
<path id='g1-2784' d='M4.98132-.199253V-6.615193C4.98132-6.724782 4.891656-6.814446 4.782067-6.814446H.757161C.647572-6.814446 .557908-6.724782 .557908-6.615193S.647572-6.41594 .757161-6.41594H4.582814V-3.606476H.757161C.647572-3.606476 .557908-3.516812 .557908-3.407223S.647572-3.20797 .757161-3.20797H4.582814V-.398506H.757161C.647572-.398506 .557908-.308842 .557908-.199253S.647572 0 .757161 0H4.782067C4.891656 0 4.98132-.089664 4.98132-.199253Z'/>
<path id='g0-499' d='M1.793275-4.841843V-5.668742H1.544209L1.793275-6.914072H1.384807L.966376-5.65878V-4.841843H1.793275ZM3.726027-4.841843V-5.668742H3.476961L3.726027-6.914072H3.317559L2.899128-5.65878V-4.841843H3.726027Z'/>
<path id='g0-500' d='M1.803238-6.097136V-6.914072H.976339V-6.087173H1.225405L.976339-4.841843H1.384807L1.803238-6.097136ZM3.73599-6.097136V-6.914072H2.909091V-6.087173H3.158157L2.909091-4.841843H3.317559L3.73599-6.097136Z'/>
</defs>
<g id='page1' transform='matrix(1.5 0 0 1.5 0 0)'>
<g fill='#aaa7b3'>
<use x='-14.536172' y='17.344276' xlink:href='#g0-499'/>
<use x='-9.833805' y='17.344276' xlink:href='#g1-2784'/>
<use x='-4.29458' y='17.344276' xlink:href='#g0-500'/>
</g>
</g>
</svg>