<?xml version='1.0' encoding='UTF-8'?>
<!-- This file was generated by dvisvgm 2.13.3 -->
<svg version='1.1' xmlns='http://www.w3.org/2000/svg' xmlns:xlink='http://www.w3.org/1999/xlink' width='478.261704pt' height='14.94396pt' viewBox='-44.220199 47.685156 478.261704 14.94396'>
<defs>
<path id='g1-13' d='M2.022416-.009963C2.022416-.667497 1.77335-1.05604 1.384807-1.05604C1.05604-1.05604 .856787-.806974 .856787-.52802C.856787-.259029 1.05604 0 1.384807 0C1.504359 0 1.633873-.039851 1.733499-.129514C1.763387-.14944 1.783313-.159402 1.783313-.159402S1.803238-.14944 1.803238-.009963C1.803238 .727273 1.454545 1.325031 1.125778 1.653798C1.016189 1.763387 1.016189 1.783313 1.016189 1.8132C1.016189 1.882939 1.066002 1.92279 1.115816 1.92279C1.225405 1.92279 2.022416 1.155666 2.022416-.009963Z'/>
<path id='g1-92' d='M4.234122 2.371108C4.234122 2.30137 4.184309 2.251557 4.11457 2.251557C3.367372 2.251557 2.819427 1.763387 2.819427 1.24533V-1.24533C2.819427-1.823163 2.34122-2.281445 1.673724-2.49066C2.34122-2.699875 2.819427-3.158157 2.819427-3.73599V-6.22665C2.819427-6.744707 3.367372-7.232877 4.11457-7.232877C4.184309-7.232877 4.234122-7.28269 4.234122-7.352428S4.184309-7.47198 4.11457-7.47198C3.068493-7.47198 2.161893-6.953923 2.161893-6.22665V-3.73599C2.161893-3.158157 1.613948-2.610212 .86675-2.610212C.797011-2.610212 .747198-2.560399 .747198-2.49066S.797011-2.371108 .86675-2.371108C1.613948-2.371108 2.161893-1.823163 2.161893-1.24533V1.24533C2.161893 1.972603 3.068493 2.49066 4.11457 2.49066C4.184309 2.49066 4.234122 2.440847 4.234122 2.371108Z'/>
<path id='g1-94' d='M4.234122-2.49066C4.234122-2.560399 4.184309-2.610212 4.11457-2.610212C3.367372-2.610212 2.819427-3.158157 2.819427-3.73599V-6.22665C2.819427-6.953923 1.912827-7.47198 .86675-7.47198C.797011-7.47198 .747198-7.422167 .747198-7.352428S.797011-7.232877 .86675-7.232877C1.613948-7.232877 2.161893-6.744707 2.161893-6.22665V-3.73599C2.161893-3.158157 2.6401-2.699875 3.307597-2.49066C2.6401-2.281445 2.161893-1.823163 2.161893-1.24533V1.24533C2.161893 1.763387 1.613948 2.251557 .86675 2.251557C.797011 2.251557 .747198 2.30137 .747198 2.371108S.797011 2.49066 .86675 2.49066C1.912827 2.49066 2.819427 1.972603 2.819427 1.24533V-1.24533C2.819427-1.823163 3.367372-2.371108 4.11457-2.371108C4.184309-2.371108 4.234122-2.420922 4.234122-2.49066Z'/>
<path id='g1-2734' d='M6.176837-1.524284V-3.457036C6.176837-3.566625 6.087173-3.656289 5.977584-3.656289H.667497C.557908-3.656289 .468244-3.566625 .468244-3.457036S.557908-3.257783 .667497-3.257783H5.778331V-1.524284C5.778331-1.414695 5.867995-1.325031 5.977584-1.325031S6.176837-1.414695 6.176837-1.524284Z'/>
<path id='g1-2769' d='M5.947696-.079701L3.526775-5.858032C3.447073-6.03736 3.198007-6.03736 3.128269-5.858032L.707347-.079701C.597758 .169365 .966376 .318804 1.066002 .079701L3.327522-5.300125L5.579078 .079701C5.678705 .318804 6.047323 .169365 5.947696-.079701Z'/>
<path id='g0-28' d='M4.07472 0V-2.879203C4.07472-3.895392 3.347447-4.592777 2.430884-4.592777C1.783313-4.592777 1.334994-4.433375 .86675-4.164384L.926526-3.506849C1.444583-3.875467 1.942715-4.004981 2.430884-4.004981C2.899128-4.004981 3.297634-3.606476 3.297634-2.86924V-2.440847C1.803238-2.420922 .537983-2.002491 .537983-1.125778C.537983-.697385 .806974 .109589 1.673724 .109589C1.8132 .109589 2.749689 .089664 3.327522-.358655V0H4.07472ZM3.297634-1.315068C3.297634-1.125778 3.297634-.876712 2.958904-.687422C2.669988-.508095 2.291407-.498132 2.181818-.498132C1.703611-.498132 1.255293-.727273 1.255293-1.145704C1.255293-1.843088 2.86924-1.912827 3.297634-1.932752V-1.315068Z'/>
<path id='g0-43' d='M4.134496-.398506L4.07472-1.066002C3.566625-.667497 3.028643-.52802 2.520548-.52802C1.693649-.52802 1.135741-1.24533 1.135741-2.221669C1.135741-2.998755 1.504359-3.955168 2.560399-3.955168C3.078456-3.955168 3.417186-3.875467 3.965131-3.516812L4.084682-4.164384C3.496887-4.503113 3.158157-4.592777 2.550436-4.592777C1.165629-4.592777 .358655-3.387298 .358655-2.211706C.358655-.976339 1.265255 .109589 2.510585 .109589C3.048568 .109589 3.596513-.029888 4.134496-.398506Z'/>
<path id='g0-50' d='M4.124533-2.181818C4.124533-2.520548 4.11457-3.267746 3.726027-3.865504C3.317559-4.483188 2.709838-4.592777 2.351183-4.592777C1.24533-4.592777 .348692-3.536737 .348692-2.251557C.348692-.936488 1.305106 .109589 2.500623 .109589C3.128269 .109589 3.696139-.129514 4.084682-.408468L4.024907-1.05604C3.39726-.537983 2.739726-.498132 2.510585-.498132C1.713574-.498132 1.075965-1.205479 1.046077-2.181818H4.124533ZM3.556663-2.729763H1.09589C1.255293-3.486924 1.783313-3.985056 2.351183-3.985056C2.86924-3.985056 3.427148-3.646326 3.556663-2.729763Z'/>
<path id='g0-55' d='M3.457036-6.246575V-6.914072C3.337484-6.94396 3.028643-7.023661 2.660025-7.023661C1.723537-7.023661 1.006227-6.316314 1.006227-5.32005V-4.423412H.268991V-3.845579H1.006227V0H1.753425V-3.845579H2.849315V-4.423412H1.723537V-5.608966C1.723537-6.346202 2.391034-6.41594 2.650062-6.41594C2.849315-6.41594 3.118306-6.396015 3.457036-6.246575Z'/>
<path id='g0-59' d='M4.83188-3.905355L4.722291-4.533001C4.024907-4.533001 3.447073-4.343711 3.148194-4.214197C2.938979-4.383562 2.600249-4.533001 2.201743-4.533001C1.344956-4.533001 .617684-3.815691 .617684-2.909091C.617684-2.540473 .747198-2.181818 .946451-1.92279C.657534-1.514321 .657534-1.125778 .657534-1.075965C.657534-.816936 .747198-.52802 .916563-.318804C.398506-.009963 .278954 .448319 .278954 .707347C.278954 1.454545 1.265255 2.052304 2.480697 2.052304C3.706102 2.052304 4.692403 1.464508 4.692403 .697385C4.692403-.687422 3.028643-.687422 2.6401-.687422H1.763387C1.633873-.687422 1.185554-.687422 1.185554-1.215442C1.185554-1.325031 1.225405-1.484433 1.295143-1.574097C1.504359-1.424658 1.833126-1.285181 2.201743-1.285181C3.098381-1.285181 3.795766-2.022416 3.795766-2.909091C3.795766-3.387298 3.576588-3.755915 3.466999-3.905355L3.506849-3.895392C3.726027-3.895392 4.004981-3.935243 4.244085-3.935243C4.423412-3.935243 4.83188-3.905355 4.83188-3.905355ZM3.098381-2.909091C3.098381-2.132005 2.630137-1.853051 2.201743-1.853051C1.833126-1.853051 1.315068-2.082192 1.315068-2.909091S1.833126-3.965131 2.201743-3.965131C2.630137-3.965131 3.098381-3.686177 3.098381-2.909091ZM3.995019 .71731C3.995019 1.155666 3.307597 1.484433 2.49066 1.484433C1.683686 1.484433 .976339 1.175592 .976339 .707347C.976339 .67746 .976339 .029888 1.753425 .029888H2.650062C2.86924 .029888 3.995019 .029888 3.995019 .71731Z'/>
<path id='g0-63' d='M4.333748 0V-2.968867C4.333748-3.626401 4.184309-4.533001 2.968867-4.533001C2.351183-4.533001 1.872976-4.224159 1.554172-3.815691V-6.914072H.806974V0H1.58406V-2.440847C1.58406-3.098381 1.833126-3.92528 2.590286-3.92528C3.5467-3.92528 3.556663-3.217933 3.556663-2.899128V0H4.333748Z'/>
<path id='g0-66' d='M1.554172 0V-4.423412H.806974V0H1.554172ZM1.633873-5.638854V-6.525529H.747198V-5.638854H1.633873Z'/>
<path id='g0-72' d='M1.554172 0V-6.914072H.806974V0H1.554172Z'/>
<path id='g0-75' d='M7.103362 0V-2.968867C7.103362-3.636364 6.94396-4.533001 5.738481-4.533001C5.140722-4.533001 4.622665-4.254047 4.254047-3.716065C3.995019-4.473225 3.297634-4.533001 2.978829-4.533001C2.261519-4.533001 1.793275-4.124533 1.524284-3.765878V-4.483188H.806974V0H1.58406V-2.440847C1.58406-3.118306 1.853051-3.92528 2.590286-3.92528C3.516812-3.92528 3.566625-3.277709 3.566625-2.899128V0H4.343711V-2.440847C4.343711-3.118306 4.612702-3.92528 5.349938-3.92528C6.276463-3.92528 6.326276-3.277709 6.326276-2.899128V0H7.103362Z'/>
<path id='g0-77' d='M4.333748 0V-2.968867C4.333748-3.626401 4.184309-4.533001 2.968867-4.533001C2.072229-4.533001 1.58406-3.855542 1.524284-3.775841V-4.483188H.806974V0H1.58406V-2.440847C1.58406-3.098381 1.833126-3.92528 2.590286-3.92528C3.5467-3.92528 3.556663-3.217933 3.556663-2.899128V0H4.333748Z'/>
<path id='g0-81' d='M4.672478-2.191781C4.672478-3.526775 3.676214-4.592777 2.49066-4.592777C1.265255-4.592777 .298879-3.496887 .298879-2.191781C.298879-.876712 1.315068 .109589 2.480697 .109589C3.676214 .109589 4.672478-.896638 4.672478-2.191781ZM3.895392-2.291407C3.895392-1.115816 3.217933-.52802 2.480697-.52802C1.793275-.52802 1.075965-1.085928 1.075965-2.291407S1.833126-3.985056 2.480697-3.985056C3.178082-3.985056 3.895392-3.466999 3.895392-2.291407Z'/>
<path id='g0-84' d='M4.782067-2.221669C4.782067-3.417186 4.154421-4.533001 3.198007-4.533001C2.600249-4.533001 2.022416-4.323786 1.564134-3.935243V-4.423412H.816936V1.932752H1.594022V-.458281C1.902864-.169365 2.34122 .109589 2.938979 .109589C3.905355 .109589 4.782067-.86675 4.782067-2.221669ZM4.004981-2.221669C4.004981-1.195517 3.297634-.498132 2.550436-.498132C2.161893-.498132 1.892902-.697385 1.693649-.966376C1.594022-1.115816 1.594022-1.135741 1.594022-1.315068V-3.317559C1.833126-3.666252 2.221669-3.895392 2.650062-3.895392C3.407223-3.895392 4.004981-3.138232 4.004981-2.221669Z'/>
<path id='g0-85' d='M3.307597 2.49066C2.82939 2.012453 1.564134 .727273 1.564134-2.49066C1.564134-3.048568 1.594022-4.214197 2.002491-5.389788C2.410959-6.545455 2.978829-7.143213 3.307597-7.47198H2.699875C2.381071-7.173101 1.713574-6.56538 1.255293-5.339975C.856787-4.273973 .787049-3.217933 .787049-2.49066C.787049 .727273 2.221669 2.052304 2.699875 2.49066H3.307597Z'/>
<path id='g0-86' d='M3.078456-2.49066C3.078456-5.708593 1.643836-7.033624 1.165629-7.47198H.557908C1.036115-6.993773 2.30137-5.708593 2.30137-2.49066C2.30137-1.932752 2.271482-.767123 1.863014 .408468C1.454545 1.564134 .886675 2.161893 .557908 2.49066H1.165629C1.484433 2.191781 2.15193 1.58406 2.610212 .358655C3.008717-.707347 3.078456-1.763387 3.078456-2.49066Z'/>
<path id='g0-88' d='M1.793275 0V-.826899H.966376V0H1.793275Z'/>
<path id='g0-96' d='M3.257783-3.865504V-4.533001C2.371108-4.523039 1.823163-4.034869 1.514321-3.576588V-4.483188H.816936V0H1.564134V-2.132005C1.564134-3.128269 2.281445-3.845579 3.257783-3.865504Z'/>
<path id='g0-98' d='M3.58655-1.275218C3.58655-1.823163 3.217933-2.161893 3.198007-2.191781C2.809465-2.540473 2.540473-2.600249 2.042341-2.689913C1.494396-2.799502 1.036115-2.899128 1.036115-3.387298C1.036115-4.004981 1.753425-4.004981 1.882939-4.004981C2.201743-4.004981 2.729763-3.965131 3.297634-3.626401L3.417186-4.273973C2.899128-4.513076 2.49066-4.592777 1.982565-4.592777C1.733499-4.592777 .328767-4.592777 .328767-3.287671C.328767-2.799502 .617684-2.480697 .86675-2.291407C1.175592-2.072229 1.39477-2.032379 1.942715-1.92279C2.30137-1.853051 2.879203-1.733499 2.879203-1.205479C2.879203-.518057 2.092154-.518057 1.942715-.518057C1.135741-.518057 .577833-.886675 .398506-1.006227L.278954-.328767C.597758-.169365 1.145704 .109589 1.952677 .109589C2.132005 .109589 2.67995 .109589 3.108344-.209215C3.417186-.448319 3.58655-.846824 3.58655-1.275218Z'/>
<path id='g0-101' d='M4.552927-2.211706C4.552927-3.486924 3.895392-4.60274 2.938979-4.60274C2.620174-4.60274 1.863014-4.523039 1.255293-3.775841C1.384807-5.379826 2.171856-6.176837 3.088418-6.176837C3.466999-6.176837 3.785803-6.107098 4.134496-5.967621V-6.555417C3.626401-6.75467 3.217933-6.75467 3.078456-6.75467C1.673724-6.75467 .418431-5.349938 .418431-3.20797C.418431-.388543 1.653798 .219178 2.500623 .219178C3.098381 .219178 3.526775-.009963 3.915318-.458281C4.363636-.966376 4.552927-1.424658 4.552927-2.211706ZM3.73599-2.211706C3.73599-1.872976 3.73599-1.414695 3.496887-1.006227C3.327522-.727273 3.068493-.388543 2.500623-.388543C1.444583-.388543 1.295143-1.853051 1.265255-2.181818C1.265255-2.321295 1.265255-2.34122 1.275218-2.460772C1.275218-3.198007 1.723537-3.995019 2.550436-3.995019C3.028643-3.995019 3.307597-3.745953 3.506849-3.377335C3.716065-3.008717 3.73599-2.660025 3.73599-2.211706Z'/>
<path id='g0-104' d='M6.41594-6.206725V-6.854296H.358655V-6.206725H1.693649C1.8132-6.206725 1.932752-6.216687 2.052304-6.216687H2.948941V0H3.835616V-6.216687H4.722291C4.841843-6.216687 4.961395-6.206725 5.080946-6.206725H6.41594Z'/>
<path id='g0-105' d='M3.307597-.268991L3.148194-.856787C2.889166-.647572 2.570361-.52802 2.251557-.52802C1.882939-.52802 1.743462-.826899 1.743462-1.354919V-3.845579H3.148194V-4.423412H1.743462V-5.688667H1.05604V-4.423412H.18929V-3.845579H1.026152V-1.185554C1.026152-.587796 1.165629 .109589 1.853051 .109589C2.550436 .109589 3.058531-.139477 3.307597-.268991Z'/>
<path id='g0-109' d='M4.333748 0V-4.423412H3.556663V-1.534247C3.556663-.787049 2.998755-.438356 2.361146-.438356C1.653798-.438356 1.58406-.697385 1.58406-1.125778V-4.423412H.806974V-1.085928C.806974-.368618 1.036115 .109589 1.863014 .109589C2.391034 .109589 3.098381-.049813 3.58655-.478207V0H4.333748Z'/>
<path id='g0-118' d='M4.443337-4.423412H3.696139C2.400996-1.255293 2.381071-.797011 2.371108-.56787H2.361146C2.30137-1.235367 1.504359-3.088418 1.464508-3.178082L.926526-4.423412H.139477L2.072229 0L1.713574 .896638C1.454545 1.474471 1.285181 1.474471 1.145704 1.474471C.986301 1.474471 .667497 1.43462 .368618 1.315068L.428394 1.96264C.647572 2.012453 .926526 2.042341 1.145704 2.042341C1.494396 2.042341 1.863014 1.92279 2.271482 .9066L4.443337-4.423412Z'/>
</defs>
<g id='page1' transform='matrix(1.5 0 0 1.5 0 0)'>
<g fill='#aaa7b3'>
<use x='-29.480132' y='39.262084' xlink:href='#g0-85'/>
<use x='-25.604666' y='39.262084' xlink:href='#g0-101'/>
<use x='-20.623346' y='39.262084' xlink:href='#g0-86'/>
<use x='29.199766' y='39.262084' xlink:href='#g0-104'/>
<use x='35.984321' y='39.262084' xlink:href='#g0-63'/>
<use x='41.135005' y='39.262084' xlink:href='#g0-50'/>
<use x='48.87598' y='39.262084' xlink:href='#g0-98'/>
<use x='52.691673' y='39.262084' xlink:href='#g0-50'/>
<use x='57.115088' y='39.262084' xlink:href='#g0-105'/>
<use x='64.029162' y='39.262084' xlink:href='#g1-92'/>
<use x='69.010483' y='39.262084' xlink:href='#g1-2734'/>
<use x='75.655562' y='39.262084' xlink:href='#g1-13'/>
<use x='80.085756' y='39.262084' xlink:href='#g1-2769'/>
<use x='86.730835' y='39.262084' xlink:href='#g1-94'/>
<use x='95.029716' y='39.262084' xlink:href='#g0-66'/>
<use x='97.410787' y='39.262084' xlink:href='#g0-98'/>
<use x='104.544041' y='39.262084' xlink:href='#g0-55'/>
<use x='107.592606' y='39.262084' xlink:href='#g0-109'/>
<use x='112.743289' y='39.262084' xlink:href='#g0-77'/>
<use x='117.893972' y='39.262084' xlink:href='#g0-43'/>
<use x='122.317387' y='39.262084' xlink:href='#g0-105'/>
<use x='125.913901' y='39.262084' xlink:href='#g0-66'/>
<use x='128.294971' y='39.262084' xlink:href='#g0-81'/>
<use x='133.276291' y='39.262084' xlink:href='#g0-77'/>
<use x='138.426974' y='39.262084' xlink:href='#g0-28'/>
<use x='143.219017' y='39.262084' xlink:href='#g0-72'/>
<use x='145.600087' y='39.262084' xlink:href='#g0-72'/>
<use x='147.981158' y='39.262084' xlink:href='#g0-118'/>
<use x='155.891496' y='39.262084' xlink:href='#g0-43'/>
<use x='160.314911' y='39.262084' xlink:href='#g0-81'/>
<use x='165.296231' y='39.262084' xlink:href='#g0-75'/>
<use x='173.20657' y='39.262084' xlink:href='#g0-84'/>
<use x='178.357253' y='39.262084' xlink:href='#g0-72'/>
<use x='180.738323' y='39.262084' xlink:href='#g0-50'/>
<use x='185.161738' y='39.262084' xlink:href='#g0-105'/>
<use x='188.758252' y='39.262084' xlink:href='#g0-50'/>
<use x='196.499227' y='39.262084' xlink:href='#g0-55'/>
<use x='199.547793' y='39.262084' xlink:href='#g0-81'/>
<use x='204.25016' y='39.262084' xlink:href='#g0-96'/>
<use x='210.974942' y='39.262084' xlink:href='#g0-84'/>
<use x='215.846672' y='39.262084' xlink:href='#g0-96'/>
<use x='219.253893' y='39.262084' xlink:href='#g0-81'/>
<use x='224.235214' y='39.262084' xlink:href='#g0-84'/>
<use x='229.664849' y='39.262084' xlink:href='#g0-81'/>
<use x='234.646169' y='39.262084' xlink:href='#g0-98'/>
<use x='238.461862' y='39.262084' xlink:href='#g0-66'/>
<use x='240.842933' y='39.262084' xlink:href='#g0-105'/>
<use x='244.439446' y='39.262084' xlink:href='#g0-66'/>
<use x='246.820517' y='39.262084' xlink:href='#g0-81'/>
<use x='251.801837' y='39.262084' xlink:href='#g0-77'/>
<use x='256.952535' y='39.262084' xlink:href='#g0-28'/>
<use x='261.744563' y='39.262084' xlink:href='#g0-72'/>
<use x='267.443194' y='39.262084' xlink:href='#g0-72'/>
<use x='269.824264' y='39.262084' xlink:href='#g0-81'/>
<use x='274.805584' y='39.262084' xlink:href='#g0-59'/>
<use x='279.786904' y='39.262084' xlink:href='#g0-66'/>
<use x='282.167975' y='39.262084' xlink:href='#g0-43'/>
<use x='286.591389' y='39.262084' xlink:href='#g0-88'/>
</g>
</g>
</svg>