<?xml version='1.0' encoding='UTF-8'?>
<!-- This file was generated by dvisvgm 2.13.3 -->
<svg version='1.1' xmlns='http://www.w3.org/2000/svg' xmlns:xlink='http://www.w3.org/1999/xlink' width='312.74179pt' height='14.94396pt' viewBox='-44.220199 47.685156 312.74179 14.94396'>
<defs>
<path id='g1-9' d='M3.307597 2.371108C3.307597 2.34122 3.287671 2.311333 3.267746 2.291407C2.231631 1.514321 1.544209-.478207 1.544209-2.072229V-2.909091C1.544209-4.503113 2.231631-6.495641 3.267746-7.272727C3.287671-7.292653 3.307597-7.32254 3.307597-7.352428C3.307597-7.402242 3.257783-7.452055 3.20797-7.452055C3.188045-7.452055 3.16812-7.442092 3.148194-7.43213C2.052304-6.60523 1.006227-4.612702 1.006227-2.909091V-2.072229C1.006227-.368618 2.052304 1.62391 3.148194 2.450809C3.16812 2.460772 3.188045 2.470735 3.20797 2.470735C3.257783 2.470735 3.307597 2.420922 3.307597 2.371108Z'/>
<path id='g1-10' d='M2.86924-2.072229V-2.909091C2.86924-4.612702 1.823163-6.60523 .727273-7.43213C.707347-7.442092 .687422-7.452055 .667497-7.452055C.617684-7.452055 .56787-7.402242 .56787-7.352428C.56787-7.32254 .587796-7.292653 .607721-7.272727C1.643836-6.495641 2.331258-4.503113 2.331258-2.909091V-2.072229C2.331258-.478207 1.643836 1.514321 .607721 2.291407C.587796 2.311333 .56787 2.34122 .56787 2.371108C.56787 2.420922 .617684 2.470735 .667497 2.470735C.687422 2.470735 .707347 2.460772 .727273 2.450809C1.823163 1.62391 2.86924-.368618 2.86924-2.072229Z'/>
<path id='g1-30' d='M7.193026-3.457036C7.193026-3.566625 7.103362-3.656289 6.993773-3.656289H.757161C.647572-3.656289 .557908-3.566625 .557908-3.457036S.647572-3.257783 .757161-3.257783H6.993773C7.103362-3.257783 7.193026-3.347447 7.193026-3.457036ZM7.193026-1.524284C7.193026-1.633873 7.103362-1.723537 6.993773-1.723537H.757161C.647572-1.723537 .557908-1.633873 .557908-1.524284S.647572-1.325031 .757161-1.325031H6.993773C7.103362-1.325031 7.193026-1.414695 7.193026-1.524284Z'/>
<path id='g1-53' d='M6.824408-4.503113L6.635118-6.744707H.547945L.358655-4.503113H.607721C.747198-6.107098 .896638-6.435866 2.400996-6.435866C2.580324-6.435866 2.839352-6.435866 2.938979-6.41594C3.148194-6.37609 3.148194-6.266501 3.148194-6.03736V-.787049C3.148194-.448319 3.148194-.308842 2.102117-.308842H1.703611V0C2.11208-.029888 3.128269-.029888 3.58655-.029888S5.070984-.029888 5.479452 0V-.308842H5.080946C4.034869-.308842 4.034869-.448319 4.034869-.787049V-6.03736C4.034869-6.236613 4.034869-6.37609 4.214197-6.41594C4.323786-6.435866 4.592777-6.435866 4.782067-6.435866C6.286426-6.435866 6.435866-6.107098 6.575342-4.503113H6.824408Z'/>
<path id='g0-27' d='M6.356164 0L3.755915-6.914072H2.879203L.278954 0H1.016189L1.783313-2.032379H4.682441L5.439601 0H6.356164ZM4.463263-2.590286H1.992528C2.500623-4.014944 2.132005-2.968867 2.6401-4.393524C2.849315-4.98132 3.158157-5.828144 3.227895-6.196762H3.237858C3.257783-6.057285 3.327522-5.808219 3.556663-5.150685L4.463263-2.590286Z'/>
<path id='g0-66' d='M1.554172 0V-4.423412H.806974V0H1.554172ZM1.633873-5.638854V-6.525529H.747198V-5.638854H1.633873Z'/>
<path id='g0-85' d='M3.307597 2.49066C2.82939 2.012453 1.564134 .727273 1.564134-2.49066C1.564134-3.048568 1.594022-4.214197 2.002491-5.389788C2.410959-6.545455 2.978829-7.143213 3.307597-7.47198H2.699875C2.381071-7.173101 1.713574-6.56538 1.255293-5.339975C.856787-4.273973 .787049-3.217933 .787049-2.49066C.787049 .727273 2.221669 2.052304 2.699875 2.49066H3.307597Z'/>
<path id='g0-86' d='M3.078456-2.49066C3.078456-5.708593 1.643836-7.033624 1.165629-7.47198H.557908C1.036115-6.993773 2.30137-5.708593 2.30137-2.49066C2.30137-1.932752 2.271482-.767123 1.863014 .408468C1.454545 1.564134 .886675 2.161893 .557908 2.49066H1.165629C1.484433 2.191781 2.15193 1.58406 2.610212 .358655C3.008717-.707347 3.078456-1.763387 3.078456-2.49066Z'/>
<path id='g0-96' d='M3.257783-3.865504V-4.533001C2.371108-4.523039 1.823163-4.034869 1.514321-3.576588V-4.483188H.816936V0H1.564134V-2.132005C1.564134-3.128269 2.281445-3.845579 3.257783-3.865504Z'/>
<path id='g0-104' d='M6.41594-6.206725V-6.854296H.358655V-6.206725H1.693649C1.8132-6.206725 1.932752-6.216687 2.052304-6.216687H2.948941V0H3.835616V-6.216687H4.722291C4.841843-6.216687 4.961395-6.206725 5.080946-6.206725H6.41594Z'/>
<path id='g0-112' d='M4.443337-4.423412H3.696139L2.909091-2.351183C2.699875-1.803238 2.391034-.996264 2.311333-.52802H2.30137C2.241594-.886675 1.982565-1.574097 1.882939-1.843088L.916563-4.423412H.139477L1.853051 0H2.729763L4.443337-4.423412Z'/>
</defs>
<g id='page1' transform='matrix(1.5 0 0 1.5 0 0)'>
<g fill='#aaa7b3'>
<use x='-29.480132' y='39.262084' xlink:href='#g0-85'/>
<use x='-25.604666' y='39.262084' xlink:href='#g0-104'/>
<use x='-19.647012' y='39.262084' xlink:href='#g0-96'/>
<use x='-16.23979' y='39.262084' xlink:href='#g0-66'/>
<use x='-13.858705' y='39.262084' xlink:href='#g0-112'/>
<use x='-9.265927' y='39.262084' xlink:href='#g0-86'/>
<use x='139.546373' y='39.262084' xlink:href='#g0-112'/>
<use x='145.799732' y='39.262084' xlink:href='#g1-9'/>
<use x='148.014617' y='39.262084' xlink:href='#g0-27'/>
<use x='154.659696' y='39.262084' xlink:href='#g1-10'/>
<use x='161.302799' y='39.262084' xlink:href='#g1-30'/>
<use x='171.821368' y='39.262084' xlink:href='#g1-53'/>
</g>
</g>
</svg>