<?xml version='1.0' encoding='UTF-8'?>
<!-- This file was generated by dvisvgm 2.13.3 -->
<svg version='1.1' xmlns='http://www.w3.org/2000/svg' xmlns:xlink='http://www.w3.org/1999/xlink' width='403.517115pt' height='14.94396pt' viewBox='-44.220199 47.685156 403.517115 14.94396'>
<defs>
<path id='g1-9' d='M3.307597 2.371108C3.307597 2.34122 3.287671 2.311333 3.267746 2.291407C2.231631 1.514321 1.544209-.478207 1.544209-2.072229V-2.909091C1.544209-4.503113 2.231631-6.495641 3.267746-7.272727C3.287671-7.292653 3.307597-7.32254 3.307597-7.352428C3.307597-7.402242 3.257783-7.452055 3.20797-7.452055C3.188045-7.452055 3.16812-7.442092 3.148194-7.43213C2.052304-6.60523 1.006227-4.612702 1.006227-2.909091V-2.072229C1.006227-.368618 2.052304 1.62391 3.148194 2.450809C3.16812 2.460772 3.188045 2.470735 3.20797 2.470735C3.257783 2.470735 3.307597 2.420922 3.307597 2.371108Z'/>
<path id='g1-10' d='M2.86924-2.072229V-2.909091C2.86924-4.612702 1.823163-6.60523 .727273-7.43213C.707347-7.442092 .687422-7.452055 .667497-7.452055C.617684-7.452055 .56787-7.402242 .56787-7.352428C.56787-7.32254 .587796-7.292653 .607721-7.272727C1.643836-6.495641 2.331258-4.503113 2.331258-2.909091V-2.072229C2.331258-.478207 1.643836 1.514321 .607721 2.291407C.587796 2.311333 .56787 2.34122 .56787 2.371108C.56787 2.420922 .617684 2.470735 .667497 2.470735C.687422 2.470735 .707347 2.460772 .727273 2.450809C1.823163 1.62391 2.86924-.368618 2.86924-2.072229Z'/>
<path id='g1-17' d='M4.582814-3.188045C4.582814-3.985056 4.533001-4.782067 4.184309-5.519303C3.726027-6.475716 2.909091-6.635118 2.49066-6.635118C1.892902-6.635118 1.165629-6.37609 .757161-5.449564C.438356-4.762142 .388543-3.985056 .388543-3.188045C.388543-2.440847 .428394-1.544209 .836862-.787049C1.265255 .019925 1.992528 .219178 2.480697 .219178C3.01868 .219178 3.775841 .009963 4.214197-.936488C4.533001-1.62391 4.582814-2.400996 4.582814-3.188045ZM3.755915-3.307597C3.755915-2.560399 3.755915-1.882939 3.646326-1.24533C3.496887-.298879 2.929016 0 2.480697 0C2.092154 0 1.504359-.249066 1.325031-1.205479C1.215442-1.803238 1.215442-2.719801 1.215442-3.307597C1.215442-3.945205 1.215442-4.60274 1.295143-5.140722C1.484433-6.326276 2.231631-6.41594 2.480697-6.41594C2.809465-6.41594 3.466999-6.236613 3.656289-5.250311C3.755915-4.692403 3.755915-3.935243 3.755915-3.307597Z'/>
<path id='g1-18' d='M4.174346 0V-.308842H3.855542C2.958904-.308842 2.929016-.418431 2.929016-.787049V-6.37609C2.929016-6.615193 2.929016-6.635118 2.699875-6.635118C2.082192-5.997509 1.205479-5.997509 .886675-5.997509V-5.688667C1.085928-5.688667 1.673724-5.688667 2.191781-5.947696V-.787049C2.191781-.428394 2.161893-.308842 1.265255-.308842H.946451V0C1.295143-.029888 2.161893-.029888 2.560399-.029888S3.825654-.029888 4.174346 0Z'/>
<path id='g1-30' d='M7.193026-3.457036C7.193026-3.566625 7.103362-3.656289 6.993773-3.656289H.757161C.647572-3.656289 .557908-3.566625 .557908-3.457036S.647572-3.257783 .757161-3.257783H6.993773C7.103362-3.257783 7.193026-3.347447 7.193026-3.457036ZM7.193026-1.524284C7.193026-1.633873 7.103362-1.723537 6.993773-1.723537H.757161C.647572-1.723537 .557908-1.633873 .557908-1.524284S.647572-1.325031 .757161-1.325031H6.993773C7.103362-1.325031 7.193026-1.414695 7.193026-1.524284Z'/>
<path id='g1-1868' d='M4.782067-.587796C4.782067-.697385 4.692403-.787049 4.582814-.787049C4.562889-.787049 4.542964-.787049 4.523039-.777086C4.024907-.627646 3.576588-.358655 3.20797-.009963C3.008717 .18929 2.839352 .408468 2.689913 .637609V-6.804483C2.689913-6.914072 2.600249-7.003736 2.49066-7.003736S2.291407-6.914072 2.291407-6.804483V.637609C2.141968 .408468 1.972603 .18929 1.77335-.009963C1.404732-.358655 .956413-.627646 .458281-.777086C.438356-.787049 .418431-.787049 .398506-.787049C.288917-.787049 .199253-.697385 .199253-.587796C.199253-.498132 .259029-.428394 .33873-.398506C.777086-.268991 1.175592-.029888 1.494396 .278954C1.892902 .667497 2.231631 1.125778 2.361146 1.683686C2.371108 1.743462 2.430884 1.783313 2.49066 1.783313S2.610212 1.743462 2.620174 1.683686C2.749689 1.125778 3.088418 .667497 3.486924 .278954C3.805729-.029888 4.204234-.268991 4.64259-.398506C4.722291-.428394 4.782067-.498132 4.782067-.587796Z'/>
<path id='g0-27' d='M6.356164 0L3.755915-6.914072H2.879203L.278954 0H1.016189L1.783313-2.032379H4.682441L5.439601 0H6.356164ZM4.463263-2.590286H1.992528C2.500623-4.014944 2.132005-2.968867 2.6401-4.393524C2.849315-4.98132 3.158157-5.828144 3.227895-6.196762H3.237858C3.257783-6.057285 3.327522-5.808219 3.556663-5.150685L4.463263-2.590286Z'/>
<path id='g0-28' d='M4.07472 0V-2.879203C4.07472-3.895392 3.347447-4.592777 2.430884-4.592777C1.783313-4.592777 1.334994-4.433375 .86675-4.164384L.926526-3.506849C1.444583-3.875467 1.942715-4.004981 2.430884-4.004981C2.899128-4.004981 3.297634-3.606476 3.297634-2.86924V-2.440847C1.803238-2.420922 .537983-2.002491 .537983-1.125778C.537983-.697385 .806974 .109589 1.673724 .109589C1.8132 .109589 2.749689 .089664 3.327522-.358655V0H4.07472ZM3.297634-1.315068C3.297634-1.125778 3.297634-.876712 2.958904-.687422C2.669988-.508095 2.291407-.498132 2.181818-.498132C1.703611-.498132 1.255293-.727273 1.255293-1.145704C1.255293-1.843088 2.86924-1.912827 3.297634-1.932752V-1.315068Z'/>
<path id='g0-34' d='M6.07721-1.872976C6.07721-2.739726 5.210461-3.447073 4.154421-3.616438C5.061021-3.845579 5.808219-4.423412 5.808219-5.180573C5.808219-6.097136 4.742217-6.914072 3.327522-6.914072H.966376V0H3.596513C5.031133 0 6.07721-.896638 6.07721-1.872976ZM5.031133-5.17061C5.031133-4.572852 4.323786-3.895392 2.948941-3.895392H1.793275V-6.356164H3.048568C4.154421-6.356164 5.031133-5.828144 5.031133-5.17061ZM5.270237-1.882939C5.270237-1.135741 4.393524-.557908 3.317559-.557908H1.793275V-3.287671H3.237858C4.293898-3.287671 5.270237-2.67995 5.270237-1.882939Z'/>
<path id='g0-47' d='M4.323786 0V-6.914072H3.576588V-3.985056C3.048568-4.423412 2.49066-4.533001 2.122042-4.533001C1.135741-4.533001 .358655-3.496887 .358655-2.211706C.358655-.9066 1.125778 .109589 2.072229 .109589C2.400996 .109589 2.988792 .019925 3.5467-.518057V0H4.323786ZM3.5467-1.384807C3.5467-1.24533 3.536737-1.066002 3.217933-.777086C2.988792-.577833 2.739726-.498132 2.480697-.498132C1.863014-.498132 1.135741-.966376 1.135741-2.201743C1.135741-3.516812 1.992528-3.92528 2.580324-3.92528C3.028643-3.92528 3.327522-3.696139 3.5467-3.377335V-1.384807Z'/>
<path id='g0-51' d='M4.552927-1.793275C4.552927-2.699875 3.855542-3.307597 3.188045-3.536737C4.07472-3.825654 4.41345-4.483188 4.41345-5.011208C4.41345-5.947696 3.566625-6.75467 2.49066-6.75467C1.374844-6.75467 .557908-5.927771 .557908-5.011208C.557908-4.483188 .896638-3.825654 1.783313-3.536737C1.066002-3.287671 .418431-2.660025 .418431-1.793275C.418431-.707347 1.334994 .219178 2.480697 .219178C3.666252 .219178 4.552927-.737235 4.552927-1.793275ZM3.716065-5.011208C3.716065-4.293898 3.20797-3.835616 2.49066-3.835616C1.723537-3.835616 1.255293-4.323786 1.255293-5.011208S1.743462-6.176837 2.480697-6.176837C3.267746-6.176837 3.716065-5.65878 3.716065-5.011208ZM3.745953-1.803238C3.745953-.836862 3.128269-.388543 2.49066-.388543C1.803238-.388543 1.225405-.86675 1.225405-1.803238C1.225405-2.849315 1.942715-3.227895 2.480697-3.227895C3.058531-3.227895 3.745953-2.82939 3.745953-1.803238Z'/>
<path id='g0-66' d='M1.554172 0V-4.423412H.806974V0H1.554172ZM1.633873-5.638854V-6.525529H.747198V-5.638854H1.633873Z'/>
<path id='g0-77' d='M4.333748 0V-2.968867C4.333748-3.626401 4.184309-4.533001 2.968867-4.533001C2.072229-4.533001 1.58406-3.855542 1.524284-3.775841V-4.483188H.806974V0H1.58406V-2.440847C1.58406-3.098381 1.833126-3.92528 2.590286-3.92528C3.5467-3.92528 3.556663-3.217933 3.556663-2.899128V0H4.333748Z'/>
<path id='g0-85' d='M3.307597 2.49066C2.82939 2.012453 1.564134 .727273 1.564134-2.49066C1.564134-3.048568 1.594022-4.214197 2.002491-5.389788C2.410959-6.545455 2.978829-7.143213 3.307597-7.47198H2.699875C2.381071-7.173101 1.713574-6.56538 1.255293-5.339975C.856787-4.273973 .787049-3.217933 .787049-2.49066C.787049 .727273 2.221669 2.052304 2.699875 2.49066H3.307597Z'/>
<path id='g0-86' d='M3.078456-2.49066C3.078456-5.708593 1.643836-7.033624 1.165629-7.47198H.557908C1.036115-6.993773 2.30137-5.708593 2.30137-2.49066C2.30137-1.932752 2.271482-.767123 1.863014 .408468C1.454545 1.564134 .886675 2.161893 .557908 2.49066H1.165629C1.484433 2.191781 2.15193 1.58406 2.610212 .358655C3.008717-.707347 3.078456-1.763387 3.078456-2.49066Z'/>
<path id='g0-112' d='M4.443337-4.423412H3.696139L2.909091-2.351183C2.699875-1.803238 2.391034-.996264 2.311333-.52802H2.30137C2.241594-.886675 1.982565-1.574097 1.882939-1.843088L.916563-4.423412H.139477L1.853051 0H2.729763L4.443337-4.423412Z'/>
<path id='g0-122' d='M3.457036-6.246575V-6.914072C3.337484-6.94396 3.028643-7.023661 2.660025-7.023661C1.723537-7.023661 1.006227-6.316314 1.006227-5.32005V-4.423412H.268991V-3.845579H1.006227V0H1.753425V-3.845579H2.849315V-4.423412H1.723537V-5.608966C1.723537-6.346202 2.391034-6.41594 2.650062-6.41594C2.849315-6.41594 3.118306-6.396015 3.457036-6.246575ZM6.216687-6.246575V-6.914072C6.097136-6.94396 5.788294-7.023661 5.419676-7.023661C4.483188-7.023661 3.765878-6.316314 3.765878-5.32005V0H4.513076V-3.845579H5.608966V-4.423412H4.483188V-5.608966C4.483188-6.346202 5.150685-6.41594 5.409714-6.41594C5.608966-6.41594 5.877958-6.396015 6.216687-6.246575Z'/>
</defs>
<g id='page1' transform='matrix(1.5 0 0 1.5 0 0)'>
<g fill='#aaa7b3'>
<use x='-29.480132' y='39.262084' xlink:href='#g0-85'/>
<use x='-25.604666' y='39.262084' xlink:href='#g0-51'/>
<use x='-20.623346' y='39.262084' xlink:href='#g0-86'/>
<use x='79.029476' y='39.262084' xlink:href='#g0-112'/>
<use x='83.622253' y='39.262084' xlink:href='#g1-9'/>
<use x='85.837138' y='39.262084' xlink:href='#g0-27'/>
<use x='95.249853' y='39.262084' xlink:href='#g1-1868'/>
<use x='102.99881' y='39.262084' xlink:href='#g0-34'/>
<use x='109.643889' y='39.262084' xlink:href='#g1-10'/>
<use x='116.286992' y='39.262084' xlink:href='#g1-30'/>
<use x='126.805561' y='39.262084' xlink:href='#g1-18'/>
<use x='135.104442' y='39.262084' xlink:href='#g0-66'/>
<use x='137.485513' y='39.262084' xlink:href='#g0-122'/>
<use x='146.611295' y='39.262084' xlink:href='#g0-112'/>
<use x='151.204072' y='39.262084' xlink:href='#g1-9'/>
<use x='153.418957' y='39.262084' xlink:href='#g0-27'/>
<use x='160.064036' y='39.262084' xlink:href='#g1-10'/>
<use x='166.707139' y='39.262084' xlink:href='#g1-30'/>
<use x='177.225708' y='39.262084' xlink:href='#g1-17'/>
<use x='185.524589' y='39.262084' xlink:href='#g0-28'/>
<use x='190.316617' y='39.262084' xlink:href='#g0-77'/>
<use x='195.4673' y='39.262084' xlink:href='#g0-47'/>
<use x='203.935544' y='39.262084' xlink:href='#g0-112'/>
<use x='208.528322' y='39.262084' xlink:href='#g1-9'/>
<use x='210.743206' y='39.262084' xlink:href='#g0-34'/>
<use x='217.388285' y='39.262084' xlink:href='#g1-10'/>
<use x='224.031388' y='39.262084' xlink:href='#g1-30'/>
<use x='234.549957' y='39.262084' xlink:href='#g1-17'/>
</g>
</g>
</svg>