<?xml version='1.0' encoding='UTF-8'?>
<!-- This file was generated by dvisvgm 2.13.3 -->
<svg version='1.1' xmlns='http://www.w3.org/2000/svg' xmlns:xlink='http://www.w3.org/1999/xlink' width='942.131413pt' height='218.335221pt' viewBox='-48.34815 19.283846 942.131413 218.335221'>
<defs>
<path id='g1-27' d='M13.182688 0L7.78977-14.33979H5.971469L.578551 0H2.107577L3.698591-4.215154H9.711385L11.281736 0H13.182688ZM9.256809-5.372255H4.132504C5.186293-8.326996 4.42178-6.157431 5.475568-9.112172C5.909481-10.331261 6.550019-12.087575 6.694657-12.852088H6.715319C6.756644-12.562813 6.901282-12.04625 7.37652-10.682523L9.256809-5.372255Z'/>
<path id='g1-34' d='M12.604138-3.884554C12.604138-5.682193 10.806499-7.149232 8.616271-7.500495C10.496561-7.975733 12.04625-9.174159 12.04625-10.744511C12.04625-12.645463 9.83536-14.33979 6.901282-14.33979H2.004265V0H7.45917C10.434573 0 12.604138-1.859627 12.604138-3.884554ZM10.434573-10.723848C10.434573-9.484097 8.967534-8.079046 6.116106-8.079046H3.719254V-13.182688H6.322731C8.616271-13.182688 10.434573-12.087575 10.434573-10.723848ZM10.930474-3.905216C10.930474-2.355527 9.112172-1.157101 6.88062-1.157101H3.719254V-6.818632H6.715319C8.905547-6.818632 10.930474-5.558218 10.930474-3.905216Z'/>
<path id='g0-9' d='M6.859957 4.91768C6.859957 4.855692 6.818632 4.793705 6.777307 4.75238C4.628405 3.140703 3.202691-.991801 3.202691-4.297804V-6.033456C3.202691-9.33946 4.628405-13.471964 6.777307-15.08364C6.818632-15.124965 6.859957-15.186953 6.859957-15.248941C6.859957-15.352253 6.756644-15.455566 6.653332-15.455566C6.612007-15.455566 6.570682-15.434903 6.529357-15.414241C4.256479-13.699251 2.086915-9.566747 2.086915-6.033456V-4.297804C2.086915-.764513 4.256479 3.367991 6.529357 5.08298C6.570682 5.103643 6.612007 5.124305 6.653332 5.124305C6.756644 5.124305 6.859957 5.020993 6.859957 4.91768Z'/>
<path id='g0-10' d='M5.950806-4.297804V-6.033456C5.950806-9.566747 3.781241-13.699251 1.508364-15.414241C1.467039-15.434903 1.425714-15.455566 1.384389-15.455566C1.281076-15.455566 1.177764-15.352253 1.177764-15.248941C1.177764-15.186953 1.219089-15.124965 1.260414-15.08364C3.409316-13.471964 4.83503-9.33946 4.83503-6.033456V-4.297804C4.83503-.991801 3.409316 3.140703 1.260414 4.75238C1.219089 4.793705 1.177764 4.855692 1.177764 4.91768C1.177764 5.020993 1.281076 5.124305 1.384389 5.124305C1.425714 5.124305 1.467039 5.103643 1.508364 5.08298C3.781241 3.367991 5.950806-.764513 5.950806-4.297804Z'/>
<path id='g0-1858' d='M19.484757-5.16563C19.484757-5.289605 19.402107-5.392918 19.298795-5.434243C18.121031-5.826831 17.21188-6.653332 16.468029-7.583145C15.889479-8.326996 15.455566-9.236147 15.269603-10.207285C15.228278-10.393248 15.062978-10.537886 14.856353-10.537886C14.629065-10.537886 14.443102-10.351923 14.443102-10.124635C14.443102-10.103973 14.463765-10.062648 14.463765-10.041985C14.67039-8.946872 15.145628-7.934408 15.827491-7.066582C16.282067-6.488032 16.819292-5.992131 17.439168-5.578881H1.611677C1.384389-5.578881 1.198426-5.392918 1.198426-5.16563S1.384389-4.75238 1.611677-4.75238H17.439168C16.819292-4.339129 16.282067-3.843229 15.827491-3.264678C15.145628-2.396852 14.67039-1.384389 14.463765-.289275C14.463765-.268613 14.443102-.227288 14.443102-.206625C14.443102 .020663 14.629065 .206625 14.856353 .206625C15.062978 .206625 15.228278 .061988 15.269603-.123975C15.455566-1.095114 15.889479-2.004265 16.468029-2.748115C17.21188-3.677929 18.121031-4.50443 19.298795-4.897017C19.402107-4.938343 19.484757-5.041655 19.484757-5.16563Z'/>
<path id='g0-2734' d='M12.810763-3.161366V-7.169895C12.810763-7.397183 12.6248-7.583145 12.397513-7.583145H1.384389C1.157101-7.583145 .971138-7.397183 .971138-7.169895S1.157101-6.756644 1.384389-6.756644H11.984262V-3.161366C11.984262-2.934078 12.170225-2.748115 12.397513-2.748115S12.810763-2.934078 12.810763-3.161366Z'/>
<use id='g2-27' xlink:href='#g1-27' transform='scale(.48216)'/>
<use id='g2-34' xlink:href='#g1-34' transform='scale(.48216)'/>
</defs>
<g id='page1' transform='matrix(2.057143 0 0 2.057143 0 0)'>
<g transform='translate(-23.502533,27.741261)scale(2.2,2.2)scale(-1)translate(-23.502533,27.741261)scale(-1)'>
<g stroke-miterlimit='10' transform='translate(-23.502533,27.741261)scale(0.996264,-0.996264)'>
<g fill='#aaa7b3' stroke='#aaa7b3'>
<g stroke-width='0.4'>
</g>
</g>
</g>
<rect x='-23.502533' y='19.392564' height='8.348697' width='1.494396' fill='#aaa7b3'/>
<rect x='-22.008137' y='23.317847' height='.498132' width='8.219178' fill='#aaa7b3'/>
<rect x='-13.788959' y='23.317847' height='3.427151' width='.498132' fill='#aaa7b3'/>
<rect x='-13.290827' y='23.317847' height='.498132' width='9.713574' fill='#aaa7b3'/>
<rect x='-4.075385' y='23.815979' height='16.538019' width='.498132' fill='#aaa7b3'/>
<rect x='-3.577253' y='23.317847' height='.498132' width='19.92528' fill='#aaa7b3'/>
<g fill='#aaa7b3'>
<use x='18.340555' y='27.741261' xlink:href='#g2-34'/>
</g>
<rect x='-3.577253' y='39.855866' height='.498132' width='19.92528' fill='#aaa7b3'/>
<g fill='#aaa7b3'>
<use x='18.340555' y='44.27928' xlink:href='#g2-27'/>
</g>
</g>
<g transform='translate(152.151007,27.741261)scale(2.2,2.2)scale(-1)translate(152.151007,27.741261)scale(-1)'>
<rect x='152.151007' y='19.392564' height='8.348697' width='1.494396' fill='#aaa7b3'/>
<rect x='153.645403' y='23.317847' height='.498132' width='18.430884' fill='#aaa7b3'/>
<rect x='171.578155' y='23.815979' height='16.538019' width='.498132' fill='#aaa7b3'/>
<rect x='172.076287' y='23.317847' height='.498132' width='19.92528' fill='#aaa7b3'/>
<g fill='#aaa7b3'>
<use x='193.994095' y='27.741261' xlink:href='#g2-34'/>
</g>
<g stroke-miterlimit='10' transform='translate(172.076287,44.27928)scale(0.996264,-0.996264)'>
<g fill='#aaa7b3' stroke='#aaa7b3'>
<g stroke-width='0.4'>
</g>
</g>
</g>
<rect x='172.076287' y='39.855866' height='.498132' width='9.713574' fill='#aaa7b3'/>
<rect x='181.789861' y='39.855866' height='3.427151' width='.498132' fill='#aaa7b3'/>
<rect x='182.287993' y='39.855866' height='.498132' width='9.713574' fill='#aaa7b3'/>
<g fill='#aaa7b3'>
<use x='193.994095' y='44.27928' xlink:href='#g2-27'/>
</g>
</g>
<g transform='translate(327.804546,27.741261)scale(2.2,2.2)scale(-1)translate(327.804546,27.741261)scale(-1)'>
<rect x='327.804546' y='19.392564' height='8.348697' width='1.494396' fill='#aaa7b3'/>
<rect x='329.298942' y='23.317847' height='.498132' width='18.430884' fill='#aaa7b3'/>
<rect x='347.231695' y='23.815979' height='16.538019' width='.498132' fill='#aaa7b3'/>
<g stroke-miterlimit='10' transform='translate(347.729827,27.741261)scale(0.996264,-0.996264)'>
<g fill='#aaa7b3' stroke='#aaa7b3'>
<g stroke-width='0.4'>
</g>
</g>
</g>
<rect x='347.729827' y='23.317847' height='.498132' width='9.713574' fill='#aaa7b3'/>
<rect x='357.443401' y='23.317847' height='3.427151' width='.498132' fill='#aaa7b3'/>
<rect x='357.941533' y='23.317847' height='.498132' width='9.713574' fill='#aaa7b3'/>
<g fill='#aaa7b3'>
<use x='369.647635' y='27.741261' xlink:href='#g2-34'/>
</g>
<rect x='347.729827' y='39.855866' height='.498132' width='19.92528' fill='#aaa7b3'/>
<g fill='#aaa7b3'>
<use x='369.647635' y='44.27928' xlink:href='#g2-27'/>
</g>
</g>
<g stroke-miterlimit='10' transform='translate(-12.014166,107.396169)scale(0.996264,-0.996264)'>
<g fill='#aaa7b3' stroke='#aaa7b3'>
<g stroke-width='0.4'>
</g>
</g>
</g>
<g fill='#aaa7b3'>
<use x='-12.014166' y='107.396169' xlink:href='#g0-2734'/>
<use x='1.767739' y='107.396169' xlink:href='#g0-9'/>
<use x='9.805454' y='107.396169' xlink:href='#g1-27'/>
<use x='29.327552' y='107.396169' xlink:href='#g0-1858'/>
<use x='55.730266' y='107.396169' xlink:href='#g1-34'/>
<use x='69.512172' y='107.396169' xlink:href='#g0-10'/>
</g>
<g stroke-miterlimit='10' transform='translate(179.714818,107.396169)scale(0.996264,-0.996264)'>
<g fill='#aaa7b3' stroke='#aaa7b3'>
<g stroke-width='0.4'>
</g>
</g>
</g>
<g fill='#aaa7b3'>
<use x='179.714818' y='107.396169' xlink:href='#g0-2734'/>
<use x='193.496723' y='107.396169' xlink:href='#g1-27'/>
<use x='213.018822' y='107.396169' xlink:href='#g0-1858'/>
<use x='239.421536' y='107.396169' xlink:href='#g1-34'/>
<use x='355.368357' y='107.396169' xlink:href='#g1-27'/>
<use x='374.890456' y='107.396169' xlink:href='#g0-1858'/>
</g>
<g stroke-miterlimit='10' transform='translate(401.29317,107.396169)scale(0.996264,-0.996264)'>
<g fill='#aaa7b3' stroke='#aaa7b3'>
<g stroke-width='0.4'>
</g>
</g>
</g>
<g fill='#aaa7b3'>
<use x='401.29317' y='107.396169' xlink:href='#g0-2734'/>
<use x='415.075076' y='107.396169' xlink:href='#g1-34'/>
</g>
<g stroke-miterlimit='10' transform='translate(234.000185,115.509269)scale(0.996264,-0.996264)'>
<g fill='#aaa7b3' stroke='#aaa7b3'>
<g stroke-width='0.4'>
<g fill='#0f0' stroke='#0f0'>
<g stroke-width='0.8'>
<path d='M -237.93697 18.35553 L -238.44861 85.49739' fill='none'/>
<g transform='matrix(-0.0076,0.99992,-0.99992,-0.0076,-238.4486,85.49739)'>
<path d=' M 2.59995 0.0 L -1.55997 2.07996 L 0.0 0.0 L -1.55997 -2.07996  ' stroke='none'/>
</g>
</g>
</g>
<g fill='#0f0' stroke='#0f0'>
<g stroke-width='0.8'>
<path d='M -45.489 18.35553 L -22.7568 47.44847' fill='none'/>
<g transform='matrix(0.61569,0.78796,-0.78796,0.61569,-22.75682,47.44847)'>
<path d=' M 2.59995 0.0 L -1.55997 2.07996 L 0.0 0.0 L -1.55997 -2.07996  ' stroke='none'/>
</g>
</g>
</g>
<g fill='#0f0' stroke='#0f0'>
<g stroke-width='0.8'>
<path d='M 176.92027 20.13152 C 195.48732 41.13068 181.62549 82.51726 156.7039 87.57962' fill='none'/>
<g transform='matrix(-0.97993,0.19905,-0.19905,-0.97993,156.7039,87.5796)'>
<path d=' M 2.59995 0.0 L -1.55997 2.07996 L 0.0 0.0 L -1.55997 -2.07996  ' stroke='none'/>
</g>
</g>
</g>
</g>
</g>
</g>
</g>
</svg>