<?xml version='1.0' encoding='UTF-8'?>
<!-- This file was generated by dvisvgm 2.13.3 -->
<svg version='1.1' xmlns='http://www.w3.org/2000/svg' xmlns:xlink='http://www.w3.org/1999/xlink' width='48.387688pt' height='14.674115pt' viewBox='-29.902983 21.005539 48.387688 14.674115'>
<defs>
<path id='g1-34' d='M7.143213 0V-.308842H6.963885C6.366127-.308842 6.22665-.37858 6.117061-.707347L3.965131-6.933998C3.915318-7.063512 3.895392-7.13325 3.73599-7.13325S3.5467-7.073474 3.496887-6.933998L1.43462-.976339C1.255293-.468244 .856787-.318804 .318804-.308842V0L1.334994-.029888L2.480697 0V-.308842C1.982565-.308842 1.733499-.557908 1.733499-.816936C1.733499-.846824 1.743462-.946451 1.753425-.966376L2.211706-2.271482H4.672478L5.200498-.747198C5.210461-.707347 5.230386-.647572 5.230386-.607721C5.230386-.308842 4.672478-.308842 4.403487-.308842V0C4.762142-.029888 5.459527-.029888 5.838107-.029888L7.143213 0ZM4.562889-2.580324H2.321295L3.437111-5.818182L4.562889-2.580324Z'/>
<path id='g1-2734' d='M6.176837-1.524284V-3.457036C6.176837-3.566625 6.087173-3.656289 5.977584-3.656289H.667497C.557908-3.656289 .468244-3.566625 .468244-3.457036S.557908-3.257783 .667497-3.257783H5.778331V-1.524284C5.778331-1.414695 5.867995-1.325031 5.977584-1.325031S6.176837-1.414695 6.176837-1.524284Z'/>
<path id='g0-499' d='M1.793275-4.841843V-5.668742H1.544209L1.793275-6.914072H1.384807L.966376-5.65878V-4.841843H1.793275ZM3.726027-4.841843V-5.668742H3.476961L3.726027-6.914072H3.317559L2.899128-5.65878V-4.841843H3.726027Z'/>
<path id='g0-500' d='M1.803238-6.097136V-6.914072H.976339V-6.087173H1.225405L.976339-4.841843H1.384807L1.803238-6.097136ZM3.73599-6.097136V-6.914072H2.909091V-6.087173H3.158157L2.909091-4.841843H3.317559L3.73599-6.097136Z'/>
</defs>
<g id='page1' transform='matrix(2.057143 0 0 2.057143 0 0)'>
<g fill='#aaa7b3'>
<use x='-14.536172' y='17.344276' xlink:href='#g0-499'/>
<use x='-9.833805' y='17.344276' xlink:href='#g1-2734'/>
<use x='-3.188726' y='17.344276' xlink:href='#g1-34'/>
<use x='4.283254' y='17.344276' xlink:href='#g0-500'/>
</g>
</g>
</svg>