<?xml version='1.0' encoding='UTF-8'?>
<!-- This file was generated by dvisvgm 3.0.3 -->
<svg version='1.1' xmlns='http://www.w3.org/2000/svg' xmlns:xlink='http://www.w3.org/1999/xlink' width='37.35397pt' height='10.520548pt' viewBox='-21.804259 15.645306 37.35397 10.520548'>
<defs>
<path id='g1-1889' d='M9.384807-2.49066C9.384807-2.550436 9.344956-2.600249 9.295143-2.620174C8.727273-2.809465 8.288917-3.20797 7.930262-3.656289C7.651308-4.014944 7.442092-4.4533 7.352428-4.921544C7.332503-5.011208 7.252802-5.080946 7.153176-5.080946C7.043587-5.080946 6.953923-4.991283 6.953923-4.881694C6.953923-4.871731 6.963885-4.851806 6.963885-4.841843C7.063512-4.313823 7.292653-3.825654 7.62142-3.407223C7.840598-3.128269 8.099626-2.889166 8.398506-2.689913H1.564134C1.863014-2.889166 2.122042-3.128269 2.34122-3.407223C2.669988-3.825654 2.899128-4.313823 2.998755-4.841843C2.998755-4.851806 3.008717-4.871731 3.008717-4.881694C3.008717-4.991283 2.919054-5.080946 2.809465-5.080946C2.709838-5.080946 2.630137-5.011208 2.610212-4.921544C2.520548-4.4533 2.311333-4.014944 2.032379-3.656289C1.673724-3.20797 1.235367-2.809465 .667497-2.620174C.617684-2.600249 .577833-2.550436 .577833-2.49066S.617684-2.381071 .667497-2.361146C1.235367-2.171856 1.673724-1.77335 2.032379-1.325031C2.311333-.966376 2.520548-.52802 2.610212-.059776C2.630137 .029888 2.709838 .099626 2.809465 .099626C2.919054 .099626 3.008717 .009963 3.008717-.099626C3.008717-.109589 2.998755-.129514 2.998755-.139477C2.899128-.667497 2.669988-1.155666 2.34122-1.574097C2.122042-1.853051 1.863014-2.092154 1.564134-2.291407H8.398506C8.099626-2.092154 7.840598-1.853051 7.62142-1.574097C7.292653-1.155666 7.063512-.667497 6.963885-.139477C6.963885-.129514 6.953923-.109589 6.953923-.099626C6.953923 .009963 7.043587 .099626 7.153176 .099626C7.252802 .099626 7.332503 .029888 7.352428-.059776C7.442092-.52802 7.651308-.966376 7.930262-1.325031C8.288917-1.77335 8.727273-2.171856 9.295143-2.361146C9.344956-2.381071 9.384807-2.430884 9.384807-2.49066Z'/>
<path id='g0-499' d='M1.793275-4.841843V-5.668742H1.544209L1.793275-6.914072H1.384807L.966376-5.65878V-4.841843H1.793275ZM3.726027-4.841843V-5.668742H3.476961L3.726027-6.914072H3.317559L2.899128-5.65878V-4.841843H3.726027Z'/>
<path id='g0-500' d='M1.803238-6.097136V-6.914072H.976339V-6.087173H1.225405L.976339-4.841843H1.384807L1.803238-6.097136ZM3.73599-6.097136V-6.914072H2.909091V-6.087173H3.158157L2.909091-4.841843H3.317559L3.73599-6.097136Z'/>
</defs>
<g id='page1' transform='matrix(1.5 0 0 1.5 0 0)'>
<g fill='#aaa7b3'>
<use x='-14.536172' y='17.344276' xlink:href='#g0-499'/>
<use x='-7.066168' y='17.344276' xlink:href='#g1-1889'/>
<use x='5.664108' y='17.344276' xlink:href='#g0-500'/>
</g>
</g>
</svg>