<?xml version='1.0' encoding='UTF-8'?>
<!-- This file was generated by dvisvgm 3.0.3 -->
<svg version='1.1' xmlns='http://www.w3.org/2000/svg' xmlns:xlink='http://www.w3.org/1999/xlink' width='68.106821pt' height='14.884184pt' viewBox='-21.804259 14.838332 68.106821 14.884184'>
<defs>
<path id='g0-27' d='M6.356164 0L3.755915-6.914072H2.879203L.278954 0H1.016189L1.783313-2.032379H4.682441L5.439601 0H6.356164ZM4.463263-2.590286H1.992528C2.500623-4.014944 2.132005-2.968867 2.6401-4.393524C2.849315-4.98132 3.158157-5.828144 3.227895-6.196762H3.237858C3.257783-6.057285 3.327522-5.808219 3.556663-5.150685L4.463263-2.590286Z'/>
<path id='g0-34' d='M6.07721-1.872976C6.07721-2.739726 5.210461-3.447073 4.154421-3.616438C5.061021-3.845579 5.808219-4.423412 5.808219-5.180573C5.808219-6.097136 4.742217-6.914072 3.327522-6.914072H.966376V0H3.596513C5.031133 0 6.07721-.896638 6.07721-1.872976ZM5.031133-5.17061C5.031133-4.572852 4.323786-3.895392 2.948941-3.895392H1.793275V-6.356164H3.048568C4.154421-6.356164 5.031133-5.828144 5.031133-5.17061ZM5.270237-1.882939C5.270237-1.135741 4.393524-.557908 3.317559-.557908H1.793275V-3.287671H3.237858C4.293898-3.287671 5.270237-2.67995 5.270237-1.882939Z'/>
<path id='g1-9' d='M3.307597 2.371108C3.307597 2.34122 3.287671 2.311333 3.267746 2.291407C2.231631 1.514321 1.544209-.478207 1.544209-2.072229V-2.909091C1.544209-4.503113 2.231631-6.495641 3.267746-7.272727C3.287671-7.292653 3.307597-7.32254 3.307597-7.352428C3.307597-7.402242 3.257783-7.452055 3.20797-7.452055C3.188045-7.452055 3.16812-7.442092 3.148194-7.43213C2.052304-6.60523 1.006227-4.612702 1.006227-2.909091V-2.072229C1.006227-.368618 2.052304 1.62391 3.148194 2.450809C3.16812 2.460772 3.188045 2.470735 3.20797 2.470735C3.257783 2.470735 3.307597 2.420922 3.307597 2.371108Z'/>
<path id='g1-10' d='M2.86924-2.072229V-2.909091C2.86924-4.612702 1.823163-6.60523 .727273-7.43213C.707347-7.442092 .687422-7.452055 .667497-7.452055C.617684-7.452055 .56787-7.402242 .56787-7.352428C.56787-7.32254 .587796-7.292653 .607721-7.272727C1.643836-6.495641 2.331258-4.503113 2.331258-2.909091V-2.072229C2.331258-.478207 1.643836 1.514321 .607721 2.291407C.587796 2.311333 .56787 2.34122 .56787 2.371108C.56787 2.420922 .617684 2.470735 .667497 2.470735C.687422 2.470735 .707347 2.460772 .727273 2.450809C1.823163 1.62391 2.86924-.368618 2.86924-2.072229Z'/>
<path id='g1-2734' d='M6.176837-1.524284V-3.457036C6.176837-3.566625 6.087173-3.656289 5.977584-3.656289H.667497C.557908-3.656289 .468244-3.566625 .468244-3.457036S.557908-3.257783 .667497-3.257783H5.778331V-1.524284C5.778331-1.414695 5.867995-1.325031 5.977584-1.325031S6.176837-1.414695 6.176837-1.524284Z'/>
<path id='g1-2769' d='M5.947696-.079701L3.526775-5.858032C3.447073-6.03736 3.198007-6.03736 3.128269-5.858032L.707347-.079701C.597758 .169365 .966376 .318804 1.066002 .079701L3.327522-5.300125L5.579078 .079701C5.678705 .318804 6.047323 .169365 5.947696-.079701Z'/>
</defs>
<g id='page1' transform='matrix(1.5 0 0 1.5 0 0)'>
<g fill='#aaa7b3'>
<use x='-14.536172' y='17.344276' xlink:href='#g1-2734'/>
<use x='-7.891093' y='17.344276' xlink:href='#g1-9'/>
<use x='-4.015627' y='17.344276' xlink:href='#g0-27'/>
<use x='4.843561' y='17.344276' xlink:href='#g1-2769'/>
<use x='13.70275' y='17.344276' xlink:href='#g1-2734'/>
<use x='20.347829' y='17.344276' xlink:href='#g0-34'/>
<use x='26.992908' y='17.344276' xlink:href='#g1-10'/>
</g>
</g>
</svg>