<?xml version='1.0' encoding='UTF-8'?>
<!-- This file was generated by dvisvgm 3.0.3 -->
<svg version='1.1' xmlns='http://www.w3.org/2000/svg' xmlns:xlink='http://www.w3.org/1999/xlink' width='370.545017pt' height='14.94396pt' viewBox='-44.220199 47.685156 370.545017 14.94396'>
<defs>
<path id='g1-9' d='M3.307597 2.371108C3.307597 2.34122 3.287671 2.311333 3.267746 2.291407C2.231631 1.514321 1.544209-.478207 1.544209-2.072229V-2.909091C1.544209-4.503113 2.231631-6.495641 3.267746-7.272727C3.287671-7.292653 3.307597-7.32254 3.307597-7.352428C3.307597-7.402242 3.257783-7.452055 3.20797-7.452055C3.188045-7.452055 3.16812-7.442092 3.148194-7.43213C2.052304-6.60523 1.006227-4.612702 1.006227-2.909091V-2.072229C1.006227-.368618 2.052304 1.62391 3.148194 2.450809C3.16812 2.460772 3.188045 2.470735 3.20797 2.470735C3.257783 2.470735 3.307597 2.420922 3.307597 2.371108Z'/>
<path id='g1-10' d='M2.86924-2.072229V-2.909091C2.86924-4.612702 1.823163-6.60523 .727273-7.43213C.707347-7.442092 .687422-7.452055 .667497-7.452055C.617684-7.452055 .56787-7.402242 .56787-7.352428C.56787-7.32254 .587796-7.292653 .607721-7.272727C1.643836-6.495641 2.331258-4.503113 2.331258-2.909091V-2.072229C2.331258-.478207 1.643836 1.514321 .607721 2.291407C.587796 2.311333 .56787 2.34122 .56787 2.371108C.56787 2.420922 .617684 2.470735 .667497 2.470735C.687422 2.470735 .707347 2.460772 .727273 2.450809C1.823163 1.62391 2.86924-.368618 2.86924-2.072229Z'/>
<path id='g1-1867' d='M4.782067-4.393524C4.782067-4.483188 4.722291-4.552927 4.64259-4.582814C4.204234-4.712329 3.805729-4.951432 3.486924-5.260274C3.088418-5.648817 2.749689-6.107098 2.620174-6.665006C2.610212-6.724782 2.550436-6.764633 2.49066-6.764633S2.371108-6.724782 2.361146-6.665006C2.231631-6.107098 1.892902-5.648817 1.494396-5.260274C1.175592-4.951432 .777086-4.712329 .33873-4.582814C.259029-4.552927 .199253-4.483188 .199253-4.393524C.199253-4.283935 .288917-4.194271 .398506-4.194271C.418431-4.194271 .438356-4.194271 .458281-4.204234C.956413-4.353674 1.404732-4.622665 1.77335-4.971357C1.972603-5.17061 2.141968-5.389788 2.291407-5.618929V1.823163C2.291407 1.932752 2.381071 2.022416 2.49066 2.022416S2.689913 1.932752 2.689913 1.823163V-5.618929C2.839352-5.389788 3.008717-5.17061 3.20797-4.971357C3.576588-4.622665 4.024907-4.353674 4.523039-4.204234C4.542964-4.194271 4.562889-4.194271 4.582814-4.194271C4.692403-4.194271 4.782067-4.283935 4.782067-4.393524Z'/>
<path id='g1-2734' d='M6.176837-1.524284V-3.457036C6.176837-3.566625 6.087173-3.656289 5.977584-3.656289H.667497C.557908-3.656289 .468244-3.566625 .468244-3.457036S.557908-3.257783 .667497-3.257783H5.778331V-1.524284C5.778331-1.414695 5.867995-1.325031 5.977584-1.325031S6.176837-1.414695 6.176837-1.524284Z'/>
<path id='g0-27' d='M6.356164 0L3.755915-6.914072H2.879203L.278954 0H1.016189L1.783313-2.032379H4.682441L5.439601 0H6.356164ZM4.463263-2.590286H1.992528C2.500623-4.014944 2.132005-2.968867 2.6401-4.393524C2.849315-4.98132 3.158157-5.828144 3.227895-6.196762H3.237858C3.257783-6.057285 3.327522-5.808219 3.556663-5.150685L4.463263-2.590286Z'/>
<path id='g0-28' d='M4.07472 0V-2.879203C4.07472-3.895392 3.347447-4.592777 2.430884-4.592777C1.783313-4.592777 1.334994-4.433375 .86675-4.164384L.926526-3.506849C1.444583-3.875467 1.942715-4.004981 2.430884-4.004981C2.899128-4.004981 3.297634-3.606476 3.297634-2.86924V-2.440847C1.803238-2.420922 .537983-2.002491 .537983-1.125778C.537983-.697385 .806974 .109589 1.673724 .109589C1.8132 .109589 2.749689 .089664 3.327522-.358655V0H4.07472ZM3.297634-1.315068C3.297634-1.125778 3.297634-.876712 2.958904-.687422C2.669988-.508095 2.291407-.498132 2.181818-.498132C1.703611-.498132 1.255293-.727273 1.255293-1.145704C1.255293-1.843088 2.86924-1.912827 3.297634-1.932752V-1.315068Z'/>
<path id='g0-35' d='M4.782067-2.221669C4.782067-3.457036 4.104608-4.533001 3.16812-4.533001C2.779577-4.533001 2.161893-4.433375 1.564134-3.945205V-6.914072H.816936V0H1.594022V-.458281C1.833126-.239103 2.261519 .109589 2.929016 .109589C3.92528 .109589 4.782067-.886675 4.782067-2.221669ZM4.004981-2.221669C4.004981-.926526 3.16812-.498132 2.560399-.498132C2.171856-.498132 1.843088-.67746 1.594022-1.135741V-3.337484C1.753425-3.576588 2.11208-3.92528 2.660025-3.92528C3.247821-3.92528 4.004981-3.496887 4.004981-2.221669Z'/>
<path id='g0-50' d='M4.124533-2.181818C4.124533-2.520548 4.11457-3.267746 3.726027-3.865504C3.317559-4.483188 2.709838-4.592777 2.351183-4.592777C1.24533-4.592777 .348692-3.536737 .348692-2.251557C.348692-.936488 1.305106 .109589 2.500623 .109589C3.128269 .109589 3.696139-.129514 4.084682-.408468L4.024907-1.05604C3.39726-.537983 2.739726-.498132 2.510585-.498132C1.713574-.498132 1.075965-1.205479 1.046077-2.181818H4.124533ZM3.556663-2.729763H1.09589C1.255293-3.486924 1.783313-3.985056 2.351183-3.985056C2.86924-3.985056 3.427148-3.646326 3.556663-2.729763Z'/>
<path id='g0-66' d='M1.554172 0V-4.423412H.806974V0H1.554172ZM1.633873-5.638854V-6.525529H.747198V-5.638854H1.633873Z'/>
<path id='g0-82' d='M4.224159 0V-.577833H2.978829V-6.75467H2.779577C2.191781-6.146949 1.364882-6.117061 .886675-6.097136V-5.519303C1.215442-5.529265 1.693649-5.549191 2.191781-5.758406V-.577833H.946451V0H4.224159Z'/>
<path id='g0-85' d='M3.307597 2.49066C2.82939 2.012453 1.564134 .727273 1.564134-2.49066C1.564134-3.048568 1.594022-4.214197 2.002491-5.389788C2.410959-6.545455 2.978829-7.143213 3.307597-7.47198H2.699875C2.381071-7.173101 1.713574-6.56538 1.255293-5.339975C.856787-4.273973 .787049-3.217933 .787049-2.49066C.787049 .727273 2.221669 2.052304 2.699875 2.49066H3.307597Z'/>
<path id='g0-86' d='M3.078456-2.49066C3.078456-5.708593 1.643836-7.033624 1.165629-7.47198H.557908C1.036115-6.993773 2.30137-5.708593 2.30137-2.49066C2.30137-1.932752 2.271482-.767123 1.863014 .408468C1.454545 1.564134 .886675 2.161893 .557908 2.49066H1.165629C1.484433 2.191781 2.15193 1.58406 2.610212 .358655C3.008717-.707347 3.078456-1.763387 3.078456-2.49066Z'/>
<path id='g0-96' d='M3.257783-3.865504V-4.533001C2.371108-4.523039 1.823163-4.034869 1.514321-3.576588V-4.483188H.816936V0H1.564134V-2.132005C1.564134-3.128269 2.281445-3.845579 3.257783-3.865504Z'/>
<path id='g0-98' d='M3.58655-1.275218C3.58655-1.823163 3.217933-2.161893 3.198007-2.191781C2.809465-2.540473 2.540473-2.600249 2.042341-2.689913C1.494396-2.799502 1.036115-2.899128 1.036115-3.387298C1.036115-4.004981 1.753425-4.004981 1.882939-4.004981C2.201743-4.004981 2.729763-3.965131 3.297634-3.626401L3.417186-4.273973C2.899128-4.513076 2.49066-4.592777 1.982565-4.592777C1.733499-4.592777 .328767-4.592777 .328767-3.287671C.328767-2.799502 .617684-2.480697 .86675-2.291407C1.175592-2.072229 1.39477-2.032379 1.942715-1.92279C2.30137-1.853051 2.879203-1.733499 2.879203-1.205479C2.879203-.518057 2.092154-.518057 1.942715-.518057C1.135741-.518057 .577833-.886675 .398506-1.006227L.278954-.328767C.597758-.169365 1.145704 .109589 1.952677 .109589C2.132005 .109589 2.67995 .109589 3.108344-.209215C3.417186-.448319 3.58655-.846824 3.58655-1.275218Z'/>
<path id='g0-105' d='M3.307597-.268991L3.148194-.856787C2.889166-.647572 2.570361-.52802 2.251557-.52802C1.882939-.52802 1.743462-.826899 1.743462-1.354919V-3.845579H3.148194V-4.423412H1.743462V-5.688667H1.05604V-4.423412H.18929V-3.845579H1.026152V-1.185554C1.026152-.587796 1.165629 .109589 1.853051 .109589C2.550436 .109589 3.058531-.139477 3.307597-.268991Z'/>
<path id='g0-112' d='M4.443337-4.423412H3.696139L2.909091-2.351183C2.699875-1.803238 2.391034-.996264 2.311333-.52802H2.30137C2.241594-.886675 1.982565-1.574097 1.882939-1.843088L.916563-4.423412H.139477L1.853051 0H2.729763L4.443337-4.423412Z'/>
<path id='g0-499' d='M1.793275-4.841843V-5.668742H1.544209L1.793275-6.914072H1.384807L.966376-5.65878V-4.841843H1.793275ZM3.726027-4.841843V-5.668742H3.476961L3.726027-6.914072H3.317559L2.899128-5.65878V-4.841843H3.726027Z'/>
<path id='g0-500' d='M1.803238-6.097136V-6.914072H.976339V-6.087173H1.225405L.976339-4.841843H1.384807L1.803238-6.097136ZM3.73599-6.097136V-6.914072H2.909091V-6.087173H3.158157L2.909091-4.841843H3.317559L3.73599-6.097136Z'/>
</defs>
<g id='page1' transform='matrix(1.5 0 0 1.5 0 0)'>
<g fill='#aaa7b3'>
<use x='-29.480132' y='39.262084' xlink:href='#g0-85'/>
<use x='-25.604666' y='39.262084' xlink:href='#g0-82'/>
<use x='-20.623346' y='39.262084' xlink:href='#g0-82'/>
<use x='-15.642026' y='39.262084' xlink:href='#g0-86'/>
<use x='101.010873' y='39.262084' xlink:href='#g0-499'/>
<use x='105.71324' y='39.262084' xlink:href='#g1-2734'/>
<use x='112.358319' y='39.262084' xlink:href='#g0-27'/>
<use x='119.003399' y='39.262084' xlink:href='#g0-500'/>
<use x='127.023327' y='39.262084' xlink:href='#g0-28'/>
<use x='131.815354' y='39.262084' xlink:href='#g0-35'/>
<use x='136.966037' y='39.262084' xlink:href='#g0-35'/>
<use x='141.837768' y='39.262084' xlink:href='#g0-96'/>
<use x='145.245004' y='39.262084' xlink:href='#g0-50'/>
<use x='149.668404' y='39.262084' xlink:href='#g0-112'/>
<use x='154.261181' y='39.262084' xlink:href='#g0-66'/>
<use x='156.642252' y='39.262084' xlink:href='#g0-28'/>
<use x='161.434294' y='39.262084' xlink:href='#g0-105'/>
<use x='165.030808' y='39.262084' xlink:href='#g0-50'/>
<use x='169.454207' y='39.262084' xlink:href='#g0-98'/>
<use x='176.587461' y='39.262084' xlink:href='#g0-499'/>
<use x='181.289829' y='39.262084' xlink:href='#g1-9'/>
<use x='185.165295' y='39.262084' xlink:href='#g0-27'/>
<use x='194.578011' y='39.262084' xlink:href='#g1-1867'/>
<use x='202.326967' y='39.262084' xlink:href='#g0-27'/>
<use x='208.972046' y='39.262084' xlink:href='#g1-10'/>
<use x='212.847513' y='39.262084' xlink:href='#g0-500'/>
</g>
</g>
</svg>